Aula6Exercicio1/Aula6Exercicio1a/simulation/qsim/exercicio1a.msim.vcd
$comment
	File created using the following command:
		vcd file exercicio1a.msim.vcd -direction
$end
$date
	Fri Aug 23 09:42:28 2019
$end
$version
	ModelSim Version 10.5b
$end
$timescale
	1ps
$end

$scope module exercicio1a_vhd_vec_tst $end
$var wire 1 ! a [0] $end
$var wire 1 " a [1] $end
$var wire 1 # a [2] $end
$var wire 1 $ a [3] $end
$var wire 1 % b [0] $end
$var wire 1 & b [1] $end
$var wire 1 ' b [2] $end
$var wire 1 ( b [3] $end
$var wire 1 ) s [0] $end
$var wire 1 * s [1] $end
$var wire 1 + s [2] $end
$var wire 1 , s [3] $end

$scope module i1 $end
$var wire 1 - gnd $end
$var wire 1 . vcc $end
$var wire 1 / unknown $end
$var wire 1 0 devoe $end
$var wire 1 1 devclrn $end
$var wire 1 2 devpor $end
$var wire 1 3 ww_devoe $end
$var wire 1 4 ww_devclrn $end
$var wire 1 5 ww_devpor $end
$var wire 1 6 ww_a [0] $end
$var wire 1 7 ww_a [1] $end
$var wire 1 8 ww_a [2] $end
$var wire 1 9 ww_a [3] $end
$var wire 1 : ww_b [0] $end
$var wire 1 ; ww_b [1] $end
$var wire 1 < ww_b [2] $end
$var wire 1 = ww_b [3] $end
$var wire 1 > ww_s [0] $end
$var wire 1 ? ww_s [1] $end
$var wire 1 @ ww_s [2] $end
$var wire 1 A ww_s [3] $end
$var wire 1 B \s[3]~output_o\ $end
$var wire 1 C \s[2]~output_o\ $end
$var wire 1 D \s[1]~output_o\ $end
$var wire 1 E \s[0]~output_o\ $end
$var wire 1 F \a[3]~input_o\ $end
$var wire 1 G \b[3]~input_o\ $end
$var wire 1 H \s~0_combout\ $end
$var wire 1 I \a[2]~input_o\ $end
$var wire 1 J \b[2]~input_o\ $end
$var wire 1 K \s~1_combout\ $end
$var wire 1 L \b[1]~input_o\ $end
$var wire 1 M \a[1]~input_o\ $end
$var wire 1 N \s~2_combout\ $end
$var wire 1 O \b[0]~input_o\ $end
$var wire 1 P \a[0]~input_o\ $end
$var wire 1 Q \s~3_combout\ $end
$var wire 1 R \ALT_INV_s~3_combout\ $end
$var wire 1 S \ALT_INV_s~0_combout\ $end
$upscope $end
$upscope $end
$enddefinitions $end
#0
$dumpvars
0-
1.
x/
10
11
12
13
14
15
1B
0C
0D
1E
0F
0G
0H
0I
0J
0K
0L
0M
0N
0O
0P
0Q
1R
1S
0!
0"
0#
0$
0%
0&
0'
0(
1)
0*
0+
1,
06
07
08
09
0:
0;
0<
0=
1>
0?
0@
1A
$end
#5000
1!
1(
1'
16
1=
1<
1J
1G
1P
1Q
0R
0E
0>
0)
#10000
0!
1"
1&
17
06
1;
1L
0P
1M
0Q
1R
1E
1>
1)
#15000
1!
0(
1#
1%
18
16
0=
1:
1O
0G
1P
1I
1Q
0R
0E
0>
0)
#20000
0!
0"
1$
19
07
06
0P
0M
1F
1N
1D
1?
1*
#25000
1!
0%
16
0:
0O
1P
#30000
0!
1%
1"
0#
0&
08
17
06
0;
1:
1O
0L
0P
1M
0I
0N
0D
0?
0*
#35000
1!
0%
1&
1(
0'
16
1=
0<
1;
0:
0O
1L
0J
1G
1P
1H
0S
0B
0A
0,
#40000
0!
1%
0&
0"
0$
09
07
06
0;
1:
1O
0L
0P
0M
0F
0H
1S
1B
1A
1,
#45000
1!
0%
0(
1#
18
16
0=
0:
0O
0G
1P
1I
1K
1C
1@
1+
#50000
0!
1%
1"
1'
17
06
1<
1:
1O
1J
0P
1M
0K
0C
0@
0+
#55000
1!
1&
16
1;
1L
1P
#60000
0!
0%
0"
0#
1$
19
08
07
06
0:
0O
0P
0M
0I
1F
1N
0Q
1R
1D
1E
1?
1>
1*
1)
#65000
1!
0&
0'
1(
16
1=
0<
0;
0L
0J
1G
1P
1Q
1H
0N
0S
0R
0D
0E
0B
0?
0>
0A
0*
0,
0)
#70000
0!
1&
0(
1"
17
06
0=
1;
1L
0G
0P
1M
0Q
0H
1S
1R
1E
1B
1>
1A
1,
1)
#75000
1!
0&
1'
1%
1#
18
16
1<
0;
1:
1O
0L
1J
1P
1I
1Q
0R
0E
0>
0)
#80000
0!
1&
0'
0"
0$
09
07
06
0<
1;
1L
0J
0P
0M
0F
1K
1N
1D
1C
1?
1@
1+
1*
#85000
1!
0%
1(
16
1=
0:
0O
1G
1P
#90000
0!
1'
1"
0#
08
17
06
1<
1J
0P
1M
0I
0N
0Q
0K
1R
0C
0D
1E
0@
0?
1>
0+
0*
1)
#95000
1!
1%
0(
0&
16
0=
0;
1:
1O
0L
0G
1P
1Q
0R
0E
0>
0)
#100000
0!
0%
1(
1&
0'
0"
1$
19
07
06
1=
0<
1;
0:
0O
1L
0J
1G
0P
0M
1F
1H
1N
0Q
1R
0S
1D
0B
1E
1?
0A
1>
1*
0,
1)
#105000
1!
1%
0&
1'
1#
18
16
1<
0;
1:
1O
0L
1J
1P
1I
0N
1Q
0R
0D
0E
0?
0>
0*
0)
#110000
0!
1&
0'
1"
17
06
0<
1;
1L
0J
0P
1M
1K
1C
1@
1+
#115000
1!
1'
0(
16
0=
1<
1J
0G
1P
0H
0K
1S
0C
1B
0@
1A
0+
1,
#120000
0!
0'
0"
0%
0#
0$
09
08
07
06
0<
0:
0O
0J
0P
0M
0I
0F
1N
0Q
1R
1D
1E
1?
1>
1*
1)
#125000
1!
1%
0&
16
0;
1:
1O
0L
1P
0N
1Q
0R
0D
0E
0?
0>
0*
0)
#130000
0!
1&
1'
1"
1(
17
06
1=
1<
1;
1L
1J
1G
0P
1M
#135000
1!
0%
1#
18
16
0:
0O
1P
1I
#140000
0!
0&
0"
1$
19
07
06
0;
0L
0P
0M
1F
1H
0Q
1R
0S
0B
1E
0A
1>
0,
1)
#145000
1!
16
1P
1Q
0R
0E
0>
0)
#150000
0!
1&
1"
1%
0#
0(
08
17
06
0=
1;
1:
1O
1L
0G
0P
1M
0I
0H
1S
1B
1A
1,
#155000
1!
0%
16
0:
0O
1P
#160000
0!
1%
0"
0$
09
07
06
1:
1O
0P
0M
0F
1N
1D
1?
1*
#165000
1!
0%
1#
1(
18
16
1=
0:
0O
1G
1P
1I
#170000
0!
1"
17
06
0P
1M
0N
0Q
1R
0D
1E
0?
1>
0*
1)
#175000
1!
16
1P
1Q
0R
0E
0>
0)
#180000
0!
0"
0#
0(
1$
19
08
07
06
0=
0G
0P
0M
0I
1F
1N
0Q
1R
1D
1E
1?
1>
1*
1)
#185000
1!
1(
0'
16
1=
0<
0J
1G
1P
1Q
1H
0S
0R
0E
0B
0>
0A
0,
0)
#190000
0!
1'
1"
0&
17
06
1<
0;
0L
1J
0P
1M
0Q
0N
1R
0D
1E
0?
1>
0*
1)
#195000
1!
0'
1&
0(
1#
1%
18
16
0=
0<
1;
1:
1O
1L
0J
0G
1P
1I
0H
1K
1Q
0R
1S
1C
1B
0E
1@
1A
0>
1+
1,
0)
#200000
0!
1'
0&
1(
0%
0"
0$
09
07
06
1=
1<
0;
0:
0O
0L
1J
1G
0P
0M
0F
0K
0Q
1R
0C
1E
0@
1>
0+
1)
#205000
1!
1&
1%
16
1;
1:
1O
1L
1P
1N
1Q
0R
1D
0E
1?
0>
1*
0)
#210000
0!
0%
0'
1"
0#
08
17
06
0<
0:
0O
0J
0P
1M
0I
0N
0Q
1R
0D
1E
0?
1>
0*
1)
#215000
1!
1'
0&
0(
16
0=
1<
0;
0L
1J
0G
1P
1Q
0R
0E
0>
0)
#220000
0!
1(
0"
1$
19
07
06
1=
1G
0P
0M
1F
0Q
1H
0S
1R
1E
0B
1>
0A
0,
1)
#225000
1!
0(
0'
1#
18
16
0=
0<
0J
0G
1P
1I
1Q
0H
1K
1S
0R
1C
0E
1B
1@
0>
1A
1+
1,
0)
#230000
0!
1(
1'
1"
1&
17
06
1=
1<
1;
1L
1J
1G
0P
1M
0Q
1H
0K
0S
1R
0C
1E
0B
0@
1>
0A
0+
0,
1)
#235000
1!
0(
0'
1%
16
0=
0<
1:
1O
0J
0G
1P
0H
1K
1Q
0R
1S
1C
1B
0E
1@
1A
0>
1+
1,
0)
#240000
0!
0%
0"
0#
0$
09
08
07
06
0:
0O
0P
0M
0I
0F
0K
1N
0Q
1R
1D
0C
1E
1?
0@
1>
0+
1*
1)
#245000
1!
16
1P
1Q
0R
0E
0>
0)
#250000
0!
1%
1"
1'
17
06
1<
1:
1O
1J
0P
1M
0N
0D
0?
0*
#255000
1!
1#
0&
18
16
0;
0L
1P
1I
#260000
0!
0%
0"
0'
1$
19
07
06
0<
0:
0O
0J
0P
0M
1F
1K
0Q
1R
1C
1E
1@
1>
1+
1)
#265000
1!
1%
1&
1(
16
1=
1;
1:
1O
1L
1G
1P
1H
1N
1Q
0R
0S
1D
0B
0E
1?
0A
0>
1*
0,
0)
#270000
0!
0%
0(
1"
1'
0#
08
17
06
0=
1<
0:
0O
1J
0G
0P
1M
0I
0N
0H
0K
0Q
1R
1S
0C
0D
1B
1E
0@
0?
1A
1>
0+
0*
1,
1)
#275000
1!
1(
16
1=
1G
1P
1Q
1H
0S
0R
0E
0B
0>
0A
0,
0)
#280000
0!
0(
0"
0'
0$
09
07
06
0=
0<
0J
0G
0P
0M
0F
1N
0Q
0H
1S
1R
1D
1E
1B
1?
1>
1A
1*
1,
1)
#285000
1!
1(
1#
18
16
1=
1G
1P
1I
1K
1Q
0R
1C
0E
1@
0>
1+
0)
#290000
0!
0(
1"
1'
1%
17
06
0=
1<
1:
1O
1J
0G
0P
1M
0N
0K
0C
0D
0@
0?
0+
0*
#295000
1!
1(
0%
0&
16
1=
0;
0:
0O
0L
1G
1P
#300000
0!
1&
0"
0#
1$
19
08
07
06
1;
1L
0P
0M
0I
1F
1H
0Q
1N
1R
0S
1D
0B
1E
1?
0A
1>
1*
0,
1)
#305000
1!
0(
0'
16
0=
0<
0J
0G
1P
1Q
0H
1S
0R
0E
1B
0>
1A
1,
0)
#310000
0!
1'
0&
1"
1%
17
06
1<
0;
1:
1O
0L
1J
0P
1M
0N
0D
0?
0*
#315000
1!
1(
1#
18
16
1=
1G
1P
1I
1H
0S
0B
0A
0,
#320000
0!
0"
0$
09
07
06
0P
0M
0F
0H
1S
1B
1A
1,
#325000
1!
1&
0%
16
1;
0:
0O
1L
1P
1N
1D
1?
1*
#330000
0!
0&
1%
1"
0(
0#
0'
08
17
06
0=
0<
0;
1:
1O
0L
0J
0G
0P
1M
0I
0N
0D
0?
0*
#335000
1!
1&
0%
1(
16
1=
1;
0:
0O
1L
1G
1P
#340000
0!
0&
0"
1$
19
07
06
0;
0L
0P
0M
1F
1H
0Q
1R
0S
0B
1E
0A
1>
0,
1)
#345000
1!
1#
18
16
1P
1I
1K
1Q
0R
1C
0E
1@
0>
1+
0)
#350000
0!
1&
1"
0(
1'
17
06
0=
1<
1;
1L
1J
0G
0P
1M
0Q
0H
0K
1S
1R
0C
1E
1B
0@
1>
1A
0+
1,
1)
#355000
1!
16
1P
1Q
0R
0E
0>
0)
#360000
0!
0"
1(
0#
0$
1%
09
08
07
06
1=
1:
1O
1G
0P
0M
0I
0F
1N
1D
1?
1*
#365000
1!
0(
16
0=
0G
1P
#370000
0!
1"
0%
0&
17
06
0;
0:
0O
0L
0P
1M
0N
0Q
1R
0D
1E
0?
1>
0*
1)
#375000
1!
1&
1(
1#
18
16
1=
1;
1L
1G
1P
1I
1Q
0R
0E
0>
0)
#380000
0!
0"
1%
1$
0'
19
07
06
0<
1:
1O
0J
0P
0M
1F
1H
1N
1K
0S
1C
1D
0B
1@
1?
0A
1+
1*
0,
#385000
1!
0%
0&
16
0;
0:
0O
0L
1P
0N
0D
0?
0*
#390000
0!
1%
1&
1"
1'
0(
0#
08
17
06
0=
1<
1;
1:
1O
1L
1J
0G
0P
1M
0I
0H
0K
1S
0C
1B
0@
1A
0+
1,
#395000
1!
0%
0&
16
0;
0:
0O
0L
1P
#400000
0!
1%
1&
0"
0'
1(
0$
09
07
06
1=
0<
1;
1:
1O
1L
0J
1G
0P
0M
0F
1N
1D
1?
1*
#405000
1!
0&
0(
1#
18
16
0=
0;
0L
0G
1P
1I
1K
0N
0D
1C
0?
1@
1+
0*
#410000
0!
1&
1"
17
06
1;
1L
0P
1M
#415000
1!
0&
0%
16
0;
0:
0O
0L
1P
#420000
0!
1&
0"
1(
0#
1'
1$
19
08
07
06
1=
1<
1;
1L
1J
1G
0P
0M
0I
1F
0Q
1H
0K
1N
0S
1R
1D
0C
1E
0B
1?
0@
1>
0A
0+
1*
0,
1)
#425000
1!
0&
1%
16
0;
1:
1O
0L
1P
0N
1Q
0R
0D
0E
0?
0>
0*
0)
#430000
0!
0%
1"
17
06
0:
0O
0P
1M
0Q
1R
1E
1>
1)
#435000
1!
0(
1#
0'
18
16
0=
0<
0J
0G
1P
1I
1Q
0H
1K
1S
0R
1C
0E
1B
1@
0>
1A
1+
1,
0)
#440000
0!
1%
0"
0$
09
07
06
1:
1O
0P
0M
0F
#445000
1!
0%
1'
1&
16
1<
1;
0:
0O
1L
1J
1P
0K
1N
1D
0C
1?
0@
0+
1*
#450000
0!
0'
0&
1"
1(
0#
08
17
06
1=
0<
0;
0L
0J
1G
0P
1M
0I
0Q
0N
1R
0D
1E
0?
1>
0*
1)
#455000
1!
1'
16
1<
1J
1P
1Q
0R
0E
0>
0)
#460000
0!
1&
0"
0(
1$
19
07
06
0=
1;
1L
0G
0P
0M
1F
0Q
1N
1R
1D
1E
1?
1>
1*
1)
#465000
1!
1(
1#
18
16
1=
1G
1P
1I
1Q
1H
0S
0R
0E
0B
0>
0A
0,
0)
#470000
0!
1"
17
06
0P
1M
0N
0Q
1R
0D
1E
0?
1>
0*
1)
#475000
1!
0(
0&
0'
1%
16
0=
0<
0;
1:
1O
0L
0J
0G
1P
0H
1K
1Q
0R
1S
1C
1B
0E
1@
1A
0>
1+
1,
0)
#480000
0!
1(
1'
0"
0#
0$
09
08
07
06
1=
1<
1J
1G
0P
0M
0I
0F
0K
0C
0@
0+
#485000
1!
1&
16
1;
1L
1P
1N
1D
1?
1*
#490000
0!
0&
0(
1"
0%
17
06
0=
0;
0:
0O
0L
0G
0P
1M
0N
0Q
1R
0D
1E
0?
1>
0*
1)
#495000
1!
1&
1(
0'
1#
18
16
1=
0<
1;
1L
0J
1G
1P
1I
1Q
1K
0R
1C
0E
1@
0>
1+
0)
#500000
0!
0"
1%
1$
19
07
06
1:
1O
0P
0M
1F
1H
1N
0S
1D
0B
1?
0A
1*
0,
#505000
1!
0&
0(
1'
16
0=
1<
0;
0L
1J
0G
1P
0H
0K
0N
1S
0D
0C
1B
0?
0@
1A
0+
0*
1,
#510000
0!
0'
1"
0%
0#
08
17
06
0<
0:
0O
0J
0P
1M
0I
0Q
1R
1E
1>
1)
#515000
1!
1&
16
1;
1L
1P
1Q
0R
0E
0>
0)
#520000
0!
1'
0"
1%
0$
09
07
06
1<
1:
1O
1J
0P
0M
0F
1N
1D
1?
1*
#525000
1!
0&
1#
1(
18
16
1=
0;
0L
1G
1P
1I
0N
0D
0?
0*
#530000
0!
1&
0(
1"
0%
17
06
0=
1;
0:
0O
1L
0G
0P
1M
0Q
1R
1E
1>
1)
#535000
1!
16
1P
1Q
0R
0E
0>
0)
#540000
0!
0&
1(
0"
1%
0#
1$
19
08
07
06
1=
0;
1:
1O
0L
1G
0P
0M
0I
1F
1H
0S
0B
0A
0,
#545000
1!
0%
16
0:
0O
1P
#550000
0!
1%
1&
0(
1"
0'
17
06
0=
0<
1;
1:
1O
1L
0J
0G
0P
1M
0H
1S
1B
1A
1,
#555000
1!
0%
0&
1'
1#
18
16
1<
0;
0:
0O
0L
1J
1P
1I
#560000
0!
0'
1(
0"
0$
09
07
06
1=
0<
0J
1G
0P
0M
0F
0Q
1K
1R
1C
1E
1@
1>
1+
1)
#565000
1!
1%
16
1:
1O
1P
1Q
0R
0E
0>
0)
#570000
0!
0%
1"
1&
0#
08
17
06
1;
0:
0O
1L
0P
1M
0I
0K
0Q
1R
0C
1E
0@
1>
0+
1)
#575000
1!
1%
0&
1'
0(
16
0=
1<
0;
1:
1O
0L
1J
0G
1P
1Q
0R
0E
0>
0)
#580000
0!
0%
1&
0'
0"
1$
19
07
06
0<
1;
0:
0O
1L
0J
0P
0M
1F
1N
0Q
1R
1D
1E
1?
1>
1*
1)
#585000
1!
1%
1(
1#
18
16
1=
1:
1O
1G
1P
1I
1K
1H
1Q
0R
0S
1C
0B
0E
1@
0A
0>
1+
0,
0)
#590000
0!
0%
0&
1'
1"
17
06
1<
0;
0:
0O
0L
1J
0P
1M
0K
0N
0Q
1R
0D
0C
1E
0?
0@
1>
0+
0*
1)
#595000
1!
1%
1&
0'
16
0<
1;
1:
1O
1L
0J
1P
1K
1Q
0R
1C
0E
1@
0>
1+
0)
#600000
0!
0&
0"
0(
0#
0$
09
08
07
06
0=
0;
0L
0G
0P
0M
0I
0F
0K
0H
1S
0C
1B
0@
1A
0+
1,
#605000
1!
1(
1'
16
1=
1<
1J
1G
1P
#610000
0!
1&
1"
0%
17
06
1;
0:
0O
1L
0P
1M
0Q
1R
1E
1>
1)
#615000
1!
1#
18
16
1P
1I
1Q
0R
0E
0>
0)
#620000
0!
0&
0"
0(
0'
1$
19
07
06
0=
0<
0;
0L
0J
0G
0P
0M
1F
0Q
1K
1R
1C
1E
1@
1>
1+
1)
#625000
1!
16
1P
1Q
0R
0E
0>
0)
#630000
0!
1&
1"
0#
08
17
06
1;
1L
0P
1M
0I
0K
0Q
1R
0C
1E
0@
1>
0+
1)
#635000
1!
0&
1(
1'
16
1=
1<
0;
0L
1J
1G
1P
1Q
1H
0S
0R
0E
0B
0>
0A
0,
0)
#640000
0!
1&
0"
0$
09
07
06
1;
1L
0P
0M
0F
0H
0Q
1N
1R
1S
1D
1B
1E
1?
1A
1>
1*
1,
1)
#645000
1!
0&
0(
0'
1#
18
16
0=
0<
0;
0L
0J
0G
1P
1I
1Q
1K
0N
0R
0D
1C
0E
0?
1@
0>
1+
0*
0)
#650000
0!
1'
1"
17
06
1<
1J
0P
1M
0Q
0K
1R
0C
1E
0@
1>
0+
1)
#655000
1!
0'
1&
16
0<
1;
1L
0J
1P
1Q
1K
0R
1C
0E
1@
0>
1+
0)
#660000
0!
1'
0&
0"
0#
1$
1%
19
08
07
06
1<
0;
1:
1O
0L
1J
0P
0M
0I
1F
0K
0C
0@
0+
#665000
1!
1&
1(
16
1=
1;
1L
1G
1P
1H
1N
0S
1D
0B
1?
0A
1*
0,
#670000
0!
0&
0(
1"
17
06
0=
0;
0L
0G
0P
1M
0H
0N
1S
0D
1B
0?
1A
0*
1,
#675000
1!
1&
1#
18
16
1;
1L
1P
1I
#680000
0!
0&
0"
0'
0$
0%
09
07
06
0<
0;
0:
0O
0L
0J
0P
0M
0F
1K
0Q
1R
1C
1E
1@
1>
1+
1)
#685000
1!
1%
16
1:
1O
1P
1Q
0R
0E
0>
0)
#690000
0!
0%
1"
0#
08
17
06
0:
0O
0P
1M
0I
0K
0Q
1R
0C
1E
0@
1>
0+
1)
#695000
1!
1%
1'
1(
16
1=
1<
1:
1O
1J
1G
1P
1Q
0R
0E
0>
0)
#700000
0!
0'
0"
1$
19
07
06
0<
0J
0P
0M
1F
1H
0S
0B
0A
0,
#705000
1!
1'
0(
1#
1&
18
16
0=
1<
1;
1L
1J
0G
1P
1I
0H
1N
1S
1D
1B
1?
1A
1*
1,
#710000
0!
1(
0&
1"
0%
17
06
1=
0;
0:
0O
0L
1G
0P
1M
1H
0N
0Q
1R
0S
0D
0B
1E
0?
0A
1>
0*
0,
1)
#715000
1!
0(
16
0=
0G
1P
1Q
0H
1S
0R
0E
1B
0>
1A
1,
0)
#720000
0!
0"
1%
0#
0$
09
08
07
06
1:
1O
0P
0M
0I
0F
#725000
1!
0%
1(
1&
16
1=
1;
0:
0O
1L
1G
1P
1N
1D
1?
1*
#730000
0!
1%
0(
1"
0'
17
06
0=
0<
1:
1O
0J
0G
0P
1M
0N
0D
0?
0*
#735000
1!
0%
1(
1'
1#
18
16
1=
1<
0:
0O
1J
1G
1P
1I
#740000
0!
1%
0"
1$
19
07
06
1:
1O
0P
0M
1F
1H
1N
0S
1D
0B
1?
0A
1*
0,
#745000
1!
0(
16
0=
0G
1P
0H
1S
1B
1A
1,
#750000
0!
1"
0#
08
17
06
0P
1M
0I
0N
0D
0?
0*
#755000
1!
0%
16
0:
0O
1P
#760000
0!
1%
0"
0$
0'
09
07
06
0<
1:
1O
0J
0P
0M
0F
1N
1D
1?
1*
#765000
1!
1'
1#
0&
18
16
1<
0;
0L
1J
1P
1I
0N
0D
0?
0*
#770000
0!
1&
0%
1"
17
06
1;
0:
0O
1L
0P
1M
0Q
1R
1E
1>
1)
#775000
1!
1%
0'
1(
16
1=
0<
1:
1O
0J
1G
1P
1K
1Q
0R
1C
0E
1@
0>
1+
0)
#780000
0!
1'
0&
0"
0#
1$
19
08
07
06
1<
0;
0L
1J
0P
0M
0I
1F
1H
0K
0S
0C
0B
0@
0A
0+
0,
#785000
1!
1&
0%
16
1;
0:
0O
1L
1P
1N
1D
1?
1*
#790000
0!
1%
1"
0(
17
06
0=
1:
1O
0G
0P
1M
0N
0H
1S
0D
1B
0?
1A
0*
1,
#795000
1!
0%
1#
18
16
0:
0O
1P
1I
#800000
0!
1%
0"
0'
0$
09
07
06
0<
1:
1O
0J
0P
0M
0F
1N
1K
1C
1D
1@
1?
1+
1*
#805000
1!
0&
16
0;
0L
1P
0N
0D
0?
0*
#810000
0!
0%
1"
1'
0#
08
17
06
1<
0:
0O
1J
0P
1M
0I
0K
0Q
1R
0C
1E
0@
1>
0+
1)
#815000
1!
1(
16
1=
1G
1P
1Q
0R
0E
0>
0)
#820000
0!
0(
0"
0'
1$
19
07
06
0=
0<
0J
0G
0P
0M
1F
0Q
1R
1E
1>
1)
#825000
1!
1#
18
16
1P
1I
1K
1Q
0R
1C
0E
1@
0>
1+
0)
#830000
0!
1(
1"
1%
17
06
1=
1:
1O
1G
0P
1M
1H
0S
0B
0A
0,
#835000
1!
0%
1&
16
1;
0:
0O
1L
1P
#840000
0!
1%
0(
0"
0#
1'
0$
09
08
07
06
0=
1<
1:
1O
1J
0G
0P
0M
0I
0F
1N
0H
0K
1S
0C
1D
1B
0@
1?
1A
0+
1*
1,
#845000
1!
1(
0&
16
1=
0;
0L
1G
1P
0N
0D
0?
0*
#850000
0!
0%
1"
17
06
0:
0O
0P
1M
0Q
1R
1E
1>
1)
#855000
1!
1#
0'
18
16
0<
0J
1P
1I
1Q
1K
0R
1C
0E
1@
0>
1+
0)
#860000
0!
1%
0"
1&
1$
19
07
06
1;
1:
1O
1L
0P
0M
1F
1H
1N
0S
1D
0B
1?
0A
1*
0,
#865000
1!
1'
0(
16
0=
1<
1J
0G
1P
0H
0K
1S
0C
1B
0@
1A
0+
1,
#870000
0!
0'
0%
1"
0&
0#
08
17
06
0<
0;
0:
0O
0L
0J
0P
1M
0I
0N
0Q
1R
0D
1E
0?
1>
0*
1)
#875000
1!
1'
1%
1(
16
1=
1<
1:
1O
1J
1G
1P
1H
1Q
0R
0S
0B
0E
0A
0>
0,
0)
#880000
0!
0%
0"
1&
0$
09
07
06
1;
0:
0O
1L
0P
0M
0F
0H
1N
0Q
1R
1S
1D
1B
1E
1?
1A
1>
1*
1,
1)
#885000
1!
1%
0&
0(
1#
18
16
0=
0;
1:
1O
0L
0G
1P
1I
0N
1Q
0R
0D
0E
0?
0>
0*
0)
#890000
0!
0%
1&
1"
0'
17
06
0<
1;
0:
0O
1L
0J
0P
1M
1K
0Q
1R
1C
1E
1@
1>
1+
1)
#895000
1!
1%
0&
16
0;
1:
1O
0L
1P
1Q
0R
0E
0>
0)
#900000
0!
0%
1&
0"
0#
1$
19
08
07
06
1;
0:
0O
1L
0P
0M
0I
1F
0K
1N
0Q
1R
1D
0C
1E
1?
0@
1>
0+
1*
1)
#905000
1!
1%
0&
16
0;
1:
1O
0L
1P
0N
1Q
0R
0D
0E
0?
0>
0*
0)
#910000
0!
0%
1"
17
06
0:
0O
0P
1M
0Q
1R
1E
1>
1)
#915000
1!
1#
1(
18
16
1=
1G
1P
1I
1K
1Q
1H
0S
0R
1C
0E
0B
1@
0>
0A
1+
0,
0)
#920000
0!
0(
1%
0"
0$
09
07
06
0=
1:
1O
0G
0P
0M
0F
0H
1S
1B
1A
1,
#925000
1!
0%
1'
16
1<
0:
0O
1J
1P
0K
0C
0@
0+
#930000
0!
0'
1(
1"
0#
1&
08
17
06
1=
0<
1;
1L
0J
1G
0P
1M
0I
0Q
1R
1E
1>
1)
#935000
1!
1'
0(
16
0=
1<
1J
0G
1P
1Q
0R
0E
0>
0)
#940000
0!
0'
1(
0"
0&
1$
19
07
06
1=
0<
0;
0L
0J
1G
0P
0M
1F
0Q
1H
0S
1R
1E
0B
1>
0A
0,
1)
#945000
1!
1'
0(
1&
1#
1%
18
16
0=
1<
1;
1:
1O
1L
1J
0G
1P
1I
0H
1N
1Q
0R
1S
1D
1B
0E
1?
1A
0>
1*
1,
0)
#950000
0!
0%
1"
17
06
0:
0O
0P
1M
0N
0Q
1R
0D
1E
0?
1>
0*
1)
#955000
1!
0'
1(
16
1=
0<
0J
1G
1P
1Q
1H
1K
0S
0R
1C
0E
0B
1@
0>
0A
1+
0,
0)
#960000
0!
0(
0"
0&
0#
0$
09
08
07
06
0=
0;
0L
0G
0P
0M
0I
0F
0K
0Q
0H
1S
1R
0C
1E
1B
0@
1>
1A
0+
1,
1)
#965000
1!
1(
1&
1'
16
1=
1<
1;
1L
1J
1G
1P
1Q
1N
0R
1D
0E
1?
0>
1*
0)
#970000
0!
0'
1"
17
06
0<
0J
0P
1M
0N
0Q
1R
0D
1E
0?
1>
0*
1)
#975000
1!
1'
0(
1#
1%
18
16
0=
1<
1:
1O
1J
0G
1P
1I
1Q
0R
0E
0>
0)
#980000
0!
1(
0%
0"
0&
1$
19
07
06
1=
0;
0:
0O
0L
1G
0P
0M
1F
1H
0Q
1R
0S
0B
1E
0A
1>
0,
1)
#985000
1!
16
1P
1Q
0R
0E
0>
0)
#990000
0!
0(
1"
0'
0#
08
17
06
0=
0<
0J
0G
0P
1M
0I
0Q
0H
1S
1R
1E
1B
1>
1A
1,
1)
#995000
1!
1'
1&
16
1<
1;
1L
1J
1P
1Q
0R
0E
0>
0)
