Aula15Exercicio1/simulation/qsim/project1.msim.vcd
$comment
	File created using the following command:
		vcd file project1.msim.vcd -direction
$end
$date
	Fri Sep 13 12:53:16 2019
$end
$version
	ModelSim Version 10.5b
$end
$timescale
	1ps
$end

$scope module project1_vhd_vec_tst $end
$var wire 1 ! j0 $end
$var wire 1 " j1 $end
$var wire 1 # j2 $end
$var wire 1 $ j3 $end
$var wire 1 % luzVerde $end
$var wire 1 & luzVermelha $end

$scope module i1 $end
$var wire 1 ' gnd $end
$var wire 1 ( vcc $end
$var wire 1 ) unknown $end
$var wire 1 * devoe $end
$var wire 1 + devclrn $end
$var wire 1 , devpor $end
$var wire 1 - ww_devoe $end
$var wire 1 . ww_devclrn $end
$var wire 1 / ww_devpor $end
$var wire 1 0 ww_j0 $end
$var wire 1 1 ww_j1 $end
$var wire 1 2 ww_j2 $end
$var wire 1 3 ww_j3 $end
$var wire 1 4 ww_luzVerde $end
$var wire 1 5 ww_luzVermelha $end
$var wire 1 6 \luzVerde~output_o\ $end
$var wire 1 7 \luzVermelha~output_o\ $end
$var wire 1 8 \j3~input_o\ $end
$var wire 1 9 \j1~input_o\ $end
$var wire 1 : \j0~input_o\ $end
$var wire 1 ; \j2~input_o\ $end
$var wire 1 < \g1|s2~0_combout\ $end
$var wire 1 = \g1|s1~0_combout\ $end
$var wire 1 > \g1|ALT_INV_s1~0_combout\ $end
$var wire 1 ? \g1|ALT_INV_s2~0_combout\ $end
$upscope $end
$upscope $end
$enddefinitions $end
#0
$dumpvars
0!
0"
0#
0$
0%
1&
0'
1(
x)
1*
1+
1,
1-
1.
1/
00
01
02
03
04
15
06
17
08
09
0:
0;
1<
0=
1>
0?
$end
#5000
1!
10
1:
#10000
0!
1"
00
11
19
0:
#15000
1!
10
1:
0<
1?
16
14
1%
#20000
0!
0"
1#
00
01
12
1;
09
0:
1<
0?
06
04
0%
#25000
1!
10
1:
0<
1?
16
14
1%
#30000
0!
1"
00
11
19
0:
#35000
1!
10
1:
1=
0>
07
05
0&
#40000
0!
0"
0#
1$
00
01
02
13
18
0;
09
0:
1<
0=
1>
0?
06
17
04
15
0%
1&
#45000
1!
10
1:
0<
1=
0>
1?
16
07
14
05
1%
0&
#50000
0!
1"
00
11
19
0:
0=
1>
17
15
1&
#55000
1!
10
1:
1=
0>
07
05
0&
#60000
0!
0"
1#
00
01
12
1;
09
0:
0=
1>
17
15
1&
#65000
1!
10
1:
1=
0>
07
05
0&
#70000
0!
1"
00
11
19
0:
#75000
1!
10
1:
#80000
0!
0"
0#
0$
00
01
02
03
08
0;
09
0:
1<
0=
1>
0?
06
17
04
15
0%
1&
#85000
1!
10
1:
#90000
0!
1"
00
11
19
0:
#95000
1!
10
1:
0<
1?
16
14
1%
#100000
0!
0"
1#
00
01
12
1;
09
0:
1<
0?
06
04
0%
#105000
1!
10
1:
0<
1?
16
14
1%
#110000
0!
1"
00
11
19
0:
#115000
1!
10
1:
1=
0>
07
05
0&
#120000
0!
0"
0#
1$
00
01
02
13
18
0;
09
0:
1<
0=
1>
0?
06
17
04
15
0%
1&
#125000
1!
10
1:
0<
1=
0>
1?
16
07
14
05
1%
0&
#130000
0!
1"
00
11
19
0:
0=
1>
17
15
1&
#135000
1!
10
1:
1=
0>
07
05
0&
#140000
0!
0"
1#
00
01
12
1;
09
0:
0=
1>
17
15
1&
#145000
1!
10
1:
1=
0>
07
05
0&
#150000
0!
1"
00
11
19
0:
#155000
1!
10
1:
#160000
0!
0"
0#
0$
00
01
02
03
08
0;
09
0:
1<
0=
1>
0?
06
17
04
15
0%
1&
#165000
1!
10
1:
#170000
0!
1"
00
11
19
0:
#175000
1!
10
1:
0<
1?
16
14
1%
#180000
0!
0"
1#
00
01
12
1;
09
0:
1<
0?
06
04
0%
#185000
1!
10
1:
0<
1?
16
14
1%
#190000
0!
1"
00
11
19
0:
#195000
1!
10
1:
1=
0>
07
05
0&
#200000
0!
0"
0#
1$
00
01
02
13
18
0;
09
0:
1<
0=
1>
0?
06
17
04
15
0%
1&
#205000
1!
10
1:
0<
1=
0>
1?
16
07
14
05
1%
0&
#210000
0!
1"
00
11
19
0:
0=
1>
17
15
1&
#215000
1!
10
1:
1=
0>
07
05
0&
#220000
0!
0"
1#
00
01
12
1;
09
0:
0=
1>
17
15
1&
#225000
1!
10
1:
1=
0>
07
05
0&
#230000
0!
1"
00
11
19
0:
#235000
1!
10
1:
#240000
0!
0"
0#
0$
00
01
02
03
08
0;
09
0:
1<
0=
1>
0?
06
17
04
15
0%
1&
#245000
1!
10
1:
#250000
0!
1"
00
11
19
0:
#255000
1!
10
1:
0<
1?
16
14
1%
#260000
0!
0"
1#
00
01
12
1;
09
0:
1<
0?
06
04
0%
#265000
1!
10
1:
0<
1?
16
14
1%
#270000
0!
1"
00
11
19
0:
#275000
1!
10
1:
1=
0>
07
05
0&
#280000
0!
0"
0#
1$
00
01
02
13
18
0;
09
0:
1<
0=
1>
0?
06
17
04
15
0%
1&
#285000
1!
10
1:
0<
1=
0>
1?
16
07
14
05
1%
0&
#290000
0!
1"
00
11
19
0:
0=
1>
17
15
1&
#295000
1!
10
1:
1=
0>
07
05
0&
#300000
0!
0"
1#
00
01
12
1;
09
0:
0=
1>
17
15
1&
#305000
1!
10
1:
1=
0>
07
05
0&
#310000
0!
1"
00
11
19
0:
#315000
1!
10
1:
#320000
0!
0"
0#
0$
00
01
02
03
08
0;
09
0:
1<
0=
1>
0?
06
17
04
15
0%
1&
#325000
1!
10
1:
#330000
0!
1"
00
11
19
0:
#335000
1!
10
1:
0<
1?
16
14
1%
#340000
0!
0"
1#
00
01
12
1;
09
0:
1<
0?
06
04
0%
#345000
1!
10
1:
0<
1?
16
14
1%
#350000
0!
1"
00
11
19
0:
#355000
1!
10
1:
1=
0>
07
05
0&
#360000
0!
0"
0#
1$
00
01
02
13
18
0;
09
0:
1<
0=
1>
0?
06
17
04
15
0%
1&
#365000
1!
10
1:
0<
1=
0>
1?
16
07
14
05
1%
0&
#370000
0!
1"
00
11
19
0:
0=
1>
17
15
1&
#375000
1!
10
1:
1=
0>
07
05
0&
#380000
0!
0"
1#
00
01
12
1;
09
0:
0=
1>
17
15
1&
#385000
1!
10
1:
1=
0>
07
05
0&
#390000
0!
1"
00
11
19
0:
#395000
1!
10
1:
#400000
0!
0"
0#
0$
00
01
02
03
08
0;
09
0:
1<
0=
1>
0?
06
17
04
15
0%
1&
#405000
1!
10
1:
#410000
0!
1"
00
11
19
0:
#415000
1!
10
1:
0<
1?
16
14
1%
#420000
0!
0"
1#
00
01
12
1;
09
0:
1<
0?
06
04
0%
#425000
1!
10
1:
0<
1?
16
14
1%
#430000
0!
1"
00
11
19
0:
#435000
1!
10
1:
1=
0>
07
05
0&
#440000
0!
0"
0#
1$
00
01
02
13
18
0;
09
0:
1<
0=
1>
0?
06
17
04
15
0%
1&
#445000
1!
10
1:
0<
1=
0>
1?
16
07
14
05
1%
0&
#450000
0!
1"
00
11
19
0:
0=
1>
17
15
1&
#455000
1!
10
1:
1=
0>
07
05
0&
#460000
0!
0"
1#
00
01
12
1;
09
0:
0=
1>
17
15
1&
#465000
1!
10
1:
1=
0>
07
05
0&
#470000
0!
1"
00
11
19
0:
#475000
1!
10
1:
#480000
0!
0"
0#
0$
00
01
02
03
08
0;
09
0:
1<
0=
1>
0?
06
17
04
15
0%
1&
#485000
1!
10
1:
#490000
0!
1"
00
11
19
0:
#495000
1!
10
1:
0<
1?
16
14
1%
#500000
0!
0"
1#
00
01
12
1;
09
0:
1<
0?
06
04
0%
#505000
1!
10
1:
0<
1?
16
14
1%
#510000
0!
1"
00
11
19
0:
#515000
1!
10
1:
1=
0>
07
05
0&
#520000
0!
0"
0#
1$
00
01
02
13
18
0;
09
0:
1<
0=
1>
0?
06
17
04
15
0%
1&
#525000
1!
10
1:
0<
1=
0>
1?
16
07
14
05
1%
0&
#530000
0!
1"
00
11
19
0:
0=
1>
17
15
1&
#535000
1!
10
1:
1=
0>
07
05
0&
#540000
0!
0"
1#
00
01
12
1;
09
0:
0=
1>
17
15
1&
#545000
1!
10
1:
1=
0>
07
05
0&
#550000
0!
1"
00
11
19
0:
#555000
1!
10
1:
#560000
0!
0"
0#
0$
00
01
02
03
08
0;
09
0:
1<
0=
1>
0?
06
17
04
15
0%
1&
#565000
1!
10
1:
#570000
0!
1"
00
11
19
0:
#575000
1!
10
1:
0<
1?
16
14
1%
#580000
0!
0"
1#
00
01
12
1;
09
0:
1<
0?
06
04
0%
#585000
1!
10
1:
0<
1?
16
14
1%
#590000
0!
1"
00
11
19
0:
#595000
1!
10
1:
1=
0>
07
05
0&
#600000
0!
0"
0#
1$
00
01
02
13
18
0;
09
0:
1<
0=
1>
0?
06
17
04
15
0%
1&
#605000
1!
10
1:
0<
1=
0>
1?
16
07
14
05
1%
0&
#610000
0!
1"
00
11
19
0:
0=
1>
17
15
1&
#615000
1!
10
1:
1=
0>
07
05
0&
#620000
0!
0"
1#
00
01
12
1;
09
0:
0=
1>
17
15
1&
#625000
1!
10
1:
1=
0>
07
05
0&
#630000
0!
1"
00
11
19
0:
#635000
1!
10
1:
#640000
0!
0"
0#
0$
00
01
02
03
08
0;
09
0:
1<
0=
1>
0?
06
17
04
15
0%
1&
#645000
1!
10
1:
#650000
0!
1"
00
11
19
0:
#655000
1!
10
1:
0<
1?
16
14
1%
#660000
0!
0"
1#
00
01
12
1;
09
0:
1<
0?
06
04
0%
#665000
1!
10
1:
0<
1?
16
14
1%
#670000
0!
1"
00
11
19
0:
#675000
1!
10
1:
1=
0>
07
05
0&
#680000
0!
0"
0#
1$
00
01
02
13
18
0;
09
0:
1<
0=
1>
0?
06
17
04
15
0%
1&
#685000
1!
10
1:
0<
1=
0>
1?
16
07
14
05
1%
0&
#690000
0!
1"
00
11
19
0:
0=
1>
17
15
1&
#695000
1!
10
1:
1=
0>
07
05
0&
#700000
0!
0"
1#
00
01
12
1;
09
0:
0=
1>
17
15
1&
#705000
1!
10
1:
1=
0>
07
05
0&
#710000
0!
1"
00
11
19
0:
#715000
1!
10
1:
#720000
0!
0"
0#
0$
00
01
02
03
08
0;
09
0:
1<
0=
1>
0?
06
17
04
15
0%
1&
#725000
1!
10
1:
#730000
0!
1"
00
11
19
0:
#735000
1!
10
1:
0<
1?
16
14
1%
#740000
0!
0"
1#
00
01
12
1;
09
0:
1<
0?
06
04
0%
#745000
1!
10
1:
0<
1?
16
14
1%
#750000
0!
1"
00
11
19
0:
#755000
1!
10
1:
1=
0>
07
05
0&
#760000
0!
0"
0#
1$
00
01
02
13
18
0;
09
0:
1<
0=
1>
0?
06
17
04
15
0%
1&
#765000
1!
10
1:
0<
1=
0>
1?
16
07
14
05
1%
0&
#770000
0!
1"
00
11
19
0:
0=
1>
17
15
1&
#775000
1!
10
1:
1=
0>
07
05
0&
#780000
0!
0"
1#
00
01
12
1;
09
0:
0=
1>
17
15
1&
#785000
1!
10
1:
1=
0>
07
05
0&
#790000
0!
1"
00
11
19
0:
#795000
1!
10
1:
#800000
0!
0"
0#
0$
00
01
02
03
08
0;
09
0:
1<
0=
1>
0?
06
17
04
15
0%
1&
#805000
1!
10
1:
#810000
0!
1"
00
11
19
0:
#815000
1!
10
1:
0<
1?
16
14
1%
#820000
0!
0"
1#
00
01
12
1;
09
0:
1<
0?
06
04
0%
#825000
1!
10
1:
0<
1?
16
14
1%
#830000
0!
1"
00
11
19
0:
#835000
1!
10
1:
1=
0>
07
05
0&
#840000
0!
0"
0#
1$
00
01
02
13
18
0;
09
0:
1<
0=
1>
0?
06
17
04
15
0%
1&
#845000
1!
10
1:
0<
1=
0>
1?
16
07
14
05
1%
0&
#850000
0!
1"
00
11
19
0:
0=
1>
17
15
1&
#855000
1!
10
1:
1=
0>
07
05
0&
#860000
0!
0"
1#
00
01
12
1;
09
0:
0=
1>
17
15
1&
#865000
1!
10
1:
1=
0>
07
05
0&
#870000
0!
1"
00
11
19
0:
#875000
1!
10
1:
#880000
0!
0"
0#
0$
00
01
02
03
08
0;
09
0:
1<
0=
1>
0?
06
17
04
15
0%
1&
#885000
1!
10
1:
#890000
0!
1"
00
11
19
0:
#895000
1!
10
1:
0<
1?
16
14
1%
#900000
0!
0"
1#
00
01
12
1;
09
0:
1<
0?
06
04
0%
#905000
1!
10
1:
0<
1?
16
14
1%
#910000
0!
1"
00
11
19
0:
#915000
1!
10
1:
1=
0>
07
05
0&
#920000
0!
0"
0#
1$
00
01
02
13
18
0;
09
0:
1<
0=
1>
0?
06
17
04
15
0%
1&
#925000
1!
10
1:
0<
1=
0>
1?
16
07
14
05
1%
0&
#930000
0!
1"
00
11
19
0:
0=
1>
17
15
1&
#935000
1!
10
1:
1=
0>
07
05
0&
#940000
0!
0"
1#
00
01
12
1;
09
0:
0=
1>
17
15
1&
#945000
1!
10
1:
1=
0>
07
05
0&
#950000
0!
1"
00
11
19
0:
#955000
1!
10
1:
#960000
0!
0"
0#
0$
00
01
02
03
08
0;
09
0:
1<
0=
1>
0?
06
17
04
15
0%
1&
#965000
1!
10
1:
#970000
0!
1"
00
11
19
0:
#975000
1!
10
1:
0<
1?
16
14
1%
#980000
0!
0"
1#
00
01
12
1;
09
0:
1<
0?
06
04
0%
#985000
1!
10
1:
0<
1?
16
14
1%
#990000
0!
1"
00
11
19
0:
#995000
1!
10
1:
1=
0>
07
05
0&
