Aula04Exercicio1/Barramento/simulation/qsim/Aula4Exercicio1.msim.vcd
$comment
	File created using the following command:
		vcd file Aula4Exercicio1.msim.vcd -direction
$end
$date
	Thu Aug 22 14:39:30 2019
$end
$version
	ModelSim Version 10.5b
$end
$timescale
	1ps
$end

$scope module aula4exercicio1_vhd_vec_tst $end
$var wire 1 ! A1 [3] $end
$var wire 1 " A1 [2] $end
$var wire 1 # A1 [1] $end
$var wire 1 $ A1 [0] $end
$var wire 1 % B1 [3] $end
$var wire 1 & B1 [2] $end
$var wire 1 ' B1 [1] $end
$var wire 1 ( B1 [0] $end

$scope module i1 $end
$var wire 1 ) gnd $end
$var wire 1 * vcc $end
$var wire 1 + unknown $end
$var wire 1 , devoe $end
$var wire 1 - devclrn $end
$var wire 1 . devpor $end
$var wire 1 / ww_devoe $end
$var wire 1 0 ww_devclrn $end
$var wire 1 1 ww_devpor $end
$var wire 1 2 ww_A1 [3] $end
$var wire 1 3 ww_A1 [2] $end
$var wire 1 4 ww_A1 [1] $end
$var wire 1 5 ww_A1 [0] $end
$var wire 1 6 ww_B1 [3] $end
$var wire 1 7 ww_B1 [2] $end
$var wire 1 8 ww_B1 [1] $end
$var wire 1 9 ww_B1 [0] $end
$var wire 1 : \B1[0]~output_o\ $end
$var wire 1 ; \B1[1]~output_o\ $end
$var wire 1 < \B1[2]~output_o\ $end
$var wire 1 = \B1[3]~output_o\ $end
$var wire 1 > \A1[0]~input_o\ $end
$var wire 1 ? \A1[1]~input_o\ $end
$var wire 1 @ \A1[2]~input_o\ $end
$var wire 1 A \A1[3]~input_o\ $end
$upscope $end
$upscope $end
$enddefinitions $end
#0
$dumpvars
0)
1*
x+
1,
1-
1.
1/
10
11
0:
0;
0<
0=
x>
x?
x@
xA
0!
0"
0#
0$
0%
0&
0'
0(
02
03
04
05
06
07
08
09
$end
#805
0>
0?
#815
0A
#825
0@
#5000
1!
12
#5709
1A
#7861
x:
x9
x(
#8116
x;
x8
x'
#8231
x=
x6
x%
#8476
x<
x7
x&
#8624
0:
09
0(
#8879
0;
08
0'
#9004
0=
06
0%
#9259
0<
07
0&
#10000
0!
1"
13
02
#10719
1@
#10815
0A
#13585
1=
16
1%
#15000
1!
1#
14
12
#15699
1?
#15709
1A
#18782
1<
17
1&
#19004
0=
06
0%
#20000
0!
0"
1$
15
03
02
#20699
1>
#20815
0A
#20825
0@
#23425
1;
18
1'
#23585
1=
16
1%
#25000
1!
12
#25709
1A
#28166
1:
19
1(
#29004
0=
06
0%
#29259
0<
07
0&
#30000
0!
1"
0#
04
13
02
#30719
1@
#30805
0?
#30815
0A
#33585
1=
16
1%
#35000
1!
12
#35709
1A
#38782
1<
17
1&
#38879
0;
08
0'
#39004
0=
06
0%
#40000
0!
0"
0$
05
03
02
#40805
0>
#40815
0A
#40825
0@
#43585
1=
16
1%
#45000
1!
1#
14
12
#45699
1?
#45709
1A
#48624
0:
09
0(
#49004
0=
06
0%
#49259
0<
07
0&
#50000
0!
1"
13
02
#50719
1@
#50815
0A
#53425
1;
18
1'
#53585
1=
16
1%
#55000
1!
12
#55709
1A
#58782
1<
17
1&
#59004
0=
06
0%
#60000
0!
0"
0#
1$
15
04
03
02
#60699
1>
#60805
0?
#60815
0A
#60825
0@
#63585
1=
16
1%
#65000
1!
12
#65709
1A
#68166
1:
19
1(
#68879
0;
08
0'
#69004
0=
06
0%
#69259
0<
07
0&
#70000
0!
1"
13
02
#70719
1@
#70815
0A
#73585
1=
16
1%
#75000
1!
1#
14
12
#75699
1?
#75709
1A
#78782
1<
17
1&
#79004
0=
06
0%
#80000
0!
0"
0$
05
03
02
#80805
0>
#80815
0A
#80825
0@
#83425
1;
18
1'
#83585
1=
16
1%
#85000
1!
12
#85709
1A
#88624
0:
09
0(
#89004
0=
06
0%
#89259
0<
07
0&
#90000
0!
1"
0#
04
13
02
#90719
1@
#90805
0?
#90815
0A
#93585
1=
16
1%
#95000
1!
12
#95709
1A
#98782
1<
17
1&
#98879
0;
08
0'
#99004
0=
06
0%
#100000
0!
0"
1$
15
03
02
#100699
1>
#100815
0A
#100825
0@
#103585
1=
16
1%
#105000
1!
1#
14
12
#105699
1?
#105709
1A
#108166
1:
19
1(
#109004
0=
06
0%
#109259
0<
07
0&
#110000
0!
1"
13
02
#110719
1@
#110815
0A
#113425
1;
18
1'
#113585
1=
16
1%
#115000
1!
12
#115709
1A
#118782
1<
17
1&
#119004
0=
06
0%
#120000
0!
0"
0#
0$
05
04
03
02
#120805
0?
0>
#120815
0A
#120825
0@
#123585
1=
16
1%
#125000
1!
12
#125709
1A
#128624
0:
09
0(
#128879
0;
08
0'
#129004
0=
06
0%
#129259
0<
07
0&
#130000
0!
1"
13
02
#130719
1@
#130815
0A
#133585
1=
16
1%
#135000
1!
1#
14
12
#135699
1?
#135709
1A
#138782
1<
17
1&
#139004
0=
06
0%
#140000
0!
0"
1$
15
03
02
#140699
1>
#140815
0A
#140825
0@
#143425
1;
18
1'
#143585
1=
16
1%
#145000
1!
12
#145709
1A
#148166
1:
19
1(
#149004
0=
06
0%
#149259
0<
07
0&
#150000
0!
1"
0#
04
13
02
#150719
1@
#150805
0?
#150815
0A
#153585
1=
16
1%
#155000
1!
12
#155709
1A
#158782
1<
17
1&
#158879
0;
08
0'
#159004
0=
06
0%
#160000
0!
0"
0$
05
03
02
#160805
0>
#160815
0A
#160825
0@
#163585
1=
16
1%
#165000
1!
1#
14
12
#165699
1?
#165709
1A
#168624
0:
09
0(
#169004
0=
06
0%
#169259
0<
07
0&
#170000
0!
1"
13
02
#170719
1@
#170815
0A
#173425
1;
18
1'
#173585
1=
16
1%
#175000
1!
12
#175709
1A
#178782
1<
17
1&
#179004
0=
06
0%
#180000
0!
0"
0#
1$
15
04
03
02
#180699
1>
#180805
0?
#180815
0A
#180825
0@
#183585
1=
16
1%
#185000
1!
12
#185709
1A
#188166
1:
19
1(
#188879
0;
08
0'
#189004
0=
06
0%
#189259
0<
07
0&
#190000
0!
1"
13
02
#190719
1@
#190815
0A
#193585
1=
16
1%
#195000
1!
1#
14
12
#195699
1?
#195709
1A
#198782
1<
17
1&
#199004
0=
06
0%
#200000
0!
0"
0$
05
03
02
#200805
0>
#200815
0A
#200825
0@
#203425
1;
18
1'
#203585
1=
16
1%
#205000
1!
12
#205709
1A
#208624
0:
09
0(
#209004
0=
06
0%
#209259
0<
07
0&
#210000
0!
1"
0#
04
13
02
#210719
1@
#210805
0?
#210815
0A
#213585
1=
16
1%
#215000
1!
12
#215709
1A
#218782
1<
17
1&
#218879
0;
08
0'
#219004
0=
06
0%
#220000
0!
0"
1$
15
03
02
#220699
1>
#220815
0A
#220825
0@
#223585
1=
16
1%
#225000
1!
1#
14
12
#225699
1?
#225709
1A
#228166
1:
19
1(
#229004
0=
06
0%
#229259
0<
07
0&
#230000
0!
1"
13
02
#230719
1@
#230815
0A
#233425
1;
18
1'
#233585
1=
16
1%
#235000
1!
12
#235709
1A
#238782
1<
17
1&
#239004
0=
06
0%
#240000
0!
0"
0#
0$
05
04
03
02
#240805
0?
0>
#240815
0A
#240825
0@
#243585
1=
16
1%
#245000
1!
12
#245709
1A
#248624
0:
09
0(
#248879
0;
08
0'
#249004
0=
06
0%
#249259
0<
07
0&
#250000
0!
1"
13
02
#250719
1@
#250815
0A
#253585
1=
16
1%
#255000
1!
1#
14
12
#255699
1?
#255709
1A
#258782
1<
17
1&
#259004
0=
06
0%
#260000
0!
0"
1$
15
03
02
#260699
1>
#260815
0A
#260825
0@
#263425
1;
18
1'
#263585
1=
16
1%
#265000
1!
12
#265709
1A
#268166
1:
19
1(
#269004
0=
06
0%
#269259
0<
07
0&
#270000
0!
1"
0#
04
13
02
#270719
1@
#270805
0?
#270815
0A
#273585
1=
16
1%
#275000
1!
12
#275709
1A
#278782
1<
17
1&
#278879
0;
08
0'
#279004
0=
06
0%
#280000
0!
0"
0$
05
03
02
#280805
0>
#280815
0A
#280825
0@
#283585
1=
16
1%
#285000
1!
1#
14
12
#285699
1?
#285709
1A
#288624
0:
09
0(
#289004
0=
06
0%
#289259
0<
07
0&
#290000
0!
1"
13
02
#290719
1@
#290815
0A
#293425
1;
18
1'
#293585
1=
16
1%
#295000
1!
12
#295709
1A
#298782
1<
17
1&
#299004
0=
06
0%
#300000
0!
0"
0#
1$
15
04
03
02
#300699
1>
#300805
0?
#300815
0A
#300825
0@
#303585
1=
16
1%
#305000
1!
12
#305709
1A
#308166
1:
19
1(
#308879
0;
08
0'
#309004
0=
06
0%
#309259
0<
07
0&
#310000
0!
1"
13
02
#310719
1@
#310815
0A
#313585
1=
16
1%
#315000
1!
1#
14
12
#315699
1?
#315709
1A
#318782
1<
17
1&
#319004
0=
06
0%
#320000
0!
0"
0$
05
03
02
#320805
0>
#320815
0A
#320825
0@
#323425
1;
18
1'
#323585
1=
16
1%
#325000
1!
12
#325709
1A
#328624
0:
09
0(
#329004
0=
06
0%
#329259
0<
07
0&
#330000
0!
1"
0#
04
13
02
#330719
1@
#330805
0?
#330815
0A
#333585
1=
16
1%
#335000
1!
12
#335709
1A
#338782
1<
17
1&
#338879
0;
08
0'
#339004
0=
06
0%
#340000
0!
0"
1$
15
03
02
#340699
1>
#340815
0A
#340825
0@
#343585
1=
16
1%
#345000
1!
1#
14
12
#345699
1?
#345709
1A
#348166
1:
19
1(
#349004
0=
06
0%
#349259
0<
07
0&
#350000
0!
1"
13
02
#350719
1@
#350815
0A
#353425
1;
18
1'
#353585
1=
16
1%
#355000
1!
12
#355709
1A
#358782
1<
17
1&
#359004
0=
06
0%
#360000
0!
0"
0#
0$
05
04
03
02
#360805
0?
0>
#360815
0A
#360825
0@
#363585
1=
16
1%
#365000
1!
12
#365709
1A
#368624
0:
09
0(
#368879
0;
08
0'
#369004
0=
06
0%
#369259
0<
07
0&
#370000
0!
1"
13
02
#370719
1@
#370815
0A
#373585
1=
16
1%
#375000
1!
1#
14
12
#375699
1?
#375709
1A
#378782
1<
17
1&
#379004
0=
06
0%
#380000
0!
0"
1$
15
03
02
#380699
1>
#380815
0A
#380825
0@
#383425
1;
18
1'
#383585
1=
16
1%
#385000
1!
12
#385709
1A
#388166
1:
19
1(
#389004
0=
06
0%
#389259
0<
07
0&
#390000
0!
1"
0#
04
13
02
#390719
1@
#390805
0?
#390815
0A
#393585
1=
16
1%
#395000
1!
12
#395709
1A
#398782
1<
17
1&
#398879
0;
08
0'
#399004
0=
06
0%
#400000
0!
0"
0$
05
03
02
#400805
0>
#400815
0A
#400825
0@
#403585
1=
16
1%
#405000
1!
1#
14
12
#405699
1?
#405709
1A
#408624
0:
09
0(
#409004
0=
06
0%
#409259
0<
07
0&
#410000
0!
1"
13
02
#410719
1@
#410815
0A
#413425
1;
18
1'
#413585
1=
16
1%
#415000
1!
12
#415709
1A
#418782
1<
17
1&
#419004
0=
06
0%
#420000
0!
0"
0#
1$
15
04
03
02
#420699
1>
#420805
0?
#420815
0A
#420825
0@
#423585
1=
16
1%
#425000
1!
12
#425709
1A
#428166
1:
19
1(
#428879
0;
08
0'
#429004
0=
06
0%
#429259
0<
07
0&
#430000
0!
1"
13
02
#430719
1@
#430815
0A
#433585
1=
16
1%
#435000
1!
1#
14
12
#435699
1?
#435709
1A
#438782
1<
17
1&
#439004
0=
06
0%
#440000
0!
0"
0$
05
03
02
#440805
0>
#440815
0A
#440825
0@
#443425
1;
18
1'
#443585
1=
16
1%
#445000
1!
12
#445709
1A
#448624
0:
09
0(
#449004
0=
06
0%
#449259
0<
07
0&
#450000
0!
1"
0#
04
13
02
#450719
1@
#450805
0?
#450815
0A
#453585
1=
16
1%
#455000
1!
12
#455709
1A
#458782
1<
17
1&
#458879
0;
08
0'
#459004
0=
06
0%
#460000
0!
0"
1$
15
03
02
#460699
1>
#460815
0A
#460825
0@
#463585
1=
16
1%
#465000
1!
1#
14
12
#465699
1?
#465709
1A
#468166
1:
19
1(
#469004
0=
06
0%
#469259
0<
07
0&
#470000
0!
1"
13
02
#470719
1@
#470815
0A
#473425
1;
18
1'
#473585
1=
16
1%
#475000
1!
12
#475709
1A
#478782
1<
17
1&
#479004
0=
06
0%
#480000
0!
0"
0#
0$
05
04
03
02
#480805
0?
0>
#480815
0A
#480825
0@
#483585
1=
16
1%
#485000
1!
12
#485709
1A
#488624
0:
09
0(
#488879
0;
08
0'
#489004
0=
06
0%
#489259
0<
07
0&
#490000
0!
1"
13
02
#490719
1@
#490815
0A
#493585
1=
16
1%
#495000
1!
1#
14
12
#495699
1?
#495709
1A
#498782
1<
17
1&
#499004
0=
06
0%
#500000
0!
0"
1$
15
03
02
#500699
1>
#500815
0A
#500825
0@
#503425
1;
18
1'
#503585
1=
16
1%
#505000
1!
12
#505709
1A
#508166
1:
19
1(
#509004
0=
06
0%
#509259
0<
07
0&
#510000
0!
1"
0#
04
13
02
#510719
1@
#510805
0?
#510815
0A
#513585
1=
16
1%
#515000
1!
12
#515709
1A
#518782
1<
17
1&
#518879
0;
08
0'
#519004
0=
06
0%
#520000
0!
0"
0$
05
03
02
#520805
0>
#520815
0A
#520825
0@
#523585
1=
16
1%
#525000
1!
1#
14
12
#525699
1?
#525709
1A
#528624
0:
09
0(
#529004
0=
06
0%
#529259
0<
07
0&
#530000
0!
1"
13
02
#530719
1@
#530815
0A
#533425
1;
18
1'
#533585
1=
16
1%
#535000
1!
12
#535709
1A
#538782
1<
17
1&
#539004
0=
06
0%
#540000
0!
0"
0#
1$
15
04
03
02
#540699
1>
#540805
0?
#540815
0A
#540825
0@
#543585
1=
16
1%
#545000
1!
12
#545709
1A
#548166
1:
19
1(
#548879
0;
08
0'
#549004
0=
06
0%
#549259
0<
07
0&
#550000
0!
1"
13
02
#550719
1@
#550815
0A
#553585
1=
16
1%
#555000
1!
1#
14
12
#555699
1?
#555709
1A
#558782
1<
17
1&
#559004
0=
06
0%
#560000
0!
0"
0$
05
03
02
#560805
0>
#560815
0A
#560825
0@
#563425
1;
18
1'
#563585
1=
16
1%
#565000
1!
12
#565709
1A
#568624
0:
09
0(
#569004
0=
06
0%
#569259
0<
07
0&
#570000
0!
1"
0#
04
13
02
#570719
1@
#570805
0?
#570815
0A
#573585
1=
16
1%
#575000
1!
12
#575709
1A
#578782
1<
17
1&
#578879
0;
08
0'
#579004
0=
06
0%
#580000
0!
0"
1$
15
03
02
#580699
1>
#580815
0A
#580825
0@
#583585
1=
16
1%
#585000
1!
1#
14
12
#585699
1?
#585709
1A
#588166
1:
19
1(
#589004
0=
06
0%
#589259
0<
07
0&
#590000
0!
1"
13
02
#590719
1@
#590815
0A
#593425
1;
18
1'
#593585
1=
16
1%
#595000
1!
12
#595709
1A
#598782
1<
17
1&
#599004
0=
06
0%
#600000
0!
0"
0#
0$
05
04
03
02
#600805
0?
0>
#600815
0A
#600825
0@
#603585
1=
16
1%
#605000
1!
12
#605709
1A
#608624
0:
09
0(
#608879
0;
08
0'
#609004
0=
06
0%
#609259
0<
07
0&
#610000
0!
1"
13
02
#610719
1@
#610815
0A
#613585
1=
16
1%
#615000
1!
1#
14
12
#615699
1?
#615709
1A
#618782
1<
17
1&
#619004
0=
06
0%
#620000
0!
0"
1$
15
03
02
#620699
1>
#620815
0A
#620825
0@
#623425
1;
18
1'
#623585
1=
16
1%
#625000
1!
12
#625709
1A
#628166
1:
19
1(
#629004
0=
06
0%
#629259
0<
07
0&
#630000
0!
1"
0#
04
13
02
#630719
1@
#630805
0?
#630815
0A
#633585
1=
16
1%
#635000
1!
12
#635709
1A
#638782
1<
17
1&
#638879
0;
08
0'
#639004
0=
06
0%
#640000
0!
0"
0$
05
03
02
#640805
0>
#640815
0A
#640825
0@
#643585
1=
16
1%
#645000
1!
1#
14
12
#645699
1?
#645709
1A
#648624
0:
09
0(
#649004
0=
06
0%
#649259
0<
07
0&
#650000
0!
1"
13
02
#650719
1@
#650815
0A
#653425
1;
18
1'
#653585
1=
16
1%
#655000
1!
12
#655709
1A
#658782
1<
17
1&
#659004
0=
06
0%
#660000
0!
0"
0#
1$
15
04
03
02
#660699
1>
#660805
0?
#660815
0A
#660825
0@
#663585
1=
16
1%
#665000
1!
12
#665709
1A
#668166
1:
19
1(
#668879
0;
08
0'
#669004
0=
06
0%
#669259
0<
07
0&
#670000
0!
1"
13
02
#670719
1@
#670815
0A
#673585
1=
16
1%
#675000
1!
1#
14
12
#675699
1?
#675709
1A
#678782
1<
17
1&
#679004
0=
06
0%
#680000
0!
0"
0$
05
03
02
#680805
0>
#680815
0A
#680825
0@
#683425
1;
18
1'
#683585
1=
16
1%
#685000
1!
12
#685709
1A
#688624
0:
09
0(
#689004
0=
06
0%
#689259
0<
07
0&
#690000
0!
1"
0#
04
13
02
#690719
1@
#690805
0?
#690815
0A
#693585
1=
16
1%
#695000
1!
12
#695709
1A
#698782
1<
17
1&
#698879
0;
08
0'
#699004
0=
06
0%
#700000
0!
0"
1$
15
03
02
#700699
1>
#700815
0A
#700825
0@
#703585
1=
16
1%
#705000
1!
1#
14
12
#705699
1?
#705709
1A
#708166
1:
19
1(
#709004
0=
06
0%
#709259
0<
07
0&
#710000
0!
1"
13
02
#710719
1@
#710815
0A
#713425
1;
18
1'
#713585
1=
16
1%
#715000
1!
12
#715709
1A
#718782
1<
17
1&
#719004
0=
06
0%
#720000
0!
0"
0#
0$
05
04
03
02
#720805
0?
0>
#720815
0A
#720825
0@
#723585
1=
16
1%
#725000
1!
12
#725709
1A
#728624
0:
09
0(
#728879
0;
08
0'
#729004
0=
06
0%
#729259
0<
07
0&
#730000
0!
1"
13
02
#730719
1@
#730815
0A
#733585
1=
16
1%
#735000
1!
1#
14
12
#735699
1?
#735709
1A
#738782
1<
17
1&
#739004
0=
06
0%
#740000
0!
0"
1$
15
03
02
#740699
1>
#740815
0A
#740825
0@
#743425
1;
18
1'
#743585
1=
16
1%
#745000
1!
12
#745709
1A
#748166
1:
19
1(
#749004
0=
06
0%
#749259
0<
07
0&
#750000
0!
1"
0#
04
13
02
#750719
1@
#750805
0?
#750815
0A
#753585
1=
16
1%
#755000
1!
12
#755709
1A
#758782
1<
17
1&
#758879
0;
08
0'
#759004
0=
06
0%
#760000
0!
0"
0$
05
03
02
#760805
0>
#760815
0A
#760825
0@
#763585
1=
16
1%
#765000
1!
1#
14
12
#765699
1?
#765709
1A
#768624
0:
09
0(
#769004
0=
06
0%
#769259
0<
07
0&
#770000
0!
1"
13
02
#770719
1@
#770815
0A
#773425
1;
18
1'
#773585
1=
16
1%
#775000
1!
12
#775709
1A
#778782
1<
17
1&
#779004
0=
06
0%
#780000
0!
0"
0#
1$
15
04
03
02
#780699
1>
#780805
0?
#780815
0A
#780825
0@
#783585
1=
16
1%
#785000
1!
12
#785709
1A
#788166
1:
19
1(
#788879
0;
08
0'
#789004
0=
06
0%
#789259
0<
07
0&
#790000
0!
1"
13
02
#790719
1@
#790815
0A
#793585
1=
16
1%
#795000
1!
1#
14
12
#795699
1?
#795709
1A
#798782
1<
17
1&
#799004
0=
06
0%
#800000
0!
0"
0$
05
03
02
#800805
0>
#800815
0A
#800825
0@
#803425
1;
18
1'
#803585
1=
16
1%
#805000
1!
12
#805709
1A
#808624
0:
09
0(
#809004
0=
06
0%
#809259
0<
07
0&
#810000
0!
1"
0#
04
13
02
#810719
1@
#810805
0?
#810815
0A
#813585
1=
16
1%
#815000
1!
12
#815709
1A
#818782
1<
17
1&
#818879
0;
08
0'
#819004
0=
06
0%
#820000
0!
0"
1$
15
03
02
#820699
1>
#820815
0A
#820825
0@
#823585
1=
16
1%
#825000
1!
1#
14
12
#825699
1?
#825709
1A
#828166
1:
19
1(
#829004
0=
06
0%
#829259
0<
07
0&
#830000
0!
1"
13
02
#830719
1@
#830815
0A
#833425
1;
18
1'
#833585
1=
16
1%
#835000
1!
12
#835709
1A
#838782
1<
17
1&
#839004
0=
06
0%
#840000
0!
0"
0#
0$
05
04
03
02
#840805
0?
0>
#840815
0A
#840825
0@
#843585
1=
16
1%
#845000
1!
12
#845709
1A
#848624
0:
09
0(
#848879
0;
08
0'
#849004
0=
06
0%
#849259
0<
07
0&
#850000
0!
1"
13
02
#850719
1@
#850815
0A
#853585
1=
16
1%
#855000
1!
1#
14
12
#855699
1?
#855709
1A
#858782
1<
17
1&
#859004
0=
06
0%
#860000
0!
0"
1$
15
03
02
#860699
1>
#860815
0A
#860825
0@
#863425
1;
18
1'
#863585
1=
16
1%
#865000
1!
12
#865709
1A
#868166
1:
19
1(
#869004
0=
06
0%
#869259
0<
07
0&
#870000
0!
1"
0#
04
13
02
#870719
1@
#870805
0?
#870815
0A
#873585
1=
16
1%
#875000
1!
12
#875709
1A
#878782
1<
17
1&
#878879
0;
08
0'
#879004
0=
06
0%
#880000
0!
0"
0$
05
03
02
#880805
0>
#880815
0A
#880825
0@
#883585
1=
16
1%
#885000
1!
1#
14
12
#885699
1?
#885709
1A
#888624
0:
09
0(
#889004
0=
06
0%
#889259
0<
07
0&
#890000
0!
1"
13
02
#890719
1@
#890815
0A
#893425
1;
18
1'
#893585
1=
16
1%
#895000
1!
12
#895709
1A
#898782
1<
17
1&
#899004
0=
06
0%
#900000
0!
0"
0#
1$
15
04
03
02
#900699
1>
#900805
0?
#900815
0A
#900825
0@
#903585
1=
16
1%
#905000
1!
12
#905709
1A
#908166
1:
19
1(
#908879
0;
08
0'
#909004
0=
06
0%
#909259
0<
07
0&
#910000
0!
1"
13
02
#910719
1@
#910815
0A
#913585
1=
16
1%
#915000
1!
1#
14
12
#915699
1?
#915709
1A
#918782
1<
17
1&
#919004
0=
06
0%
#920000
0!
0"
0$
05
03
02
#920805
0>
#920815
0A
#920825
0@
#923425
1;
18
1'
#923585
1=
16
1%
#925000
1!
12
#925709
1A
#928624
0:
09
0(
#929004
0=
06
0%
#929259
0<
07
0&
#930000
0!
1"
0#
04
13
02
#930719
1@
#930805
0?
#930815
0A
#933585
1=
16
1%
#935000
1!
12
#935709
1A
#938782
1<
17
1&
#938879
0;
08
0'
#939004
0=
06
0%
#940000
0!
0"
1$
15
03
02
#940699
1>
#940815
0A
#940825
0@
#943585
1=
16
1%
#945000
1!
1#
14
12
#945699
1?
#945709
1A
#948166
1:
19
1(
#949004
0=
06
0%
#949259
0<
07
0&
#950000
0!
1"
13
02
#950719
1@
#950815
0A
#953425
1;
18
1'
#953585
1=
16
1%
#955000
1!
12
#955709
1A
#958782
1<
17
1&
#959004
0=
06
0%
#960000
0!
0"
0#
0$
05
04
03
02
#960805
0?
0>
#960815
0A
#960825
0@
#963585
1=
16
1%
#965000
1!
12
#965709
1A
#968624
0:
09
0(
#968879
0;
08
0'
#969004
0=
06
0%
#969259
0<
07
0&
#970000
0!
1"
13
02
#970719
1@
#970815
0A
#973585
1=
16
1%
#975000
1!
1#
14
12
#975699
1?
#975709
1A
#978782
1<
17
1&
#979004
0=
06
0%
#980000
0!
0"
1$
15
03
02
#980699
1>
#980815
0A
#980825
0@
#983425
1;
18
1'
#983585
1=
16
1%
#985000
1!
12
#985709
1A
#988166
1:
19
1(
#989004
0=
06
0%
#989259
0<
07
0&
#990000
0!
1"
0#
04
13
02
#990719
1@
#990805
0?
#990815
0A
#993585
1=
16
1%
#995000
1!
12
#995709
1A
#998782
1<
17
1&
#998879
0;
08
0'
#999004
0=
06
0%
#1003585
1=
16
1%
