Aula26Exercicio2/simulation/qsim/Aula26Exercicio2.msim.vcd
$comment
	File created using the following command:
		vcd file Aula26Exercicio2.msim.vcd -direction
$end
$date
	Mon Nov  4 20:50:07 2019
$end
$version
	ModelSim Version 10.5b
$end
$timescale
	1ps
$end

$scope module aula26exercicio2_vhd_vec_tst $end
$var wire 1 ! BT $end
$var wire 1 " CLK $end
$var wire 1 # SAIDA [0] $end
$var wire 1 $ SAIDA [1] $end

$scope module i1 $end
$var wire 1 % gnd $end
$var wire 1 & vcc $end
$var wire 1 ' unknown $end
$var wire 1 ( devoe $end
$var wire 1 ) devclrn $end
$var wire 1 * devpor $end
$var wire 1 + ww_devoe $end
$var wire 1 , ww_devclrn $end
$var wire 1 - ww_devpor $end
$var wire 1 . ww_BT $end
$var wire 1 / ww_CLK $end
$var wire 1 0 ww_SAIDA [0] $end
$var wire 1 1 ww_SAIDA [1] $end
$var wire 1 2 \CLK~inputclkctrl_INCLK_bus\ [3] $end
$var wire 1 3 \CLK~inputclkctrl_INCLK_bus\ [2] $end
$var wire 1 4 \CLK~inputclkctrl_INCLK_bus\ [1] $end
$var wire 1 5 \CLK~inputclkctrl_INCLK_bus\ [0] $end
$var wire 1 6 \SAIDA[1]~output_o\ $end
$var wire 1 7 \SAIDA[0]~output_o\ $end
$var wire 1 8 \CLK~input_o\ $end
$var wire 1 9 \CLK~inputclkctrl_outclk\ $end
$var wire 1 : \BT~input_o\ $end
$var wire 1 ; \ESTADO[0]~feeder_combout\ $end
$var wire 1 < \Mux4~0_combout\ $end
$var wire 1 = \Mux3~0_combout\ $end
$var wire 1 > \Mux1~0_combout\ $end
$var wire 1 ? \SAIDA[1]~reg0_q\ $end
$var wire 1 @ \Mux0~0_combout\ $end
$var wire 1 A \SAIDA[0]~reg0_q\ $end
$var wire 1 B ESTADO [0] $end
$var wire 1 C ESTADO [1] $end
$var wire 1 D ESTADO [2] $end
$upscope $end
$upscope $end
$enddefinitions $end
#0
$dumpvars
0!
0"
0%
1&
x'
1(
1)
1*
1+
1,
1-
0.
0/
06
07
08
09
0:
0;
0<
0=
0>
0?
0@
0A
00
01
0B
0C
0D
12
13
14
05
0#
0$
$end
#20000
1"
1/
18
15
19
#40000
0"
0/
08
05
09
#60000
1"
1!
1/
1.
1:
18
15
1;
1@
19
1B
1A
17
10
1#
#80000
0"
0/
08
05
09
#100000
1"
1/
18
15
19
#120000
0"
0!
0/
0.
0:
08
05
0;
1<
1=
09
#140000
1"
1/
18
15
19
0B
1D
1C
#160000
0"
0/
08
05
09
#180000
1"
1!
1/
1.
1:
18
15
1;
1>
19
1B
1?
16
11
1$
#200000
0"
0/
08
05
09
#220000
1"
1/
18
15
19
#240000
0"
0!
0/
0.
0:
08
05
0;
0<
09
#260000
1"
1/
18
15
19
0B
0D
#280000
0"
0/
08
05
09
#300000
1"
1!
1/
1.
1:
18
15
1;
0>
0@
19
1B
0?
0A
07
06
00
01
0$
0#
#320000
0"
0/
08
05
09
#340000
1"
1/
18
15
19
#360000
0"
0!
0/
0.
0:
08
05
0;
1<
0=
09
#380000
1"
1/
18
15
19
0B
1D
0C
#400000
0"
0/
08
05
09
#420000
1"
1!
1/
1.
1:
18
15
1;
1>
19
1B
1?
16
11
1$
#440000
0"
0/
08
05
09
#460000
1"
1/
18
15
19
#480000
0"
0!
0/
0.
0:
08
05
0;
0<
0>
09
#500000
1"
1/
18
15
19
0B
0D
0?
06
01
0$
#520000
0"
0/
08
05
09
#540000
1"
1!
1/
1.
1:
18
15
1;
1@
19
1B
1A
17
10
1#
#560000
0"
0/
08
05
09
#580000
1"
1/
18
15
19
#600000
0"
0!
0/
0.
0:
08
05
0;
1<
1=
09
#620000
1"
1/
18
15
19
0B
1D
1C
#640000
0"
0/
08
05
09
#660000
1"
1!
1/
1.
1:
18
15
1;
1>
19
1B
1?
16
11
1$
#680000
0"
0/
08
05
09
#700000
1"
1/
18
15
19
#720000
0"
0!
0/
0.
0:
08
05
0;
0<
09
#740000
1"
1/
18
15
19
0B
0D
#760000
0"
0/
08
05
09
#780000
1"
1!
1/
1.
1:
18
15
1;
0>
0@
19
1B
0?
0A
07
06
00
01
0$
0#
#800000
0"
0/
08
05
09
#820000
1"
1/
18
15
19
#840000
0"
0!
0/
0.
0:
08
05
0;
1<
0=
09
#860000
1"
1/
18
15
19
0B
1D
0C
#880000
0"
0/
08
05
09
#900000
1"
1!
1/
1.
1:
18
15
1;
1>
19
1B
1?
16
11
1$
#920000
0"
0/
08
05
09
#940000
1"
1/
18
15
19
#960000
0"
0!
0/
0.
0:
08
05
0;
0<
0>
09
#980000
1"
1/
18
15
19
0B
0D
0?
06
01
0$
