Aula26/Mealy/simulation/qsim/Mealy.msim.vcd
$comment
	File created using the following command:
		vcd file Mealy.msim.vcd -direction
$end
$date
	Mon Nov  4 17:03:27 2019
$end
$version
	ModelSim Version 10.5b
$end
$timescale
	1ps
$end

$scope module Mealy_vlg_vec_tst $end
$var reg 1 ! A $end
$var reg 1 " CLK $end
$var wire 1 # X $end
$var wire 1 $ Y $end

$scope module i1 $end
$var wire 1 % gnd $end
$var wire 1 & vcc $end
$var wire 1 ' unknown $end
$var tri1 1 ( devclrn $end
$var tri1 1 ) devpor $end
$var tri1 1 * devoe $end
$var wire 1 + X~output_o $end
$var wire 1 , Y~output_o $end
$var wire 1 - CLK~input_o $end
$var wire 1 . CLK~inputclkctrl_outclk $end
$var wire 1 / A~input_o $end
$var wire 1 0 Mux1~0_combout $end
$var wire 1 1 ESTADO[0]~feeder_combout $end
$var wire 1 2 Mux3~0_combout $end
$var wire 1 3 Mux0~0_combout $end
$var wire 1 4 X~reg0_q $end
$var wire 1 5 Y~reg0_q $end
$var wire 1 6 ESTADO [0] $end
$var wire 1 7 ESTADO [1] $end
$upscope $end
$upscope $end
$enddefinitions $end
#0
$dumpvars
0!
0"
0#
0$
0%
1&
x'
1(
1)
1*
0+
0,
0-
0.
0/
00
01
12
03
04
05
07
06
$end
#20000
1"
1-
1.
17
02
10
11
#40000
0"
0-
0.
#60000
1!
1"
1/
1-
1.
07
16
15
1,
1$
13
12
00
01
#80000
0"
0-
0.
#100000
1"
1-
1.
17
06
05
14
1+
0,
0$
1#
03
02
10
11
#120000
0!
0"
0/
0-
0.
#140000
1"
1-
1.
07
16
15
04
0+
1,
1$
0#
13
12
#160000
0"
0-
0.
#180000
1!
1"
1/
1-
1.
00
01
17
14
1+
1#
10
11
#200000
0"
0-
0.
#220000
1"
1-
1.
#240000
0!
0"
0/
0-
0.
03
02
00
01
#260000
1"
1-
1.
07
06
05
04
0+
0,
0$
0#
12
#280000
0"
0-
0.
#300000
1!
1"
1/
1-
1.
17
02
10
11
#320000
0"
0-
0.
#340000
1"
1-
1.
07
16
15
1,
1$
13
12
00
01
#360000
0!
0"
0/
0-
0.
10
11
#380000
1"
1-
1.
17
14
1+
1#
03
02
00
01
#400000
0"
0-
0.
#420000
1!
1"
1/
1-
1.
13
12
10
11
07
06
05
04
0+
0,
0$
0#
03
00
01
#440000
0"
0-
0.
#460000
1"
1-
1.
17
02
10
11
#480000
0!
0"
0/
0-
0.
#500000
1"
1-
1.
07
16
15
1,
1$
13
12
#520000
0"
0-
0.
#540000
1!
1"
1/
1-
1.
00
01
17
14
1+
1#
10
11
#560000
0"
0-
0.
#580000
1"
1-
1.
#600000
0!
0"
0/
0-
0.
03
02
00
01
#620000
1"
1-
1.
07
06
05
04
0+
0,
0$
0#
12
#640000
0"
0-
0.
#660000
1!
1"
1/
1-
1.
17
02
10
11
#680000
0"
0-
0.
#700000
1"
1-
1.
07
16
15
1,
1$
13
12
00
01
#720000
0!
0"
0/
0-
0.
10
11
#740000
1"
1-
1.
17
14
1+
1#
03
02
00
01
#760000
0"
0-
0.
#780000
1!
1"
1/
1-
1.
13
12
10
11
07
06
05
04
0+
0,
0$
0#
03
00
01
#800000
0"
0-
0.
#820000
1"
1-
1.
17
02
10
11
#840000
0!
0"
0/
0-
0.
#860000
1"
1-
1.
07
16
15
1,
1$
13
12
#880000
0"
0-
0.
#900000
1!
1"
1/
1-
1.
00
01
17
14
1+
1#
10
11
#920000
0"
0-
0.
#940000
1"
1-
1.
#960000
0!
0"
0/
0-
0.
03
02
00
01
#980000
1"
1-
1.
07
06
05
04
0+
0,
0$
0#
12
