Aula8Exercicio1/withSelect/simulation/qsim/Demux.msim.vcd
$comment
	File created using the following command:
		vcd file Demux.msim.vcd -direction
$end
$date
	Thu Aug 29 13:30:20 2019
$end
$version
	ModelSim Version 10.5b
$end
$timescale
	1ps
$end

$scope module demux_vhd_vec_tst $end
$var wire 1 ! A1 $end
$var wire 1 " O1 $end
$var wire 1 # O2 $end
$var wire 1 $ O3 $end
$var wire 1 % O4 $end
$var wire 1 & S0 $end
$var wire 1 ' S1 $end

$scope module i1 $end
$var wire 1 ( gnd $end
$var wire 1 ) vcc $end
$var wire 1 * unknown $end
$var wire 1 + devoe $end
$var wire 1 , devclrn $end
$var wire 1 - devpor $end
$var wire 1 . ww_devoe $end
$var wire 1 / ww_devclrn $end
$var wire 1 0 ww_devpor $end
$var wire 1 1 ww_A1 $end
$var wire 1 2 ww_S0 $end
$var wire 1 3 ww_S1 $end
$var wire 1 4 ww_O1 $end
$var wire 1 5 ww_O2 $end
$var wire 1 6 ww_O3 $end
$var wire 1 7 ww_O4 $end
$var wire 1 8 \O1~output_o\ $end
$var wire 1 9 \O2~output_o\ $end
$var wire 1 : \O3~output_o\ $end
$var wire 1 ; \O4~output_o\ $end
$var wire 1 < \A1~input_o\ $end
$var wire 1 = \S0~input_o\ $end
$var wire 1 > \S1~input_o\ $end
$var wire 1 ? \O1~0_combout\ $end
$var wire 1 @ \O2~0_combout\ $end
$var wire 1 A \O3~0_combout\ $end
$var wire 1 B \O4~0_combout\ $end
$upscope $end
$upscope $end
$enddefinitions $end
#0
$dumpvars
1!
1"
0#
0$
0%
0&
0'
0(
1)
x*
1+
1,
1-
1.
1/
10
11
02
03
14
05
06
07
18
09
0:
0;
1<
0=
0>
1?
0@
0A
0B
$end
#15000
1'
13
1>
0?
1A
1:
08
16
04
1$
0"
#30000
0'
1&
03
12
1=
0>
1@
0A
0:
19
06
15
0$
1#
#45000
1'
13
1>
0@
1B
1;
09
17
05
1%
0#
#60000
0'
0&
03
02
0=
0>
1?
0B
0;
18
07
14
0%
1"
#75000
1'
13
1>
0?
1A
1:
08
16
04
1$
0"
#90000
0'
1&
03
12
1=
0>
1@
0A
0:
19
06
15
0$
1#
#105000
1'
13
1>
0@
1B
1;
09
17
05
1%
0#
#120000
0'
0&
03
02
0=
0>
1?
0B
0;
18
07
14
0%
1"
#135000
1'
13
1>
0?
1A
1:
08
16
04
1$
0"
#150000
0'
1&
03
12
1=
0>
1@
0A
0:
19
06
15
0$
1#
#165000
1'
13
1>
0@
1B
1;
09
17
05
1%
0#
#180000
0'
0&
03
02
0=
0>
1?
0B
0;
18
07
14
0%
1"
#195000
1'
13
1>
0?
1A
1:
08
16
04
1$
0"
#210000
0'
1&
03
12
1=
0>
1@
0A
0:
19
06
15
0$
1#
#225000
1'
13
1>
0@
1B
1;
09
17
05
1%
0#
#240000
0'
0&
03
02
0=
0>
1?
0B
0;
18
07
14
0%
1"
#255000
1'
13
1>
0?
1A
1:
08
16
04
1$
0"
#270000
0'
1&
03
12
1=
0>
1@
0A
0:
19
06
15
0$
1#
#285000
1'
13
1>
0@
1B
1;
09
17
05
1%
0#
#300000
0'
0&
03
02
0=
0>
1?
0B
0;
18
07
14
0%
1"
#315000
1'
13
1>
0?
1A
1:
08
16
04
1$
0"
#330000
0'
1&
03
12
1=
0>
1@
0A
0:
19
06
15
0$
1#
#345000
1'
13
1>
0@
1B
1;
09
17
05
1%
0#
#360000
0'
0&
03
02
0=
0>
1?
0B
0;
18
07
14
0%
1"
#375000
1'
13
1>
0?
1A
1:
08
16
04
1$
0"
#390000
0'
1&
03
12
1=
0>
1@
0A
0:
19
06
15
0$
1#
#405000
1'
13
1>
0@
1B
1;
09
17
05
1%
0#
#420000
0'
0&
03
02
0=
0>
1?
0B
0;
18
07
14
0%
1"
#435000
1'
13
1>
0?
1A
1:
08
16
04
1$
0"
#450000
0'
1&
03
12
1=
0>
1@
0A
0:
19
06
15
0$
1#
#465000
1'
13
1>
0@
1B
1;
09
17
05
1%
0#
#480000
0'
0&
03
02
0=
0>
1?
0B
0;
18
07
14
0%
1"
#495000
1'
13
1>
0?
1A
1:
08
16
04
1$
0"
#510000
0'
1&
03
12
1=
0>
1@
0A
0:
19
06
15
0$
1#
#525000
1'
13
1>
0@
1B
1;
09
17
05
1%
0#
#540000
0'
0&
03
02
0=
0>
1?
0B
0;
18
07
14
0%
1"
#555000
1'
13
1>
0?
1A
1:
08
16
04
1$
0"
#570000
0'
1&
03
12
1=
0>
1@
0A
0:
19
06
15
0$
1#
#585000
1'
13
1>
0@
1B
1;
09
17
05
1%
0#
#600000
0'
0&
03
02
0=
0>
1?
0B
0;
18
07
14
0%
1"
#615000
1'
13
1>
0?
1A
1:
08
16
04
1$
0"
#630000
0'
1&
03
12
1=
0>
1@
0A
0:
19
06
15
0$
1#
#645000
1'
13
1>
0@
1B
1;
09
17
05
1%
0#
#660000
0'
0&
03
02
0=
0>
1?
0B
0;
18
07
14
0%
1"
#675000
1'
13
1>
0?
1A
1:
08
16
04
1$
0"
#690000
0'
1&
03
12
1=
0>
1@
0A
0:
19
06
15
0$
1#
#705000
1'
13
1>
0@
1B
1;
09
17
05
1%
0#
#720000
0'
0&
03
02
0=
0>
1?
0B
0;
18
07
14
0%
1"
#735000
1'
13
1>
0?
1A
1:
08
16
04
1$
0"
#750000
0'
1&
03
12
1=
0>
1@
0A
0:
19
06
15
0$
1#
#765000
1'
13
1>
0@
1B
1;
09
17
05
1%
0#
#780000
0'
0&
03
02
0=
0>
1?
0B
0;
18
07
14
0%
1"
#795000
1'
13
1>
0?
1A
1:
08
16
04
1$
0"
#810000
0'
1&
03
12
1=
0>
1@
0A
0:
19
06
15
0$
1#
#825000
1'
13
1>
0@
1B
1;
09
17
05
1%
0#
#840000
0'
0&
03
02
0=
0>
1?
0B
0;
18
07
14
0%
1"
#855000
1'
13
1>
0?
1A
1:
08
16
04
1$
0"
#870000
0'
1&
03
12
1=
0>
1@
0A
0:
19
06
15
0$
1#
#885000
1'
13
1>
0@
1B
1;
09
17
05
1%
0#
#900000
0'
0&
03
02
0=
0>
1?
0B
0;
18
07
14
0%
1"
#915000
1'
13
1>
0?
1A
1:
08
16
04
1$
0"
#930000
0'
1&
03
12
1=
0>
1@
0A
0:
19
06
15
0$
1#
#945000
1'
13
1>
0@
1B
1;
09
17
05
1%
0#
#960000
0'
0&
03
02
0=
0>
1?
0B
0;
18
07
14
0%
1"
#975000
1'
13
1>
0?
1A
1:
08
16
04
1$
0"
#990000
0'
1&
03
12
1=
0>
1@
0A
0:
19
06
15
0$
1#
