Aula6Exercicio3/Dataflow/simulation/qsim/circuito.msim.vcd
$comment
	File created using the following command:
		vcd file circuito.msim.vcd -direction
$end
$date
	Fri Aug 23 10:56:39 2019
$end
$version
	ModelSim Version 10.5b
$end
$timescale
	1ps
$end

$scope module circuito_vhd_vec_tst $end
$var wire 1 ! a $end
$var wire 1 " b $end
$var wire 1 # c $end
$var wire 1 $ d $end
$var wire 1 % x $end

$scope module i1 $end
$var wire 1 & gnd $end
$var wire 1 ' vcc $end
$var wire 1 ( unknown $end
$var wire 1 ) devoe $end
$var wire 1 * devclrn $end
$var wire 1 + devpor $end
$var wire 1 , ww_devoe $end
$var wire 1 - ww_devclrn $end
$var wire 1 . ww_devpor $end
$var wire 1 / ww_a $end
$var wire 1 0 ww_b $end
$var wire 1 1 ww_c $end
$var wire 1 2 ww_d $end
$var wire 1 3 ww_x $end
$var wire 1 4 \a~input_o\ $end
$var wire 1 5 \b~input_o\ $end
$var wire 1 6 \c~input_o\ $end
$var wire 1 7 \d~input_o\ $end
$var wire 1 8 \x~output_o\ $end
$upscope $end
$upscope $end
$enddefinitions $end
#0
$dumpvars
1!
0"
1#
0$
1%
0&
1'
x(
1)
1*
1+
1,
1-
1.
1/
00
11
02
13
14
05
16
07
18
$end
#5000
0!
1$
0/
12
17
04
#10000
0$
1"
02
10
15
07
#15000
1$
1!
0#
12
1/
01
06
14
17
#25000
0$
0!
1#
0"
02
0/
11
00
05
16
04
07
#35000
1$
1!
1"
12
1/
10
15
14
17
#40000
0!
0/
04
#45000
1!
0$
1/
02
07
14
#55000
0!
1$
0"
0#
0/
12
00
01
06
05
17
04
#60000
1!
1/
14
#65000
0$
02
07
#70000
1$
0!
12
0/
04
17
#75000
0$
1!
1"
02
1/
10
15
14
07
#80000
1$
0!
1#
12
0/
11
16
04
17
#85000
0"
00
05
#90000
1!
1/
14
#95000
1"
0#
10
01
06
15
#100000
0"
0!
0$
00
0/
02
07
04
05
#105000
1"
1#
10
11
16
15
#110000
0#
1!
1$
01
1/
12
17
14
06
#115000
1#
0!
0$
11
0/
02
07
04
16
#120000
1!
0"
1/
00
05
14
#125000
1"
10
15
#130000
0"
00
05
#140000
1$
12
17
#145000
1"
0!
0#
10
0/
01
06
04
15
#150000
0"
1!
0$
00
1/
02
07
14
05
#155000
0!
1$
1#
0/
12
11
16
17
04
#160000
1!
0#
1"
1/
01
10
15
06
14
#165000
0!
1#
0/
11
16
04
#170000
0#
0$
01
02
07
06
#175000
1$
0"
12
00
05
17
#180000
0$
1#
02
11
16
07
#185000
0#
1!
01
1/
14
06
#190000
0!
1"
0/
10
15
04
#200000
1!
0"
1#
1/
00
11
16
05
14
#205000
0!
1"
0#
1$
0/
10
01
12
17
06
15
04
#210000
1!
0$
1/
02
07
14
#215000
0!
1#
0/
11
16
04
#220000
1$
12
17
#225000
1!
0#
0"
1/
01
00
05
06
14
#230000
0!
0$
0/
02
07
04
#240000
1!
1"
1/
10
15
14
#245000
0!
0"
1$
1#
0/
00
12
11
16
17
05
04
#250000
1!
0$
1/
02
07
14
#260000
0#
01
06
#265000
1"
10
15
#275000
1#
0!
11
0/
04
16
#280000
0#
1!
1$
01
1/
12
17
14
06
#285000
1#
0$
11
02
07
16
#290000
0#
1$
0!
0"
01
12
0/
00
05
04
17
06
#295000
0$
1"
02
10
15
07
#300000
0"
00
05
#305000
1$
1!
12
1/
14
17
#310000
0$
1"
1#
02
10
11
16
15
07
#315000
0"
00
05
#330000
1"
0!
10
0/
04
15
#335000
0"
1$
0#
00
12
01
06
17
05
#340000
1"
1!
10
1/
14
15
#345000
0"
0!
1#
00
0/
11
16
04
05
#350000
1"
1!
10
1/
14
15
#355000
0"
0!
0$
00
0/
02
07
04
05
#360000
0#
01
06
#365000
1"
1!
1$
10
1/
12
17
14
15
#370000
0!
0$
0/
02
07
04
#375000
1!
1$
0"
1/
12
00
05
17
14
#380000
0!
0$
1"
1#
0/
02
10
11
16
15
07
04
#385000
1!
0#
1/
01
06
14
#390000
1#
0"
11
00
05
16
#395000
0!
1$
0/
12
17
04
#400000
1!
0$
1"
1/
02
10
15
07
14
#405000
1$
0"
12
00
05
17
#410000
1"
0!
0#
10
0/
01
06
04
15
#415000
0"
0$
00
02
07
05
#420000
1"
1$
1!
1#
10
12
1/
11
16
14
17
15
#425000
0#
01
06
#430000
0"
0$
0!
00
02
0/
04
07
05
#435000
1"
10
15
#440000
1$
12
17
#445000
0$
0"
1!
02
00
1/
14
05
07
#450000
1$
1#
12
11
16
17
#455000
0#
1"
0!
01
10
0/
04
15
06
#460000
0"
0$
00
02
07
05
#465000
1"
1#
10
11
16
15
#470000
0#
01
06
#475000
1#
1$
11
12
17
16
#480000
0#
0$
1!
01
02
1/
14
07
06
#485000
1#
1$
11
12
17
16
#490000
0#
0"
01
00
05
06
#495000
0!
0/
04
#500000
1#
1"
11
10
15
16
#505000
0"
1!
0$
00
1/
02
07
14
05
#510000
1$
0#
12
01
06
17
#515000
1"
10
15
#520000
0"
00
05
#525000
0$
1#
02
11
16
07
#530000
0#
1"
0!
01
10
0/
04
15
06
#535000
0"
1$
00
12
17
05
#540000
1"
0$
1#
10
02
11
16
07
15
#545000
0#
01
06
#550000
1#
0"
1!
11
00
1/
14
05
16
#555000
1"
0!
1$
10
0/
12
17
04
15
#560000
0"
0$
0#
00
02
01
06
07
05
#565000
1$
1#
1!
12
11
1/
14
16
17
#570000
0#
0!
01
0/
04
06
#575000
1#
1"
11
10
15
16
#580000
0"
0$
00
02
07
05
#585000
1$
0#
1!
12
01
1/
14
06
17
#590000
0$
1#
0!
1"
02
11
0/
10
15
04
16
07
#595000
1$
0"
12
00
05
17
#600000
1"
1!
10
1/
14
15
#605000
0!
0$
0#
0/
02
01
06
07
04
#610000
0"
00
05
#615000
1$
12
17
#620000
0$
1"
1!
1#
02
10
1/
11
16
14
15
07
#625000
1$
0!
0#
12
0/
01
06
04
17
#630000
0$
1!
1#
0"
02
1/
11
00
05
16
14
07
#635000
1$
0!
0#
12
0/
01
06
04
17
#640000
0$
1!
1#
02
1/
11
16
14
07
#645000
0!
0#
0/
01
06
04
#655000
1#
1"
11
10
15
16
#660000
0#
0"
01
00
05
06
#665000
1"
1!
1$
10
1/
12
17
14
15
#670000
0"
0!
0$
00
0/
02
07
04
05
#675000
1!
1$
1/
12
17
14
#680000
0!
0$
0/
02
07
04
#685000
1$
1#
12
11
16
17
#690000
0$
1!
1"
02
1/
10
15
14
07
#695000
0!
0#
0/
01
06
04
#700000
0"
00
05
#705000
1!
1/
14
#715000
1"
1#
10
11
16
15
#720000
0"
1$
00
12
17
05
#725000
0#
01
06
#730000
0$
0!
02
0/
04
07
#735000
1!
1#
1"
1/
11
10
15
16
14
#740000
0!
0#
0"
0/
01
00
05
06
04
#745000
1#
1"
11
10
15
16
#750000
0#
0"
1$
01
00
12
17
05
06
#755000
1#
0$
1!
11
02
1/
14
07
16
#760000
0#
1$
01
12
17
06
#770000
1#
0$
0!
11
02
0/
04
07
16
#775000
0#
1$
1!
01
12
1/
14
17
06
#780000
1#
0$
11
02
07
16
#785000
0#
1$
01
12
17
06
#790000
1#
0$
11
02
07
16
#800000
0#
1$
0!
1"
01
12
0/
10
15
04
17
06
#805000
0$
1!
02
1/
14
07
#810000
0"
00
05
#815000
0!
0/
04
#820000
1"
1$
1#
10
12
11
16
17
15
#825000
0"
1!
00
1/
14
05
#830000
1"
0!
0#
10
0/
01
06
04
15
#835000
1!
0$
1/
02
07
14
#845000
0!
1$
0/
12
17
04
#850000
1!
0$
1/
02
07
14
#855000
0!
0/
04
#860000
1!
1$
0"
1#
1/
12
00
11
16
05
17
14
#865000
0!
0#
0/
01
06
04
#870000
1#
0$
11
02
07
16
#875000
0#
01
06
#885000
1#
11
16
#890000
1"
10
15
#895000
1!
1/
14
#900000
0"
0#
00
01
06
05
#905000
1#
0!
1$
11
0/
12
17
04
16
#910000
1!
1"
1/
10
15
14
#915000
0!
0"
0#
0$
0/
00
01
02
07
06
05
04
#920000
1!
1"
1#
1/
10
11
16
15
14
#925000
0!
0"
0#
0/
00
01
06
05
04
#930000
1#
1$
11
12
17
16
#935000
0#
0$
1"
01
02
10
15
07
06
#940000
1$
0"
1!
12
00
1/
14
05
17
#945000
1"
1#
10
11
16
15
#950000
0#
0$
0!
01
02
0/
04
07
06
#955000
1#
1!
11
1/
14
16
#970000
0"
00
05
#975000
1"
10
15
#980000
0#
01
06
#985000
0"
0!
1$
00
0/
12
17
04
05
#990000
1"
0$
1#
10
02
11
16
07
15
