Aula12Exercicio1/simulation/qsim/Comparador5Bits.msim.vcd
$comment
	File created using the following command:
		vcd file Comparador5Bits.msim.vcd -direction
$end
$date
	Tue Sep 10 16:08:16 2019
$end
$version
	ModelSim Version 10.5b
$end
$timescale
	1ps
$end

$scope module comparador5bits_vhd_vec_tst $end
$var wire 1 ! A [0] $end
$var wire 1 " A [1] $end
$var wire 1 # A [2] $end
$var wire 1 $ A [3] $end
$var wire 1 % A [4] $end
$var wire 1 & B [0] $end
$var wire 1 ' B [1] $end
$var wire 1 ( B [2] $end
$var wire 1 ) B [3] $end
$var wire 1 * B [4] $end
$var wire 1 + X $end
$var wire 1 , Y $end
$var wire 1 - Z $end

$scope module i1 $end
$var wire 1 . gnd $end
$var wire 1 / vcc $end
$var wire 1 0 unknown $end
$var wire 1 1 devoe $end
$var wire 1 2 devclrn $end
$var wire 1 3 devpor $end
$var wire 1 4 ww_devoe $end
$var wire 1 5 ww_devclrn $end
$var wire 1 6 ww_devpor $end
$var wire 1 7 ww_A [0] $end
$var wire 1 8 ww_A [1] $end
$var wire 1 9 ww_A [2] $end
$var wire 1 : ww_A [3] $end
$var wire 1 ; ww_A [4] $end
$var wire 1 < ww_B [0] $end
$var wire 1 = ww_B [1] $end
$var wire 1 > ww_B [2] $end
$var wire 1 ? ww_B [3] $end
$var wire 1 @ ww_B [4] $end
$var wire 1 A ww_X $end
$var wire 1 B ww_Y $end
$var wire 1 C ww_Z $end
$var wire 1 D \X~output_o\ $end
$var wire 1 E \Y~output_o\ $end
$var wire 1 F \Z~output_o\ $end
$var wire 1 G \B[0]~input_o\ $end
$var wire 1 H \A[0]~input_o\ $end
$var wire 1 I \A[1]~input_o\ $end
$var wire 1 J \B[1]~input_o\ $end
$var wire 1 K \Y~0_combout\ $end
$var wire 1 L \A[2]~input_o\ $end
$var wire 1 M \A[4]~input_o\ $end
$var wire 1 N \B[3]~input_o\ $end
$var wire 1 O \A[3]~input_o\ $end
$var wire 1 P \B[4]~input_o\ $end
$var wire 1 Q \X~0_combout\ $end
$var wire 1 R \B[2]~input_o\ $end
$var wire 1 S \X~1_combout\ $end
$var wire 1 T \Y~2_combout\ $end
$var wire 1 U \Y~3_combout\ $end
$var wire 1 V \Y~1_combout\ $end
$var wire 1 W \Y~4_combout\ $end
$var wire 1 X \Z~0_combout\ $end
$var wire 1 Y \Z~1_combout\ $end
$var wire 1 Z \G3|X~0_combout\ $end
$var wire 1 [ \Z~2_combout\ $end
$var wire 1 \ \ALT_INV_X~1_combout\ $end
$upscope $end
$upscope $end
$enddefinitions $end
#0
$dumpvars
1+
0,
0-
0.
1/
x0
11
12
13
14
15
16
1A
0B
0C
1D
0E
0F
0G
0H
0I
0J
1K
0L
0M
0N
0O
0P
0Q
0R
0S
0T
0U
0V
0W
0X
0Y
0Z
0[
1\
0!
0"
0#
0$
0%
0&
0'
0(
0)
0*
07
08
09
0:
0;
0<
0=
0>
0?
0@
$end
#5000
1'
1=
1J
0K
1X
1S
1[
0\
1F
0D
1C
0A
1-
0+
#10000
0'
1&
0=
1<
1G
0J
#15000
1'
1=
1J
#20000
0'
0&
1"
0=
0<
18
1I
0G
0J
1V
0X
0[
1W
1E
0F
1B
0C
1,
0-
#25000
1'
1=
1J
1K
0V
0W
0S
1\
0E
1D
0B
1A
0,
1+
#30000
0'
1&
0=
1<
1G
0J
0K
1X
1S
1[
0\
1F
0D
1C
0A
1-
0+
#35000
1'
1=
1J
#40000
0'
0&
0"
1!
0=
0<
08
17
1H
0I
0G
0J
1V
0X
0[
1W
1E
0F
1B
0C
1,
0-
#45000
1'
1=
1J
#50000
0'
1&
0=
1<
1G
0J
1K
0V
0W
0S
1\
0E
1D
0B
1A
0,
1+
#55000
1'
1=
1J
0K
1X
1S
1[
0\
1F
0D
1C
0A
1-
0+
#60000
0'
0&
1"
0=
0<
18
1I
0G
0J
1V
0X
0[
1W
1E
0F
1B
0C
1,
0-
#65000
1'
1=
1J
#70000
0'
1&
0=
1<
1G
0J
#75000
1'
1=
1J
1K
0V
0W
0S
1\
0E
1D
0B
1A
0,
1+
#80000
0'
0&
0"
0!
0=
0<
08
07
0H
0I
0G
0J
#85000
1'
1=
1J
0K
1X
1S
1[
0\
1F
0D
1C
0A
1-
0+
#90000
0'
1&
0=
1<
1G
0J
#95000
1'
1=
1J
#100000
0'
0&
1"
0=
0<
18
1I
0G
0J
1V
0X
0[
1W
1E
0F
1B
0C
1,
0-
#105000
1'
1=
1J
1K
0V
0W
0S
1\
0E
1D
0B
1A
0,
1+
#110000
0'
1&
0=
1<
1G
0J
0K
1X
1S
1[
0\
1F
0D
1C
0A
1-
0+
#115000
1'
1=
1J
#120000
0'
0&
0"
1!
0=
0<
08
17
1H
0I
0G
0J
1V
0X
0[
1W
1E
0F
1B
0C
1,
0-
#125000
1'
1=
1J
#130000
0'
1&
0=
1<
1G
0J
1K
0V
0W
0S
1\
0E
1D
0B
1A
0,
1+
#135000
1'
1=
1J
0K
1X
1S
1[
0\
1F
0D
1C
0A
1-
0+
#140000
0'
0&
1"
0=
0<
18
1I
0G
0J
1V
0X
0[
1W
1E
0F
1B
0C
1,
0-
#145000
1'
1=
1J
#150000
0'
1&
0=
1<
1G
0J
#155000
1'
1=
1J
1K
0V
0W
0S
1\
0E
1D
0B
1A
0,
1+
#160000
0'
0&
0"
0!
0=
0<
08
07
0H
0I
0G
0J
#165000
1'
1=
1J
0K
1X
1S
1[
0\
1F
0D
1C
0A
1-
0+
#170000
0'
1&
0=
1<
1G
0J
#175000
1'
1=
1J
#180000
0'
0&
1"
0=
0<
18
1I
0G
0J
1V
0X
0[
1W
1E
0F
1B
0C
1,
0-
#185000
1'
1=
1J
1K
0V
0W
0S
1\
0E
1D
0B
1A
0,
1+
#190000
0'
1&
0=
1<
1G
0J
0K
1X
1S
1[
0\
1F
0D
1C
0A
1-
0+
#195000
1'
1=
1J
#200000
0'
0&
0"
1!
0=
0<
08
17
1H
0I
0G
0J
1V
0X
0[
1W
1E
0F
1B
0C
1,
0-
#205000
1'
1=
1J
#210000
0'
1&
0=
1<
1G
0J
1K
0V
0W
0S
1\
0E
1D
0B
1A
0,
1+
#215000
1'
1=
1J
0K
1X
1S
1[
0\
1F
0D
1C
0A
1-
0+
#220000
0'
0&
1"
0=
0<
18
1I
0G
0J
1V
0X
0[
1W
1E
0F
1B
0C
1,
0-
#225000
1'
1=
1J
#230000
0'
1&
0=
1<
1G
0J
#235000
1'
1=
1J
1K
0V
0W
0S
1\
0E
1D
0B
1A
0,
1+
#240000
0'
0&
0"
0!
0=
0<
08
07
0H
0I
0G
0J
#245000
1'
1=
1J
0K
1X
1S
1[
0\
1F
0D
1C
0A
1-
0+
#250000
0'
1&
0=
1<
1G
0J
#255000
1'
1=
1J
#260000
0'
0&
1"
0=
0<
18
1I
0G
0J
1V
0X
0[
1W
1E
0F
1B
0C
1,
0-
#265000
1'
1=
1J
1K
0V
0W
0S
1\
0E
1D
0B
1A
0,
1+
#270000
0'
1&
0=
1<
1G
0J
0K
1X
1S
1[
0\
1F
0D
1C
0A
1-
0+
#275000
1'
1=
1J
#280000
0'
0&
0"
1!
0=
0<
08
17
1H
0I
0G
0J
1V
0X
0[
1W
1E
0F
1B
0C
1,
0-
#285000
1'
1=
1J
#290000
0'
1&
0=
1<
1G
0J
1K
0V
0W
0S
1\
0E
1D
0B
1A
0,
1+
#295000
1'
1=
1J
0K
1X
1S
1[
0\
1F
0D
1C
0A
1-
0+
#300000
0'
0&
1"
0=
0<
18
1I
0G
0J
1V
0X
0[
1W
1E
0F
1B
0C
1,
0-
#305000
1'
1=
1J
#310000
0'
1&
0=
1<
1G
0J
#315000
1'
1=
1J
1K
0V
0W
0S
1\
0E
1D
0B
1A
0,
1+
#320000
0'
0&
0"
0!
0=
0<
08
07
0H
0I
0G
0J
#325000
1'
1=
1J
0K
1X
1S
1[
0\
1F
0D
1C
0A
1-
0+
#330000
0'
1&
0=
1<
1G
0J
#335000
1'
1=
1J
#340000
0'
0&
1"
0=
0<
18
1I
0G
0J
1V
0X
0[
1W
1E
0F
1B
0C
1,
0-
#345000
1'
1=
1J
1K
0V
0W
0S
1\
0E
1D
0B
1A
0,
1+
#350000
0'
1&
0=
1<
1G
0J
0K
1X
1S
1[
0\
1F
0D
1C
0A
1-
0+
#355000
1'
1=
1J
#360000
0'
0&
0"
1!
0=
0<
08
17
1H
0I
0G
0J
1V
0X
0[
1W
1E
0F
1B
0C
1,
0-
#365000
1'
1=
1J
#370000
0'
1&
0=
1<
1G
0J
1K
0V
0W
0S
1\
0E
1D
0B
1A
0,
1+
#375000
1'
1=
1J
0K
1X
1S
1[
0\
1F
0D
1C
0A
1-
0+
#380000
0'
0&
1"
0=
0<
18
1I
0G
0J
1V
0X
0[
1W
1E
0F
1B
0C
1,
0-
#385000
1'
1=
1J
#390000
0'
1&
0=
1<
1G
0J
#395000
1'
1=
1J
1K
0V
0W
0S
1\
0E
1D
0B
1A
0,
1+
#400000
0'
0&
0"
0!
0=
0<
08
07
0H
0I
0G
0J
#405000
1'
1=
1J
0K
1X
1S
1[
0\
1F
0D
1C
0A
1-
0+
#410000
0'
1&
0=
1<
1G
0J
#415000
1'
1=
1J
#420000
0'
0&
1"
0=
0<
18
1I
0G
0J
1V
0X
0[
1W
1E
0F
1B
0C
1,
0-
#425000
1'
1=
1J
1K
0V
0W
0S
1\
0E
1D
0B
1A
0,
1+
#430000
0'
1&
0=
1<
1G
0J
0K
1X
1S
1[
0\
1F
0D
1C
0A
1-
0+
#435000
1'
1=
1J
#440000
0'
0&
0"
1!
0=
0<
08
17
1H
0I
0G
0J
1V
0X
0[
1W
1E
0F
1B
0C
1,
0-
#445000
1'
1=
1J
#450000
0'
1&
0=
1<
1G
0J
1K
0V
0W
0S
1\
0E
1D
0B
1A
0,
1+
#455000
1'
1=
1J
0K
1X
1S
1[
0\
1F
0D
1C
0A
1-
0+
#460000
0'
0&
1"
0=
0<
18
1I
0G
0J
1V
0X
0[
1W
1E
0F
1B
0C
1,
0-
#465000
1'
1=
1J
#470000
0'
1&
0=
1<
1G
0J
#475000
1'
1=
1J
1K
0V
0W
0S
1\
0E
1D
0B
1A
0,
1+
#480000
0'
0&
0"
0!
0=
0<
08
07
0H
0I
0G
0J
#485000
1'
1=
1J
0K
1X
1S
1[
0\
1F
0D
1C
0A
1-
0+
#490000
0'
1&
0=
1<
1G
0J
#495000
1'
1=
1J
#500000
0'
0&
1"
0=
0<
18
1I
0G
0J
1V
0X
0[
1W
1E
0F
1B
0C
1,
0-
#505000
1'
1=
1J
1K
0V
0W
0S
1\
0E
1D
0B
1A
0,
1+
#510000
0'
1&
0=
1<
1G
0J
0K
1X
1S
1[
0\
1F
0D
1C
0A
1-
0+
#515000
1'
1=
1J
#520000
0'
0&
0"
1!
0=
0<
08
17
1H
0I
0G
0J
1V
0X
0[
1W
1E
0F
1B
0C
1,
0-
#525000
1'
1=
1J
#530000
0'
1&
0=
1<
1G
0J
1K
0V
0W
0S
1\
0E
1D
0B
1A
0,
1+
#535000
1'
1=
1J
0K
1X
1S
1[
0\
1F
0D
1C
0A
1-
0+
#540000
0'
0&
1"
0=
0<
18
1I
0G
0J
1V
0X
0[
1W
1E
0F
1B
0C
1,
0-
#545000
1'
1=
1J
#550000
0'
1&
0=
1<
1G
0J
#555000
1'
1=
1J
1K
0V
0W
0S
1\
0E
1D
0B
1A
0,
1+
#560000
0'
0&
0"
0!
0=
0<
08
07
0H
0I
0G
0J
#565000
1'
1=
1J
0K
1X
1S
1[
0\
1F
0D
1C
0A
1-
0+
#570000
0'
1&
0=
1<
1G
0J
#575000
1'
1=
1J
#580000
0'
0&
1"
0=
0<
18
1I
0G
0J
1V
0X
0[
1W
1E
0F
1B
0C
1,
0-
#585000
1'
1=
1J
1K
0V
0W
0S
1\
0E
1D
0B
1A
0,
1+
#590000
0'
1&
0=
1<
1G
0J
0K
1X
1S
1[
0\
1F
0D
1C
0A
1-
0+
#595000
1'
1=
1J
#600000
0'
0&
0"
1!
0=
0<
08
17
1H
0I
0G
0J
1V
0X
0[
1W
1E
0F
1B
0C
1,
0-
#605000
1'
1=
1J
#610000
0'
1&
0=
1<
1G
0J
1K
0V
0W
0S
1\
0E
1D
0B
1A
0,
1+
#615000
1'
1=
1J
0K
1X
1S
1[
0\
1F
0D
1C
0A
1-
0+
#620000
0'
0&
1"
0=
0<
18
1I
0G
0J
1V
0X
0[
1W
1E
0F
1B
0C
1,
0-
#625000
1'
1=
1J
#630000
0'
1&
0=
1<
1G
0J
#635000
1'
1=
1J
1K
0V
0W
0S
1\
0E
1D
0B
1A
0,
1+
#640000
0'
0&
0"
0!
0=
0<
08
07
0H
0I
0G
0J
#645000
1'
1=
1J
0K
1X
1S
1[
0\
1F
0D
1C
0A
1-
0+
#650000
0'
1&
0=
1<
1G
0J
#655000
1'
1=
1J
#660000
0'
0&
1"
0=
0<
18
1I
0G
0J
1V
0X
0[
1W
1E
0F
1B
0C
1,
0-
#665000
1'
1=
1J
1K
0V
0W
0S
1\
0E
1D
0B
1A
0,
1+
#670000
0'
1&
0=
1<
1G
0J
0K
1X
1S
1[
0\
1F
0D
1C
0A
1-
0+
#675000
1'
1=
1J
#680000
0'
0&
0"
1!
0=
0<
08
17
1H
0I
0G
0J
1V
0X
0[
1W
1E
0F
1B
0C
1,
0-
#685000
1'
1=
1J
#690000
0'
1&
0=
1<
1G
0J
1K
0V
0W
0S
1\
0E
1D
0B
1A
0,
1+
#695000
1'
1=
1J
0K
1X
1S
1[
0\
1F
0D
1C
0A
1-
0+
#700000
0'
0&
1"
0=
0<
18
1I
0G
0J
1V
0X
0[
1W
1E
0F
1B
0C
1,
0-
#705000
1'
1=
1J
#710000
0'
1&
0=
1<
1G
0J
#715000
1'
1=
1J
1K
0V
0W
0S
1\
0E
1D
0B
1A
0,
1+
#720000
0'
0&
0"
0!
0=
0<
08
07
0H
0I
0G
0J
#725000
1'
1=
1J
0K
1X
1S
1[
0\
1F
0D
1C
0A
1-
0+
#730000
0'
1&
0=
1<
1G
0J
#735000
1'
1=
1J
#740000
0'
0&
1"
0=
0<
18
1I
0G
0J
1V
0X
0[
1W
1E
0F
1B
0C
1,
0-
#745000
1'
1=
1J
1K
0V
0W
0S
1\
0E
1D
0B
1A
0,
1+
#750000
0'
1&
0=
1<
1G
0J
0K
1X
1S
1[
0\
1F
0D
1C
0A
1-
0+
#755000
1'
1=
1J
#760000
0'
0&
0"
1!
0=
0<
08
17
1H
0I
0G
0J
1V
0X
0[
1W
1E
0F
1B
0C
1,
0-
#765000
1'
1=
1J
#770000
0'
1&
0=
1<
1G
0J
1K
0V
0W
0S
1\
0E
1D
0B
1A
0,
1+
#775000
1'
1=
1J
0K
1X
1S
1[
0\
1F
0D
1C
0A
1-
0+
#780000
0'
0&
1"
0=
0<
18
1I
0G
0J
1V
0X
0[
1W
1E
0F
1B
0C
1,
0-
#785000
1'
1=
1J
#790000
0'
1&
0=
1<
1G
0J
#795000
1'
1=
1J
1K
0V
0W
0S
1\
0E
1D
0B
1A
0,
1+
#800000
0'
0&
0"
0!
0=
0<
08
07
0H
0I
0G
0J
#805000
1'
1=
1J
0K
1X
1S
1[
0\
1F
0D
1C
0A
1-
0+
#810000
0'
1&
0=
1<
1G
0J
#815000
1'
1=
1J
#820000
0'
0&
1"
0=
0<
18
1I
0G
0J
1V
0X
0[
1W
1E
0F
1B
0C
1,
0-
#825000
1'
1=
1J
1K
0V
0W
0S
1\
0E
1D
0B
1A
0,
1+
#830000
0'
1&
0=
1<
1G
0J
0K
1X
1S
1[
0\
1F
0D
1C
0A
1-
0+
#835000
1'
1=
1J
#840000
0'
0&
0"
1!
0=
0<
08
17
1H
0I
0G
0J
1V
0X
0[
1W
1E
0F
1B
0C
1,
0-
#845000
1'
1=
1J
#850000
0'
1&
0=
1<
1G
0J
1K
0V
0W
0S
1\
0E
1D
0B
1A
0,
1+
#855000
1'
1=
1J
0K
1X
1S
1[
0\
1F
0D
1C
0A
1-
0+
#860000
0'
0&
1"
0=
0<
18
1I
0G
0J
1V
0X
0[
1W
1E
0F
1B
0C
1,
0-
#865000
1'
1=
1J
#870000
0'
1&
0=
1<
1G
0J
#875000
1'
1=
1J
1K
0V
0W
0S
1\
0E
1D
0B
1A
0,
1+
#880000
0'
0&
0"
0!
0=
0<
08
07
0H
0I
0G
0J
#885000
1'
1=
1J
0K
1X
1S
1[
0\
1F
0D
1C
0A
1-
0+
#890000
0'
1&
0=
1<
1G
0J
#895000
1'
1=
1J
#900000
0'
0&
1"
0=
0<
18
1I
0G
0J
1V
0X
0[
1W
1E
0F
1B
0C
1,
0-
#905000
1'
1=
1J
1K
0V
0W
0S
1\
0E
1D
0B
1A
0,
1+
#910000
0'
1&
0=
1<
1G
0J
0K
1X
1S
1[
0\
1F
0D
1C
0A
1-
0+
#915000
1'
1=
1J
#920000
0'
0&
0"
1!
0=
0<
08
17
1H
0I
0G
0J
1V
0X
0[
1W
1E
0F
1B
0C
1,
0-
#925000
1'
1=
1J
#930000
0'
1&
0=
1<
1G
0J
1K
0V
0W
0S
1\
0E
1D
0B
1A
0,
1+
#935000
1'
1=
1J
0K
1X
1S
1[
0\
1F
0D
1C
0A
1-
0+
#940000
0'
0&
1"
0=
0<
18
1I
0G
0J
1V
0X
0[
1W
1E
0F
1B
0C
1,
0-
#945000
1'
1=
1J
#950000
0'
1&
0=
1<
1G
0J
#955000
1'
1=
1J
1K
0V
0W
0S
1\
0E
1D
0B
1A
0,
1+
#960000
0'
0&
0"
0!
0=
0<
08
07
0H
0I
0G
0J
#965000
1'
1=
1J
0K
1X
1S
1[
0\
1F
0D
1C
0A
1-
0+
#970000
0'
1&
0=
1<
1G
0J
#975000
1'
1=
1J
#980000
0'
0&
1"
0=
0<
18
1I
0G
0J
1V
0X
0[
1W
1E
0F
1B
0C
1,
0-
#985000
1'
1=
1J
1K
0V
0W
0S
1\
0E
1D
0B
1A
0,
1+
#990000
0'
1&
0=
1<
1G
0J
0K
1X
1S
1[
0\
1F
0D
1C
0A
1-
0+
#995000
1'
1=
1J
