Aula10Exercicio2/simulation/qsim/SomadorSubtrator.msim.vcd
$comment
	File created using the following command:
		vcd file SomadorSubtrator.msim.vcd -direction
$end
$date
	Tue Sep 10 15:04:30 2019
$end
$version
	ModelSim Version 10.5b
$end
$timescale
	1ps
$end

$scope module somadorsubtrator_vhd_vec_tst $end
$var wire 1 ! A [0] $end
$var wire 1 " A [1] $end
$var wire 1 # A [2] $end
$var wire 1 $ A [3] $end
$var wire 1 % A [4] $end
$var wire 1 & A [5] $end
$var wire 1 ' A [6] $end
$var wire 1 ( A [7] $end
$var wire 1 ) B [0] $end
$var wire 1 * B [1] $end
$var wire 1 + B [2] $end
$var wire 1 , B [3] $end
$var wire 1 - B [4] $end
$var wire 1 . B [5] $end
$var wire 1 / B [6] $end
$var wire 1 0 B [7] $end
$var wire 1 1 LUZ1 $end
$var wire 1 2 LUZ2 $end
$var wire 1 3 OP $end
$var wire 1 4 S [0] $end
$var wire 1 5 S [1] $end
$var wire 1 6 S [2] $end
$var wire 1 7 S [3] $end
$var wire 1 8 S [4] $end
$var wire 1 9 S [5] $end
$var wire 1 : S [6] $end
$var wire 1 ; S [7] $end

$scope module i1 $end
$var wire 1 < gnd $end
$var wire 1 = vcc $end
$var wire 1 > unknown $end
$var wire 1 ? devoe $end
$var wire 1 @ devclrn $end
$var wire 1 A devpor $end
$var wire 1 B ww_devoe $end
$var wire 1 C ww_devclrn $end
$var wire 1 D ww_devpor $end
$var wire 1 E ww_A [0] $end
$var wire 1 F ww_A [1] $end
$var wire 1 G ww_A [2] $end
$var wire 1 H ww_A [3] $end
$var wire 1 I ww_A [4] $end
$var wire 1 J ww_A [5] $end
$var wire 1 K ww_A [6] $end
$var wire 1 L ww_A [7] $end
$var wire 1 M ww_B [0] $end
$var wire 1 N ww_B [1] $end
$var wire 1 O ww_B [2] $end
$var wire 1 P ww_B [3] $end
$var wire 1 Q ww_B [4] $end
$var wire 1 R ww_B [5] $end
$var wire 1 S ww_B [6] $end
$var wire 1 T ww_B [7] $end
$var wire 1 U ww_OP $end
$var wire 1 V ww_S [0] $end
$var wire 1 W ww_S [1] $end
$var wire 1 X ww_S [2] $end
$var wire 1 Y ww_S [3] $end
$var wire 1 Z ww_S [4] $end
$var wire 1 [ ww_S [5] $end
$var wire 1 \ ww_S [6] $end
$var wire 1 ] ww_S [7] $end
$var wire 1 ^ ww_LUZ1 $end
$var wire 1 _ ww_LUZ2 $end
$var wire 1 ` \S[7]~output_o\ $end
$var wire 1 a \S[6]~output_o\ $end
$var wire 1 b \S[5]~output_o\ $end
$var wire 1 c \S[4]~output_o\ $end
$var wire 1 d \S[3]~output_o\ $end
$var wire 1 e \S[2]~output_o\ $end
$var wire 1 f \S[1]~output_o\ $end
$var wire 1 g \S[0]~output_o\ $end
$var wire 1 h \LUZ1~output_o\ $end
$var wire 1 i \LUZ2~output_o\ $end
$var wire 1 j \B[7]~input_o\ $end
$var wire 1 k \A[7]~input_o\ $end
$var wire 1 l \A[6]~input_o\ $end
$var wire 1 m \B[6]~input_o\ $end
$var wire 1 n \A[5]~input_o\ $end
$var wire 1 o \B[5]~input_o\ $end
$var wire 1 p \A[4]~input_o\ $end
$var wire 1 q \B[4]~input_o\ $end
$var wire 1 r \A[3]~input_o\ $end
$var wire 1 s \B[3]~input_o\ $end
$var wire 1 t \A[2]~input_o\ $end
$var wire 1 u \B[2]~input_o\ $end
$var wire 1 v \A[1]~input_o\ $end
$var wire 1 w \B[1]~input_o\ $end
$var wire 1 x \A[0]~input_o\ $end
$var wire 1 y \B[0]~input_o\ $end
$var wire 1 z \OP~input_o\ $end
$var wire 1 { \G1|G1|S~1_cout\ $end
$var wire 1 | \G1|G1|S~3\ $end
$var wire 1 } \G1|G1|S~5\ $end
$var wire 1 ~ \G1|G1|S~7\ $end
$var wire 1 !! \G1|G1|S~9\ $end
$var wire 1 "! \G1|G1|S~11\ $end
$var wire 1 #! \G1|G1|S~13\ $end
$var wire 1 $! \G1|G1|S~15\ $end
$var wire 1 %! \G1|G1|S~16_combout\ $end
$var wire 1 &! \G1|G1|S~14_combout\ $end
$var wire 1 '! \G1|G1|S~12_combout\ $end
$var wire 1 (! \G1|G1|S~10_combout\ $end
$var wire 1 )! \G1|G1|S~8_combout\ $end
$var wire 1 *! \G1|G1|S~6_combout\ $end
$var wire 1 +! \G1|G1|S~4_combout\ $end
$var wire 1 ,! \G1|G1|S~2_combout\ $end
$var wire 1 -! \ALT_INV_OP~input_o\ $end
$upscope $end
$upscope $end
$enddefinitions $end
#0
$dumpvars
11
02
03
0<
1=
x>
1?
1@
1A
1B
1C
1D
0U
1^
0_
x`
xa
xb
xc
xd
xe
xf
0g
1h
0i
xj
xk
xl
xm
xn
xo
xp
xq
xr
xs
xt
xu
xv
xw
0x
0y
0z
0{
1|
x}
x~
x!!
x"!
x#!
x$!
x%!
x&!
x'!
x(!
x)!
x*!
x+!
0,!
1-!
0!
x"
x#
x$
x%
x&
x'
x(
0)
x*
x+
x,
x-
x.
x/
x0
0E
xF
xG
xH
xI
xJ
xK
xL
0M
xN
xO
xP
xQ
xR
xS
xT
0V
xW
xX
xY
xZ
x[
x\
x]
04
x5
x6
x7
x8
x9
x:
x;
$end
#5000
1!
1E
1x
1,!
1g
1V
14
#10000
0!
1)
0E
1M
1y
0x
#15000
1!
1E
1x
0,!
0|
0g
0V
04
#20000
0!
0)
13
0E
0M
1U
1z
0y
0x
0-!
1|
1{
1,!
1i
0h
1_
0^
12
01
1g
1V
14
#25000
1!
1E
1x
0,!
0|
0g
0V
04
#30000
0!
1)
0E
1M
1y
0x
#35000
1!
1E
1x
1,!
1g
1V
14
#40000
0!
0)
03
0E
0M
0U
0z
0y
0x
1-!
1|
0{
0,!
0i
1h
0_
1^
02
11
0g
0V
04
#45000
1!
1E
1x
1,!
1g
1V
14
#50000
0!
1)
0E
1M
1y
0x
#55000
1!
1E
1x
0,!
0|
0g
0V
04
#60000
0!
0)
13
0E
0M
1U
1z
0y
0x
0-!
1|
1{
1,!
1i
0h
1_
0^
12
01
1g
1V
14
#65000
1!
1E
1x
0,!
0|
0g
0V
04
#70000
0!
1)
0E
1M
1y
0x
#75000
1!
1E
1x
1,!
1g
1V
14
#80000
0!
0)
03
0E
0M
0U
0z
0y
0x
1-!
1|
0{
0,!
0i
1h
0_
1^
02
11
0g
0V
04
#85000
1!
1E
1x
1,!
1g
1V
14
#90000
0!
1)
0E
1M
1y
0x
#95000
1!
1E
1x
0,!
0|
0g
0V
04
#100000
0!
0)
13
0E
0M
1U
1z
0y
0x
0-!
1|
1{
1,!
1i
0h
1_
0^
12
01
1g
1V
14
#105000
1!
1E
1x
0,!
0|
0g
0V
04
#110000
0!
1)
0E
1M
1y
0x
#115000
1!
1E
1x
1,!
1g
1V
14
#120000
0!
0)
03
0E
0M
0U
0z
0y
0x
1-!
1|
0{
0,!
0i
1h
0_
1^
02
11
0g
0V
04
#125000
1!
1E
1x
1,!
1g
1V
14
#130000
0!
1)
0E
1M
1y
0x
#135000
1!
1E
1x
0,!
0|
0g
0V
04
#140000
0!
0)
13
0E
0M
1U
1z
0y
0x
0-!
1|
1{
1,!
1i
0h
1_
0^
12
01
1g
1V
14
#145000
1!
1E
1x
0,!
0|
0g
0V
04
#150000
0!
1)
0E
1M
1y
0x
#155000
1!
1E
1x
1,!
1g
1V
14
#160000
0!
0)
03
0E
0M
0U
0z
0y
0x
1-!
1|
0{
0,!
0i
1h
0_
1^
02
11
0g
0V
04
#165000
1!
1E
1x
1,!
1g
1V
14
#170000
0!
1)
0E
1M
1y
0x
#175000
1!
1E
1x
0,!
0|
0g
0V
04
#180000
0!
0)
13
0E
0M
1U
1z
0y
0x
0-!
1|
1{
1,!
1i
0h
1_
0^
12
01
1g
1V
14
#185000
1!
1E
1x
0,!
0|
0g
0V
04
#190000
0!
1)
0E
1M
1y
0x
#195000
1!
1E
1x
1,!
1g
1V
14
#200000
0!
0)
03
0E
0M
0U
0z
0y
0x
1-!
1|
0{
0,!
0i
1h
0_
1^
02
11
0g
0V
04
#205000
1!
1E
1x
1,!
1g
1V
14
#210000
0!
1)
0E
1M
1y
0x
#215000
1!
1E
1x
0,!
0|
0g
0V
04
#220000
0!
0)
13
0E
0M
1U
1z
0y
0x
0-!
1|
1{
1,!
1i
0h
1_
0^
12
01
1g
1V
14
#225000
1!
1E
1x
0,!
0|
0g
0V
04
#230000
0!
1)
0E
1M
1y
0x
#235000
1!
1E
1x
1,!
1g
1V
14
#240000
0!
0)
03
0E
0M
0U
0z
0y
0x
1-!
1|
0{
0,!
0i
1h
0_
1^
02
11
0g
0V
04
#245000
1!
1E
1x
1,!
1g
1V
14
#250000
0!
1)
0E
1M
1y
0x
#255000
1!
1E
1x
0,!
0|
0g
0V
04
#260000
0!
0)
13
0E
0M
1U
1z
0y
0x
0-!
1|
1{
1,!
1i
0h
1_
0^
12
01
1g
1V
14
#265000
1!
1E
1x
0,!
0|
0g
0V
04
#270000
0!
1)
0E
1M
1y
0x
#275000
1!
1E
1x
1,!
1g
1V
14
#280000
0!
0)
03
0E
0M
0U
0z
0y
0x
1-!
1|
0{
0,!
0i
1h
0_
1^
02
11
0g
0V
04
#285000
1!
1E
1x
1,!
1g
1V
14
#290000
0!
1)
0E
1M
1y
0x
#295000
1!
1E
1x
0,!
0|
0g
0V
04
#300000
0!
0)
13
0E
0M
1U
1z
0y
0x
0-!
1|
1{
1,!
1i
0h
1_
0^
12
01
1g
1V
14
#305000
1!
1E
1x
0,!
0|
0g
0V
04
#310000
0!
1)
0E
1M
1y
0x
#315000
1!
1E
1x
1,!
1g
1V
14
#320000
0!
0)
03
0E
0M
0U
0z
0y
0x
1-!
1|
0{
0,!
0i
1h
0_
1^
02
11
0g
0V
04
#325000
1!
1E
1x
1,!
1g
1V
14
#330000
0!
1)
0E
1M
1y
0x
#335000
1!
1E
1x
0,!
0|
0g
0V
04
#340000
0!
0)
13
0E
0M
1U
1z
0y
0x
0-!
1|
1{
1,!
1i
0h
1_
0^
12
01
1g
1V
14
#345000
1!
1E
1x
0,!
0|
0g
0V
04
#350000
0!
1)
0E
1M
1y
0x
#355000
1!
1E
1x
1,!
1g
1V
14
#360000
0!
0)
03
0E
0M
0U
0z
0y
0x
1-!
1|
0{
0,!
0i
1h
0_
1^
02
11
0g
0V
04
#365000
1!
1E
1x
1,!
1g
1V
14
#370000
0!
1)
0E
1M
1y
0x
#375000
1!
1E
1x
0,!
0|
0g
0V
04
#380000
0!
0)
13
0E
0M
1U
1z
0y
0x
0-!
1|
1{
1,!
1i
0h
1_
0^
12
01
1g
1V
14
#385000
1!
1E
1x
0,!
0|
0g
0V
04
#390000
0!
1)
0E
1M
1y
0x
#395000
1!
1E
1x
1,!
1g
1V
14
#400000
0!
0)
03
0E
0M
0U
0z
0y
0x
1-!
1|
0{
0,!
0i
1h
0_
1^
02
11
0g
0V
04
#405000
1!
1E
1x
1,!
1g
1V
14
#410000
0!
1)
0E
1M
1y
0x
#415000
1!
1E
1x
0,!
0|
0g
0V
04
#420000
0!
0)
13
0E
0M
1U
1z
0y
0x
0-!
1|
1{
1,!
1i
0h
1_
0^
12
01
1g
1V
14
#425000
1!
1E
1x
0,!
0|
0g
0V
04
#430000
0!
1)
0E
1M
1y
0x
#435000
1!
1E
1x
1,!
1g
1V
14
#440000
0!
0)
03
0E
0M
0U
0z
0y
0x
1-!
1|
0{
0,!
0i
1h
0_
1^
02
11
0g
0V
04
#445000
1!
1E
1x
1,!
1g
1V
14
#450000
0!
1)
0E
1M
1y
0x
#455000
1!
1E
1x
0,!
0|
0g
0V
04
#460000
0!
0)
13
0E
0M
1U
1z
0y
0x
0-!
1|
1{
1,!
1i
0h
1_
0^
12
01
1g
1V
14
#465000
1!
1E
1x
0,!
0|
0g
0V
04
#470000
0!
1)
0E
1M
1y
0x
#475000
1!
1E
1x
1,!
1g
1V
14
#480000
0!
0)
03
0E
0M
0U
0z
0y
0x
1-!
1|
0{
0,!
0i
1h
0_
1^
02
11
0g
0V
04
#485000
1!
1E
1x
1,!
1g
1V
14
#490000
0!
1)
0E
1M
1y
0x
#495000
1!
1E
1x
0,!
0|
0g
0V
04
#500000
0!
0)
13
0E
0M
1U
1z
0y
0x
0-!
1|
1{
1,!
1i
0h
1_
0^
12
01
1g
1V
14
#505000
1!
1E
1x
0,!
0|
0g
0V
04
#510000
0!
1)
0E
1M
1y
0x
#515000
1!
1E
1x
1,!
1g
1V
14
#520000
0!
0)
03
0E
0M
0U
0z
0y
0x
1-!
1|
0{
0,!
0i
1h
0_
1^
02
11
0g
0V
04
#525000
1!
1E
1x
1,!
1g
1V
14
#530000
0!
1)
0E
1M
1y
0x
#535000
1!
1E
1x
0,!
0|
0g
0V
04
#540000
0!
0)
13
0E
0M
1U
1z
0y
0x
0-!
1|
1{
1,!
1i
0h
1_
0^
12
01
1g
1V
14
#545000
1!
1E
1x
0,!
0|
0g
0V
04
#550000
0!
1)
0E
1M
1y
0x
#555000
1!
1E
1x
1,!
1g
1V
14
#560000
0!
0)
03
0E
0M
0U
0z
0y
0x
1-!
1|
0{
0,!
0i
1h
0_
1^
02
11
0g
0V
04
#565000
1!
1E
1x
1,!
1g
1V
14
#570000
0!
1)
0E
1M
1y
0x
#575000
1!
1E
1x
0,!
0|
0g
0V
04
#580000
0!
0)
13
0E
0M
1U
1z
0y
0x
0-!
1|
1{
1,!
1i
0h
1_
0^
12
01
1g
1V
14
#585000
1!
1E
1x
0,!
0|
0g
0V
04
#590000
0!
1)
0E
1M
1y
0x
#595000
1!
1E
1x
1,!
1g
1V
14
#600000
0!
0)
03
0E
0M
0U
0z
0y
0x
1-!
1|
0{
0,!
0i
1h
0_
1^
02
11
0g
0V
04
#605000
1!
1E
1x
1,!
1g
1V
14
#610000
0!
1)
0E
1M
1y
0x
#615000
1!
1E
1x
0,!
0|
0g
0V
04
#620000
0!
0)
13
0E
0M
1U
1z
0y
0x
0-!
1|
1{
1,!
1i
0h
1_
0^
12
01
1g
1V
14
#625000
1!
1E
1x
0,!
0|
0g
0V
04
#630000
0!
1)
0E
1M
1y
0x
#635000
1!
1E
1x
1,!
1g
1V
14
#640000
0!
0)
03
0E
0M
0U
0z
0y
0x
1-!
1|
0{
0,!
0i
1h
0_
1^
02
11
0g
0V
04
#645000
1!
1E
1x
1,!
1g
1V
14
#650000
0!
1)
0E
1M
1y
0x
#655000
1!
1E
1x
0,!
0|
0g
0V
04
#660000
0!
0)
13
0E
0M
1U
1z
0y
0x
0-!
1|
1{
1,!
1i
0h
1_
0^
12
01
1g
1V
14
#665000
1!
1E
1x
0,!
0|
0g
0V
04
#670000
0!
1)
0E
1M
1y
0x
#675000
1!
1E
1x
1,!
1g
1V
14
#680000
0!
0)
03
0E
0M
0U
0z
0y
0x
1-!
1|
0{
0,!
0i
1h
0_
1^
02
11
0g
0V
04
#685000
1!
1E
1x
1,!
1g
1V
14
#690000
0!
1)
0E
1M
1y
0x
#695000
1!
1E
1x
0,!
0|
0g
0V
04
#700000
0!
0)
13
0E
0M
1U
1z
0y
0x
0-!
1|
1{
1,!
1i
0h
1_
0^
12
01
1g
1V
14
#705000
1!
1E
1x
0,!
0|
0g
0V
04
#710000
0!
1)
0E
1M
1y
0x
#715000
1!
1E
1x
1,!
1g
1V
14
#720000
0!
0)
03
0E
0M
0U
0z
0y
0x
1-!
1|
0{
0,!
0i
1h
0_
1^
02
11
0g
0V
04
#725000
1!
1E
1x
1,!
1g
1V
14
#730000
0!
1)
0E
1M
1y
0x
#735000
1!
1E
1x
0,!
0|
0g
0V
04
#740000
0!
0)
13
0E
0M
1U
1z
0y
0x
0-!
1|
1{
1,!
1i
0h
1_
0^
12
01
1g
1V
14
#745000
1!
1E
1x
0,!
0|
0g
0V
04
#750000
0!
1)
0E
1M
1y
0x
#755000
1!
1E
1x
1,!
1g
1V
14
#760000
0!
0)
03
0E
0M
0U
0z
0y
0x
1-!
1|
0{
0,!
0i
1h
0_
1^
02
11
0g
0V
04
#765000
1!
1E
1x
1,!
1g
1V
14
#770000
0!
1)
0E
1M
1y
0x
#775000
1!
1E
1x
0,!
0|
0g
0V
04
#780000
0!
0)
13
0E
0M
1U
1z
0y
0x
0-!
1|
1{
1,!
1i
0h
1_
0^
12
01
1g
1V
14
#785000
1!
1E
1x
0,!
0|
0g
0V
04
#790000
0!
1)
0E
1M
1y
0x
#795000
1!
1E
1x
1,!
1g
1V
14
#800000
0!
0)
03
0E
0M
0U
0z
0y
0x
1-!
1|
0{
0,!
0i
1h
0_
1^
02
11
0g
0V
04
#805000
1!
1E
1x
1,!
1g
1V
14
#810000
0!
1)
0E
1M
1y
0x
#815000
1!
1E
1x
0,!
0|
0g
0V
04
#820000
0!
0)
13
0E
0M
1U
1z
0y
0x
0-!
1|
1{
1,!
1i
0h
1_
0^
12
01
1g
1V
14
#825000
1!
1E
1x
0,!
0|
0g
0V
04
#830000
0!
1)
0E
1M
1y
0x
#835000
1!
1E
1x
1,!
1g
1V
14
#840000
0!
0)
03
0E
0M
0U
0z
0y
0x
1-!
1|
0{
0,!
0i
1h
0_
1^
02
11
0g
0V
04
#845000
1!
1E
1x
1,!
1g
1V
14
#850000
0!
1)
0E
1M
1y
0x
#855000
1!
1E
1x
0,!
0|
0g
0V
04
#860000
0!
0)
13
0E
0M
1U
1z
0y
0x
0-!
1|
1{
1,!
1i
0h
1_
0^
12
01
1g
1V
14
#865000
1!
1E
1x
0,!
0|
0g
0V
04
#870000
0!
1)
0E
1M
1y
0x
#875000
1!
1E
1x
1,!
1g
1V
14
#880000
0!
0)
03
0E
0M
0U
0z
0y
0x
1-!
1|
0{
0,!
0i
1h
0_
1^
02
11
0g
0V
04
#885000
1!
1E
1x
1,!
1g
1V
14
#890000
0!
1)
0E
1M
1y
0x
#895000
1!
1E
1x
0,!
0|
0g
0V
04
#900000
0!
0)
13
0E
0M
1U
1z
0y
0x
0-!
1|
1{
1,!
1i
0h
1_
0^
12
01
1g
1V
14
#905000
1!
1E
1x
0,!
0|
0g
0V
04
#910000
0!
1)
0E
1M
1y
0x
#915000
1!
1E
1x
1,!
1g
1V
14
#920000
0!
0)
03
0E
0M
0U
0z
0y
0x
1-!
1|
0{
0,!
0i
1h
0_
1^
02
11
0g
0V
04
#925000
1!
1E
1x
1,!
1g
1V
14
#930000
0!
1)
0E
1M
1y
0x
#935000
1!
1E
1x
0,!
0|
0g
0V
04
#940000
0!
0)
13
0E
0M
1U
1z
0y
0x
0-!
1|
1{
1,!
1i
0h
1_
0^
12
01
1g
1V
14
#945000
1!
1E
1x
0,!
0|
0g
0V
04
#950000
0!
1)
0E
1M
1y
0x
#955000
1!
1E
1x
1,!
1g
1V
14
#960000
0!
0)
03
0E
0M
0U
0z
0y
0x
1-!
1|
0{
0,!
0i
1h
0_
1^
02
11
0g
0V
04
#965000
1!
1E
1x
1,!
1g
1V
14
#970000
0!
1)
0E
1M
1y
0x
#975000
1!
1E
1x
0,!
0|
0g
0V
04
#980000
0!
0)
13
0E
0M
1U
1z
0y
0x
0-!
1|
1{
1,!
1i
0h
1_
0^
12
01
1g
1V
14
#985000
1!
1E
1x
0,!
0|
0g
0V
04
#990000
0!
1)
0E
1M
1y
0x
#995000
1!
1E
1x
1,!
1g
1V
14
