parte/Exercicio1a/simulation/qsim/Exercicio1a.msim.vcd
$comment
	File created using the following command:
		vcd file Exercicio1a.msim.vcd -direction
$end
$date
	Wed Aug 21 09:42:00 2019
$end
$version
	ModelSim Version 10.5b
$end
$timescale
	1ps
$end

$scope module exercicio1a_vhd_vec_tst $end
$var wire 1 ! a $end
$var wire 1 " b $end
$var wire 1 # s $end

$scope module i1 $end
$var wire 1 $ gnd $end
$var wire 1 % vcc $end
$var wire 1 & unknown $end
$var wire 1 ' devoe $end
$var wire 1 ( devclrn $end
$var wire 1 ) devpor $end
$var wire 1 * ww_devoe $end
$var wire 1 + ww_devclrn $end
$var wire 1 , ww_devpor $end
$var wire 1 - ww_a $end
$var wire 1 . ww_b $end
$var wire 1 / ww_s $end
$var wire 1 0 \s~output_o\ $end
$var wire 1 1 \b~input_o\ $end
$var wire 1 2 \a~input_o\ $end
$var wire 1 3 \s~0_combout\ $end
$upscope $end
$upscope $end
$enddefinitions $end
#0
$dumpvars
0!
0"
0#
0$
1%
x&
1'
1(
1)
1*
1+
1,
0-
0.
0/
00
x1
x2
x3
$end
#815
02
#825
01
#2500
1"
1.
#3219
11
#4254
03
#4921
x0
x/
x#
#5000
0"
1!
0.
1-
#5709
12
#5825
01
#7500
1"
1.
#8219
11
#8914
13
#8966
00
0/
0#
#9378
03
#10000
0"
0!
0.
0-
#10815
02
#10825
01
#11516
13
#12500
1"
1.
#13219
11
#13835
10
1/
1#
#14090
00
0/
0#
#14254
03
#15000
0"
1!
0.
1-
#15709
12
#15825
01
#16437
10
1/
1#
#17500
1"
1.
#18219
11
#18914
13
#18966
00
0/
0#
#19378
03
#20000
0"
0!
0.
0-
#20815
02
#20825
01
#21516
13
#22500
1"
1.
#23219
11
#23835
10
1/
1#
#24090
00
0/
0#
#24254
03
#25000
0"
1!
0.
1-
#25709
12
#25825
01
#26437
10
1/
1#
#27500
1"
1.
#28219
11
#28914
13
#28966
00
0/
0#
#29378
03
#30000
0"
0!
0.
0-
#30815
02
#30825
01
#31516
13
#32500
1"
1.
#33219
11
#33835
10
1/
1#
#34090
00
0/
0#
#34254
03
#35000
0"
1!
0.
1-
#35709
12
#35825
01
#36437
10
1/
1#
#37500
1"
1.
#38219
11
#38914
13
#38966
00
0/
0#
#39378
03
#40000
0"
0!
0.
0-
#40815
02
#40825
01
#41516
13
#42500
1"
1.
#43219
11
#43835
10
1/
1#
#44090
00
0/
0#
#44254
03
#45000
0"
1!
0.
1-
#45709
12
#45825
01
#46437
10
1/
1#
#47500
1"
1.
#48219
11
#48914
13
#48966
00
0/
0#
#49378
03
#50000
0"
0!
0.
0-
#50815
02
#50825
01
#51516
13
#52500
1"
1.
#53219
11
#53835
10
1/
1#
#54090
00
0/
0#
#54254
03
#55000
0"
1!
0.
1-
#55709
12
#55825
01
#56437
10
1/
1#
#57500
1"
1.
#58219
11
#58914
13
#58966
00
0/
0#
#59378
03
#60000
0"
0!
0.
0-
#60815
02
#60825
01
#61516
13
#62500
1"
1.
#63219
11
#63835
10
1/
1#
#64090
00
0/
0#
#64254
03
#65000
0"
1!
0.
1-
#65709
12
#65825
01
#66437
10
1/
1#
#67500
1"
1.
#68219
11
#68914
13
#68966
00
0/
0#
#69378
03
#70000
0"
0!
0.
0-
#70815
02
#70825
01
#71516
13
#72500
1"
1.
#73219
11
#73835
10
1/
1#
#74090
00
0/
0#
#74254
03
#75000
0"
1!
0.
1-
#75709
12
#75825
01
#76437
10
1/
1#
#77500
1"
1.
#78219
11
#78914
13
#78966
00
0/
0#
#79378
03
#80000
0"
0!
0.
0-
#80815
02
#80825
01
#81516
13
#82500
1"
1.
#83219
11
#83835
10
1/
1#
#84090
00
0/
0#
#84254
03
#85000
0"
1!
0.
1-
#85709
12
#85825
01
#86437
10
1/
1#
#87500
1"
1.
#88219
11
#88914
13
#88966
00
0/
0#
#89378
03
#90000
0"
0!
0.
0-
#90815
02
#90825
01
#91516
13
#92500
1"
1.
#93219
11
#93835
10
1/
1#
#94090
00
0/
0#
#94254
03
#95000
0"
1!
0.
1-
#95709
12
#95825
01
#96437
10
1/
1#
#97500
1"
1.
#98219
11
#98914
13
#98966
00
0/
0#
#99378
03
#100000
0"
0!
0.
0-
#100815
02
#100825
01
#101516
13
#102500
1"
1.
#103219
11
#103835
10
1/
1#
#104090
00
0/
0#
#104254
03
#105000
0"
1!
0.
1-
#105709
12
#105825
01
#106437
10
1/
1#
#107500
1"
1.
#108219
11
#108914
13
#108966
00
0/
0#
#109378
03
#110000
0"
0!
0.
0-
#110815
02
#110825
01
#111516
13
#112500
1"
1.
#113219
11
#113835
10
1/
1#
#114090
00
0/
0#
#114254
03
#115000
0"
1!
0.
1-
#115709
12
#115825
01
#116437
10
1/
1#
#117500
1"
1.
#118219
11
#118914
13
#118966
00
0/
0#
#119378
03
#120000
0"
0!
0.
0-
#120815
02
#120825
01
#121516
13
#122500
1"
1.
#123219
11
#123835
10
1/
1#
#124090
00
0/
0#
#124254
03
#125000
0"
1!
0.
1-
#125709
12
#125825
01
#126437
10
1/
1#
#127500
1"
1.
#128219
11
#128914
13
#128966
00
0/
0#
#129378
03
#130000
0"
0!
0.
0-
#130815
02
#130825
01
#131516
13
#132500
1"
1.
#133219
11
#133835
10
1/
1#
#134090
00
0/
0#
#134254
03
#135000
0"
1!
0.
1-
#135709
12
#135825
01
#136437
10
1/
1#
#137500
1"
1.
#138219
11
#138914
13
#138966
00
0/
0#
#139378
03
#140000
0"
0!
0.
0-
#140815
02
#140825
01
#141516
13
#142500
1"
1.
#143219
11
#143835
10
1/
1#
#144090
00
0/
0#
#144254
03
#145000
0"
1!
0.
1-
#145709
12
#145825
01
#146437
10
1/
1#
#147500
1"
1.
#148219
11
#148914
13
#148966
00
0/
0#
#149378
03
#150000
0"
0!
0.
0-
#150815
02
#150825
01
#151516
13
#152500
1"
1.
#153219
11
#153835
10
1/
1#
#154090
00
0/
0#
#154254
03
#155000
0"
1!
0.
1-
#155709
12
#155825
01
#156437
10
1/
1#
#157500
1"
1.
#158219
11
#158914
13
#158966
00
0/
0#
#159378
03
#160000
0"
0!
0.
0-
#160815
02
#160825
01
#161516
13
#162500
1"
1.
#163219
11
#163835
10
1/
1#
#164090
00
0/
0#
#164254
03
#165000
0"
1!
0.
1-
#165709
12
#165825
01
#166437
10
1/
1#
#167500
1"
1.
#168219
11
#168914
13
#168966
00
0/
0#
#169378
03
#170000
0"
0!
0.
0-
#170815
02
#170825
01
#171516
13
#172500
1"
1.
#173219
11
#173835
10
1/
1#
#174090
00
0/
0#
#174254
03
#175000
0"
1!
0.
1-
#175709
12
#175825
01
#176437
10
1/
1#
#177500
1"
1.
#178219
11
#178914
13
#178966
00
0/
0#
#179378
03
#180000
0"
0!
0.
0-
#180815
02
#180825
01
#181516
13
#182500
1"
1.
#183219
11
#183835
10
1/
1#
#184090
00
0/
0#
#184254
03
#185000
0"
1!
0.
1-
#185709
12
#185825
01
#186437
10
1/
1#
#187500
1"
1.
#188219
11
#188914
13
#188966
00
0/
0#
#189378
03
#190000
0"
0!
0.
0-
#190815
02
#190825
01
#191516
13
#192500
1"
1.
#193219
11
#193835
10
1/
1#
#194090
00
0/
0#
#194254
03
#195000
0"
1!
0.
1-
#195709
12
#195825
01
#196437
10
1/
1#
#197500
1"
1.
#198219
11
#198914
13
#198966
00
0/
0#
#199378
03
#200000
0"
0!
0.
0-
#200815
02
#200825
01
#201516
13
#202500
1"
1.
#203219
11
#203835
10
1/
1#
#204090
00
0/
0#
#204254
03
#205000
0"
1!
0.
1-
#205709
12
#205825
01
#206437
10
1/
1#
#207500
1"
1.
#208219
11
#208914
13
#208966
00
0/
0#
#209378
03
#210000
0"
0!
0.
0-
#210815
02
#210825
01
#211516
13
#212500
1"
1.
#213219
11
#213835
10
1/
1#
#214090
00
0/
0#
#214254
03
#215000
0"
1!
0.
1-
#215709
12
#215825
01
#216437
10
1/
1#
#217500
1"
1.
#218219
11
#218914
13
#218966
00
0/
0#
#219378
03
#220000
0"
0!
0.
0-
#220815
02
#220825
01
#221516
13
#222500
1"
1.
#223219
11
#223835
10
1/
1#
#224090
00
0/
0#
#224254
03
#225000
0"
1!
0.
1-
#225709
12
#225825
01
#226437
10
1/
1#
#227500
1"
1.
#228219
11
#228914
13
#228966
00
0/
0#
#229378
03
#230000
0"
0!
0.
0-
#230815
02
#230825
01
#231516
13
#232500
1"
1.
#233219
11
#233835
10
1/
1#
#234090
00
0/
0#
#234254
03
#235000
0"
1!
0.
1-
#235709
12
#235825
01
#236437
10
1/
1#
#237500
1"
1.
#238219
11
#238914
13
#238966
00
0/
0#
#239378
03
#240000
0"
0!
0.
0-
#240815
02
#240825
01
#241516
13
#242500
1"
1.
#243219
11
#243835
10
1/
1#
#244090
00
0/
0#
#244254
03
#245000
0"
1!
0.
1-
#245709
12
#245825
01
#246437
10
1/
1#
#247500
1"
1.
#248219
11
#248914
13
#248966
00
0/
0#
#249378
03
#250000
0"
0!
0.
0-
#250815
02
#250825
01
#251516
13
#252500
1"
1.
#253219
11
#253835
10
1/
1#
#254090
00
0/
0#
#254254
03
#255000
0"
1!
0.
1-
#255709
12
#255825
01
#256437
10
1/
1#
#257500
1"
1.
#258219
11
#258914
13
#258966
00
0/
0#
#259378
03
#260000
0"
0!
0.
0-
#260815
02
#260825
01
#261516
13
#262500
1"
1.
#263219
11
#263835
10
1/
1#
#264090
00
0/
0#
#264254
03
#265000
0"
1!
0.
1-
#265709
12
#265825
01
#266437
10
1/
1#
#267500
1"
1.
#268219
11
#268914
13
#268966
00
0/
0#
#269378
03
#270000
0"
0!
0.
0-
#270815
02
#270825
01
#271516
13
#272500
1"
1.
#273219
11
#273835
10
1/
1#
#274090
00
0/
0#
#274254
03
#275000
0"
1!
0.
1-
#275709
12
#275825
01
#276437
10
1/
1#
#277500
1"
1.
#278219
11
#278914
13
#278966
00
0/
0#
#279378
03
#280000
0"
0!
0.
0-
#280815
02
#280825
01
#281516
13
#282500
1"
1.
#283219
11
#283835
10
1/
1#
#284090
00
0/
0#
#284254
03
#285000
0"
1!
0.
1-
#285709
12
#285825
01
#286437
10
1/
1#
#287500
1"
1.
#288219
11
#288914
13
#288966
00
0/
0#
#289378
03
#290000
0"
0!
0.
0-
#290815
02
#290825
01
#291516
13
#292500
1"
1.
#293219
11
#293835
10
1/
1#
#294090
00
0/
0#
#294254
03
#295000
0"
1!
0.
1-
#295709
12
#295825
01
#296437
10
1/
1#
#297500
1"
1.
#298219
11
#298914
13
#298966
00
0/
0#
#299378
03
#300000
0"
0!
0.
0-
#300815
02
#300825
01
#301516
13
#302500
1"
1.
#303219
11
#303835
10
1/
1#
#304090
00
0/
0#
#304254
03
#305000
0"
1!
0.
1-
#305709
12
#305825
01
#306437
10
1/
1#
#307500
1"
1.
#308219
11
#308914
13
#308966
00
0/
0#
#309378
03
#310000
0"
0!
0.
0-
#310815
02
#310825
01
#311516
13
#312500
1"
1.
#313219
11
#313835
10
1/
1#
#314090
00
0/
0#
#314254
03
#315000
0"
1!
0.
1-
#315709
12
#315825
01
#316437
10
1/
1#
#317500
1"
1.
#318219
11
#318914
13
#318966
00
0/
0#
#319378
03
#320000
0"
0!
0.
0-
#320815
02
#320825
01
#321516
13
#322500
1"
1.
#323219
11
#323835
10
1/
1#
#324090
00
0/
0#
#324254
03
#325000
0"
1!
0.
1-
#325709
12
#325825
01
#326437
10
1/
1#
#327500
1"
1.
#328219
11
#328914
13
#328966
00
0/
0#
#329378
03
#330000
0"
0!
0.
0-
#330815
02
#330825
01
#331516
13
#332500
1"
1.
#333219
11
#333835
10
1/
1#
#334090
00
0/
0#
#334254
03
#335000
0"
1!
0.
1-
#335709
12
#335825
01
#336437
10
1/
1#
#337500
1"
1.
#338219
11
#338914
13
#338966
00
0/
0#
#339378
03
#340000
0"
0!
0.
0-
#340815
02
#340825
01
#341516
13
#342500
1"
1.
#343219
11
#343835
10
1/
1#
#344090
00
0/
0#
#344254
03
#345000
0"
1!
0.
1-
#345709
12
#345825
01
#346437
10
1/
1#
#347500
1"
1.
#348219
11
#348914
13
#348966
00
0/
0#
#349378
03
#350000
0"
0!
0.
0-
#350815
02
#350825
01
#351516
13
#352500
1"
1.
#353219
11
#353835
10
1/
1#
#354090
00
0/
0#
#354254
03
#355000
0"
1!
0.
1-
#355709
12
#355825
01
#356437
10
1/
1#
#357500
1"
1.
#358219
11
#358914
13
#358966
00
0/
0#
#359378
03
#360000
0"
0!
0.
0-
#360815
02
#360825
01
#361516
13
#362500
1"
1.
#363219
11
#363835
10
1/
1#
#364090
00
0/
0#
#364254
03
#365000
0"
1!
0.
1-
#365709
12
#365825
01
#366437
10
1/
1#
#367500
1"
1.
#368219
11
#368914
13
#368966
00
0/
0#
#369378
03
#370000
0"
0!
0.
0-
#370815
02
#370825
01
#371516
13
#372500
1"
1.
#373219
11
#373835
10
1/
1#
#374090
00
0/
0#
#374254
03
#375000
0"
1!
0.
1-
#375709
12
#375825
01
#376437
10
1/
1#
#377500
1"
1.
#378219
11
#378914
13
#378966
00
0/
0#
#379378
03
#380000
0"
0!
0.
0-
#380815
02
#380825
01
#381516
13
#382500
1"
1.
#383219
11
#383835
10
1/
1#
#384090
00
0/
0#
#384254
03
#385000
0"
1!
0.
1-
#385709
12
#385825
01
#386437
10
1/
1#
#387500
1"
1.
#388219
11
#388914
13
#388966
00
0/
0#
#389378
03
#390000
0"
0!
0.
0-
#390815
02
#390825
01
#391516
13
#392500
1"
1.
#393219
11
#393835
10
1/
1#
#394090
00
0/
0#
#394254
03
#395000
0"
1!
0.
1-
#395709
12
#395825
01
#396437
10
1/
1#
#397500
1"
1.
#398219
11
#398914
13
#398966
00
0/
0#
#399378
03
#400000
0"
0!
0.
0-
#400815
02
#400825
01
#401516
13
#402500
1"
1.
#403219
11
#403835
10
1/
1#
#404090
00
0/
0#
#404254
03
#405000
0"
1!
0.
1-
#405709
12
#405825
01
#406437
10
1/
1#
#407500
1"
1.
#408219
11
#408914
13
#408966
00
0/
0#
#409378
03
#410000
0"
0!
0.
0-
#410815
02
#410825
01
#411516
13
#412500
1"
1.
#413219
11
#413835
10
1/
1#
#414090
00
0/
0#
#414254
03
#415000
0"
1!
0.
1-
#415709
12
#415825
01
#416437
10
1/
1#
#417500
1"
1.
#418219
11
#418914
13
#418966
00
0/
0#
#419378
03
#420000
0"
0!
0.
0-
#420815
02
#420825
01
#421516
13
#422500
1"
1.
#423219
11
#423835
10
1/
1#
#424090
00
0/
0#
#424254
03
#425000
0"
1!
0.
1-
#425709
12
#425825
01
#426437
10
1/
1#
#427500
1"
1.
#428219
11
#428914
13
#428966
00
0/
0#
#429378
03
#430000
0"
0!
0.
0-
#430815
02
#430825
01
#431516
13
#432500
1"
1.
#433219
11
#433835
10
1/
1#
#434090
00
0/
0#
#434254
03
#435000
0"
1!
0.
1-
#435709
12
#435825
01
#436437
10
1/
1#
#437500
1"
1.
#438219
11
#438914
13
#438966
00
0/
0#
#439378
03
#440000
0"
0!
0.
0-
#440815
02
#440825
01
#441516
13
#442500
1"
1.
#443219
11
#443835
10
1/
1#
#444090
00
0/
0#
#444254
03
#445000
0"
1!
0.
1-
#445709
12
#445825
01
#446437
10
1/
1#
#447500
1"
1.
#448219
11
#448914
13
#448966
00
0/
0#
#449378
03
#450000
0"
0!
0.
0-
#450815
02
#450825
01
#451516
13
#452500
1"
1.
#453219
11
#453835
10
1/
1#
#454090
00
0/
0#
#454254
03
#455000
0"
1!
0.
1-
#455709
12
#455825
01
#456437
10
1/
1#
#457500
1"
1.
#458219
11
#458914
13
#458966
00
0/
0#
#459378
03
#460000
0"
0!
0.
0-
#460815
02
#460825
01
#461516
13
#462500
1"
1.
#463219
11
#463835
10
1/
1#
#464090
00
0/
0#
#464254
03
#465000
0"
1!
0.
1-
#465709
12
#465825
01
#466437
10
1/
1#
#467500
1"
1.
#468219
11
#468914
13
#468966
00
0/
0#
#469378
03
#470000
0"
0!
0.
0-
#470815
02
#470825
01
#471516
13
#472500
1"
1.
#473219
11
#473835
10
1/
1#
#474090
00
0/
0#
#474254
03
#475000
0"
1!
0.
1-
#475709
12
#475825
01
#476437
10
1/
1#
#477500
1"
1.
#478219
11
#478914
13
#478966
00
0/
0#
#479378
03
#480000
0"
0!
0.
0-
#480815
02
#480825
01
#481516
13
#482500
1"
1.
#483219
11
#483835
10
1/
1#
#484090
00
0/
0#
#484254
03
#485000
0"
1!
0.
1-
#485709
12
#485825
01
#486437
10
1/
1#
#487500
1"
1.
#488219
11
#488914
13
#488966
00
0/
0#
#489378
03
#490000
0"
0!
0.
0-
#490815
02
#490825
01
#491516
13
#492500
1"
1.
#493219
11
#493835
10
1/
1#
#494090
00
0/
0#
#494254
03
#495000
0"
1!
0.
1-
#495709
12
#495825
01
#496437
10
1/
1#
#497500
1"
1.
#498219
11
#498914
13
#498966
00
0/
0#
#499378
03
#500000
0"
0!
0.
0-
#500815
02
#500825
01
#501516
13
#502500
1"
1.
#503219
11
#503835
10
1/
1#
#504090
00
0/
0#
#504254
03
#505000
0"
1!
0.
1-
#505709
12
#505825
01
#506437
10
1/
1#
#507500
1"
1.
#508219
11
#508914
13
#508966
00
0/
0#
#509378
03
#510000
0"
0!
0.
0-
#510815
02
#510825
01
#511516
13
#512500
1"
1.
#513219
11
#513835
10
1/
1#
#514090
00
0/
0#
#514254
03
#515000
0"
1!
0.
1-
#515709
12
#515825
01
#516437
10
1/
1#
#517500
1"
1.
#518219
11
#518914
13
#518966
00
0/
0#
#519378
03
#520000
0"
0!
0.
0-
#520815
02
#520825
01
#521516
13
#522500
1"
1.
#523219
11
#523835
10
1/
1#
#524090
00
0/
0#
#524254
03
#525000
0"
1!
0.
1-
#525709
12
#525825
01
#526437
10
1/
1#
#527500
1"
1.
#528219
11
#528914
13
#528966
00
0/
0#
#529378
03
#530000
0"
0!
0.
0-
#530815
02
#530825
01
#531516
13
#532500
1"
1.
#533219
11
#533835
10
1/
1#
#534090
00
0/
0#
#534254
03
#535000
0"
1!
0.
1-
#535709
12
#535825
01
#536437
10
1/
1#
#537500
1"
1.
#538219
11
#538914
13
#538966
00
0/
0#
#539378
03
#540000
0"
0!
0.
0-
#540815
02
#540825
01
#541516
13
#542500
1"
1.
#543219
11
#543835
10
1/
1#
#544090
00
0/
0#
#544254
03
#545000
0"
1!
0.
1-
#545709
12
#545825
01
#546437
10
1/
1#
#547500
1"
1.
#548219
11
#548914
13
#548966
00
0/
0#
#549378
03
#550000
0"
0!
0.
0-
#550815
02
#550825
01
#551516
13
#552500
1"
1.
#553219
11
#553835
10
1/
1#
#554090
00
0/
0#
#554254
03
#555000
0"
1!
0.
1-
#555709
12
#555825
01
#556437
10
1/
1#
#557500
1"
1.
#558219
11
#558914
13
#558966
00
0/
0#
#559378
03
#560000
0"
0!
0.
0-
#560815
02
#560825
01
#561516
13
#562500
1"
1.
#563219
11
#563835
10
1/
1#
#564090
00
0/
0#
#564254
03
#565000
0"
1!
0.
1-
#565709
12
#565825
01
#566437
10
1/
1#
#567500
1"
1.
#568219
11
#568914
13
#568966
00
0/
0#
#569378
03
#570000
0"
0!
0.
0-
#570815
02
#570825
01
#571516
13
#572500
1"
1.
#573219
11
#573835
10
1/
1#
#574090
00
0/
0#
#574254
03
#575000
0"
1!
0.
1-
#575709
12
#575825
01
#576437
10
1/
1#
#577500
1"
1.
#578219
11
#578914
13
#578966
00
0/
0#
#579378
03
#580000
0"
0!
0.
0-
#580815
02
#580825
01
#581516
13
#582500
1"
1.
#583219
11
#583835
10
1/
1#
#584090
00
0/
0#
#584254
03
#585000
0"
1!
0.
1-
#585709
12
#585825
01
#586437
10
1/
1#
#587500
1"
1.
#588219
11
#588914
13
#588966
00
0/
0#
#589378
03
#590000
0"
0!
0.
0-
#590815
02
#590825
01
#591516
13
#592500
1"
1.
#593219
11
#593835
10
1/
1#
#594090
00
0/
0#
#594254
03
#595000
0"
1!
0.
1-
#595709
12
#595825
01
#596437
10
1/
1#
#597500
1"
1.
#598219
11
#598914
13
#598966
00
0/
0#
#599378
03
#600000
0"
0!
0.
0-
#600815
02
#600825
01
#601516
13
#602500
1"
1.
#603219
11
#603835
10
1/
1#
#604090
00
0/
0#
#604254
03
#605000
0"
1!
0.
1-
#605709
12
#605825
01
#606437
10
1/
1#
#607500
1"
1.
#608219
11
#608914
13
#608966
00
0/
0#
#609378
03
#610000
0"
0!
0.
0-
#610815
02
#610825
01
#611516
13
#612500
1"
1.
#613219
11
#613835
10
1/
1#
#614090
00
0/
0#
#614254
03
#615000
0"
1!
0.
1-
#615709
12
#615825
01
#616437
10
1/
1#
#617500
1"
1.
#618219
11
#618914
13
#618966
00
0/
0#
#619378
03
#620000
0"
0!
0.
0-
#620815
02
#620825
01
#621516
13
#622500
1"
1.
#623219
11
#623835
10
1/
1#
#624090
00
0/
0#
#624254
03
#625000
0"
1!
0.
1-
#625709
12
#625825
01
#626437
10
1/
1#
#627500
1"
1.
#628219
11
#628914
13
#628966
00
0/
0#
#629378
03
#630000
0"
0!
0.
0-
#630815
02
#630825
01
#631516
13
#632500
1"
1.
#633219
11
#633835
10
1/
1#
#634090
00
0/
0#
#634254
03
#635000
0"
1!
0.
1-
#635709
12
#635825
01
#636437
10
1/
1#
#637500
1"
1.
#638219
11
#638914
13
#638966
00
0/
0#
#639378
03
#640000
0"
0!
0.
0-
#640815
02
#640825
01
#641516
13
#642500
1"
1.
#643219
11
#643835
10
1/
1#
#644090
00
0/
0#
#644254
03
#645000
0"
1!
0.
1-
#645709
12
#645825
01
#646437
10
1/
1#
#647500
1"
1.
#648219
11
#648914
13
#648966
00
0/
0#
#649378
03
#650000
0"
0!
0.
0-
#650815
02
#650825
01
#651516
13
#652500
1"
1.
#653219
11
#653835
10
1/
1#
#654090
00
0/
0#
#654254
03
#655000
0"
1!
0.
1-
#655709
12
#655825
01
#656437
10
1/
1#
#657500
1"
1.
#658219
11
#658914
13
#658966
00
0/
0#
#659378
03
#660000
0"
0!
0.
0-
#660815
02
#660825
01
#661516
13
#662500
1"
1.
#663219
11
#663835
10
1/
1#
#664090
00
0/
0#
#664254
03
#665000
0"
1!
0.
1-
#665709
12
#665825
01
#666437
10
1/
1#
#667500
1"
1.
#668219
11
#668914
13
#668966
00
0/
0#
#669378
03
#670000
0"
0!
0.
0-
#670815
02
#670825
01
#671516
13
#672500
1"
1.
#673219
11
#673835
10
1/
1#
#674090
00
0/
0#
#674254
03
#675000
0"
1!
0.
1-
#675709
12
#675825
01
#676437
10
1/
1#
#677500
1"
1.
#678219
11
#678914
13
#678966
00
0/
0#
#679378
03
#680000
0"
0!
0.
0-
#680815
02
#680825
01
#681516
13
#682500
1"
1.
#683219
11
#683835
10
1/
1#
#684090
00
0/
0#
#684254
03
#685000
0"
1!
0.
1-
#685709
12
#685825
01
#686437
10
1/
1#
#687500
1"
1.
#688219
11
#688914
13
#688966
00
0/
0#
#689378
03
#690000
0"
0!
0.
0-
#690815
02
#690825
01
#691516
13
#692500
1"
1.
#693219
11
#693835
10
1/
1#
#694090
00
0/
0#
#694254
03
#695000
0"
1!
0.
1-
#695709
12
#695825
01
#696437
10
1/
1#
#697500
1"
1.
#698219
11
#698914
13
#698966
00
0/
0#
#699378
03
#700000
0"
0!
0.
0-
#700815
02
#700825
01
#701516
13
#702500
1"
1.
#703219
11
#703835
10
1/
1#
#704090
00
0/
0#
#704254
03
#705000
0"
1!
0.
1-
#705709
12
#705825
01
#706437
10
1/
1#
#707500
1"
1.
#708219
11
#708914
13
#708966
00
0/
0#
#709378
03
#710000
0"
0!
0.
0-
#710815
02
#710825
01
#711516
13
#712500
1"
1.
#713219
11
#713835
10
1/
1#
#714090
00
0/
0#
#714254
03
#715000
0"
1!
0.
1-
#715709
12
#715825
01
#716437
10
1/
1#
#717500
1"
1.
#718219
11
#718914
13
#718966
00
0/
0#
#719378
03
#720000
0"
0!
0.
0-
#720815
02
#720825
01
#721516
13
#722500
1"
1.
#723219
11
#723835
10
1/
1#
#724090
00
0/
0#
#724254
03
#725000
0"
1!
0.
1-
#725709
12
#725825
01
#726437
10
1/
1#
#727500
1"
1.
#728219
11
#728914
13
#728966
00
0/
0#
#729378
03
#730000
0"
0!
0.
0-
#730815
02
#730825
01
#731516
13
#732500
1"
1.
#733219
11
#733835
10
1/
1#
#734090
00
0/
0#
#734254
03
#735000
0"
1!
0.
1-
#735709
12
#735825
01
#736437
10
1/
1#
#737500
1"
1.
#738219
11
#738914
13
#738966
00
0/
0#
#739378
03
#740000
0"
0!
0.
0-
#740815
02
#740825
01
#741516
13
#742500
1"
1.
#743219
11
#743835
10
1/
1#
#744090
00
0/
0#
#744254
03
#745000
0"
1!
0.
1-
#745709
12
#745825
01
#746437
10
1/
1#
#747500
1"
1.
#748219
11
#748914
13
#748966
00
0/
0#
#749378
03
#750000
0"
0!
0.
0-
#750815
02
#750825
01
#751516
13
#752500
1"
1.
#753219
11
#753835
10
1/
1#
#754090
00
0/
0#
#754254
03
#755000
0"
1!
0.
1-
#755709
12
#755825
01
#756437
10
1/
1#
#757500
1"
1.
#758219
11
#758914
13
#758966
00
0/
0#
#759378
03
#760000
0"
0!
0.
0-
#760815
02
#760825
01
#761516
13
#762500
1"
1.
#763219
11
#763835
10
1/
1#
#764090
00
0/
0#
#764254
03
#765000
0"
1!
0.
1-
#765709
12
#765825
01
#766437
10
1/
1#
#767500
1"
1.
#768219
11
#768914
13
#768966
00
0/
0#
#769378
03
#770000
0"
0!
0.
0-
#770815
02
#770825
01
#771516
13
#772500
1"
1.
#773219
11
#773835
10
1/
1#
#774090
00
0/
0#
#774254
03
#775000
0"
1!
0.
1-
#775709
12
#775825
01
#776437
10
1/
1#
#777500
1"
1.
#778219
11
#778914
13
#778966
00
0/
0#
#779378
03
#780000
0"
0!
0.
0-
#780815
02
#780825
01
#781516
13
#782500
1"
1.
#783219
11
#783835
10
1/
1#
#784090
00
0/
0#
#784254
03
#785000
0"
1!
0.
1-
#785709
12
#785825
01
#786437
10
1/
1#
#787500
1"
1.
#788219
11
#788914
13
#788966
00
0/
0#
#789378
03
#790000
0"
0!
0.
0-
#790815
02
#790825
01
#791516
13
#792500
1"
1.
#793219
11
#793835
10
1/
1#
#794090
00
0/
0#
#794254
03
#795000
0"
1!
0.
1-
#795709
12
#795825
01
#796437
10
1/
1#
#797500
1"
1.
#798219
11
#798914
13
#798966
00
0/
0#
#799378
03
#800000
0"
0!
0.
0-
#800815
02
#800825
01
#801516
13
#802500
1"
1.
#803219
11
#803835
10
1/
1#
#804090
00
0/
0#
#804254
03
#805000
0"
1!
0.
1-
#805709
12
#805825
01
#806437
10
1/
1#
#807500
1"
1.
#808219
11
#808914
13
#808966
00
0/
0#
#809378
03
#810000
0"
0!
0.
0-
#810815
02
#810825
01
#811516
13
#812500
1"
1.
#813219
11
#813835
10
1/
1#
#814090
00
0/
0#
#814254
03
#815000
0"
1!
0.
1-
#815709
12
#815825
01
#816437
10
1/
1#
#817500
1"
1.
#818219
11
#818914
13
#818966
00
0/
0#
#819378
03
#820000
0"
0!
0.
0-
#820815
02
#820825
01
#821516
13
#822500
1"
1.
#823219
11
#823835
10
1/
1#
#824090
00
0/
0#
#824254
03
#825000
0"
1!
0.
1-
#825709
12
#825825
01
#826437
10
1/
1#
#827500
1"
1.
#828219
11
#828914
13
#828966
00
0/
0#
#829378
03
#830000
0"
0!
0.
0-
#830815
02
#830825
01
#831516
13
#832500
1"
1.
#833219
11
#833835
10
1/
1#
#834090
00
0/
0#
#834254
03
#835000
0"
1!
0.
1-
#835709
12
#835825
01
#836437
10
1/
1#
#837500
1"
1.
#838219
11
#838914
13
#838966
00
0/
0#
#839378
03
#840000
0"
0!
0.
0-
#840815
02
#840825
01
#841516
13
#842500
1"
1.
#843219
11
#843835
10
1/
1#
#844090
00
0/
0#
#844254
03
#845000
0"
1!
0.
1-
#845709
12
#845825
01
#846437
10
1/
1#
#847500
1"
1.
#848219
11
#848914
13
#848966
00
0/
0#
#849378
03
#850000
0"
0!
0.
0-
#850815
02
#850825
01
#851516
13
#852500
1"
1.
#853219
11
#853835
10
1/
1#
#854090
00
0/
0#
#854254
03
#855000
0"
1!
0.
1-
#855709
12
#855825
01
#856437
10
1/
1#
#857500
1"
1.
#858219
11
#858914
13
#858966
00
0/
0#
#859378
03
#860000
0"
0!
0.
0-
#860815
02
#860825
01
#861516
13
#862500
1"
1.
#863219
11
#863835
10
1/
1#
#864090
00
0/
0#
#864254
03
#865000
0"
1!
0.
1-
#865709
12
#865825
01
#866437
10
1/
1#
#867500
1"
1.
#868219
11
#868914
13
#868966
00
0/
0#
#869378
03
#870000
0"
0!
0.
0-
#870815
02
#870825
01
#871516
13
#872500
1"
1.
#873219
11
#873835
10
1/
1#
#874090
00
0/
0#
#874254
03
#875000
0"
1!
0.
1-
#875709
12
#875825
01
#876437
10
1/
1#
#877500
1"
1.
#878219
11
#878914
13
#878966
00
0/
0#
#879378
03
#880000
0"
0!
0.
0-
#880815
02
#880825
01
#881516
13
#882500
1"
1.
#883219
11
#883835
10
1/
1#
#884090
00
0/
0#
#884254
03
#885000
0"
1!
0.
1-
#885709
12
#885825
01
#886437
10
1/
1#
#887500
1"
1.
#888219
11
#888914
13
#888966
00
0/
0#
#889378
03
#890000
0"
0!
0.
0-
#890815
02
#890825
01
#891516
13
#892500
1"
1.
#893219
11
#893835
10
1/
1#
#894090
00
0/
0#
#894254
03
#895000
0"
1!
0.
1-
#895709
12
#895825
01
#896437
10
1/
1#
#897500
1"
1.
#898219
11
#898914
13
#898966
00
0/
0#
#899378
03
#900000
0"
0!
0.
0-
#900815
02
#900825
01
#901516
13
#902500
1"
1.
#903219
11
#903835
10
1/
1#
#904090
00
0/
0#
#904254
03
