Aula10Exercicio1/simulation/qsim/Subtrator.msim.vcd
$comment
	File created using the following command:
		vcd file Subtrator.msim.vcd -direction
$end
$date
	Tue Sep 10 13:45:45 2019
$end
$version
	ModelSim Version 10.5b
$end
$timescale
	1ps
$end

$scope module subtrator_vhd_vec_tst $end
$var wire 1 ! A1 [0] $end
$var wire 1 " A1 [1] $end
$var wire 1 # A1 [2] $end
$var wire 1 $ A1 [3] $end
$var wire 1 % A2 [0] $end
$var wire 1 & A2 [1] $end
$var wire 1 ' A2 [2] $end
$var wire 1 ( A2 [3] $end
$var wire 1 ) OVERFLOW $end
$var wire 1 * S1 [0] $end
$var wire 1 + S1 [1] $end
$var wire 1 , S1 [2] $end
$var wire 1 - S1 [3] $end
$var wire 1 . TESTE $end

$scope module i1 $end
$var wire 1 / gnd $end
$var wire 1 0 vcc $end
$var wire 1 1 unknown $end
$var wire 1 2 devoe $end
$var wire 1 3 devclrn $end
$var wire 1 4 devpor $end
$var wire 1 5 ww_devoe $end
$var wire 1 6 ww_devclrn $end
$var wire 1 7 ww_devpor $end
$var wire 1 8 ww_A1 [0] $end
$var wire 1 9 ww_A1 [1] $end
$var wire 1 : ww_A1 [2] $end
$var wire 1 ; ww_A1 [3] $end
$var wire 1 < ww_A2 [0] $end
$var wire 1 = ww_A2 [1] $end
$var wire 1 > ww_A2 [2] $end
$var wire 1 ? ww_A2 [3] $end
$var wire 1 @ ww_TESTE $end
$var wire 1 A ww_S1 [0] $end
$var wire 1 B ww_S1 [1] $end
$var wire 1 C ww_S1 [2] $end
$var wire 1 D ww_S1 [3] $end
$var wire 1 E ww_OVERFLOW $end
$var wire 1 F \TESTE~input_o\ $end
$var wire 1 G \S1[3]~output_o\ $end
$var wire 1 H \S1[2]~output_o\ $end
$var wire 1 I \S1[1]~output_o\ $end
$var wire 1 J \S1[0]~output_o\ $end
$var wire 1 K \OVERFLOW~output_o\ $end
$var wire 1 L \A2[3]~input_o\ $end
$var wire 1 M \A1[3]~input_o\ $end
$var wire 1 N \A1[2]~input_o\ $end
$var wire 1 O \A2[2]~input_o\ $end
$var wire 1 P \A1[0]~input_o\ $end
$var wire 1 Q \A2[1]~input_o\ $end
$var wire 1 R \A2[0]~input_o\ $end
$var wire 1 S \A1[1]~input_o\ $end
$var wire 1 T \G2|CARRY_SAIDA~0_combout\ $end
$var wire 1 U \G3|CARRY_SAIDA~0_combout\ $end
$var wire 1 V \G4|G1|S~0_combout\ $end
$var wire 1 W \G3|G1|S~0_combout\ $end
$var wire 1 X \G2|G1|S~0_combout\ $end
$var wire 1 Y \G1|G1|S~0_combout\ $end
$var wire 1 Z \OVERFLOW~0_combout\ $end
$var wire 1 [ \ALT_INV_OVERFLOW~0_combout\ $end
$var wire 1 \ \G2|G1|ALT_INV_S~0_combout\ $end
$var wire 1 ] \G3|G1|ALT_INV_S~0_combout\ $end
$var wire 1 ^ \G4|G1|ALT_INV_S~0_combout\ $end
$upscope $end
$upscope $end
$enddefinitions $end
#0
$dumpvars
0)
x.
0/
10
x1
12
13
14
15
16
17
x@
0E
xF
0G
0H
0I
0J
0K
0L
0M
0N
0O
0P
0Q
0R
0S
1T
1U
1V
1W
1X
0Y
1Z
0[
0\
0]
0^
0!
0"
0#
0$
0%
0&
0'
0(
08
09
0:
0;
0<
0=
0>
0?
0A
0B
0C
0D
0*
0+
0,
0-
$end
#1000
1!
18
1P
1Y
1J
1A
1*
#2000
0!
1"
19
08
0P
1S
0X
0Y
1\
0J
1I
0A
1B
0*
1+
#3000
1!
18
1P
1Y
1J
1A
1*
#4000
0!
0"
1#
1:
09
08
0P
0S
1N
0W
1X
0Y
0\
1]
0J
1H
0I
0A
1C
0B
0*
1,
0+
#5000
1!
18
1P
1Y
1J
1A
1*
#6000
0!
1"
19
08
0P
1S
0X
0Y
1\
0J
1I
0A
1B
0*
1+
#7000
1!
18
1P
1Y
1J
1A
1*
#8000
0!
0"
0#
1$
1;
0:
09
08
0P
0S
0N
1M
0V
1W
1X
0Y
0\
0]
1^
0J
1G
0H
0I
0A
1D
0C
0B
0*
1-
0,
0+
#9000
1!
18
1P
1Y
1J
1A
1*
#10000
0!
1"
19
08
0P
1S
0X
0Y
1\
0J
1I
0A
1B
0*
1+
#11000
1!
18
1P
1Y
1J
1A
1*
#12000
0!
0"
1#
1:
09
08
0P
0S
1N
0W
1X
0Y
0\
1]
0J
1H
0I
0A
1C
0B
0*
1,
0+
#13000
1!
18
1P
1Y
1J
1A
1*
#14000
0!
1"
19
08
0P
1S
0X
0Y
1\
0J
1I
0A
1B
0*
1+
#15000
1!
18
1P
1Y
1J
1A
1*
#16000
0!
0"
0#
0$
1%
0;
0:
09
08
1<
1R
0P
0S
0N
0M
1V
1W
0T
0]
0^
0U
0W
1]
0V
1^
0G
0H
0D
0C
1H
0-
0,
1C
1G
1,
1D
1-
#17000
1!
18
1P
1T
1X
0Y
0\
1U
1W
0]
1V
0J
0^
0I
0A
0B
0*
0H
0+
0C
0G
0,
0D
0-
#18000
0!
1"
19
08
0P
1S
1Y
1J
1A
1*
#19000
1!
18
1P
0X
0Y
1\
0J
1I
0A
1B
0*
1+
#20000
0!
0"
1#
1:
09
08
0P
0S
1N
0W
0T
1Y
1]
1W
0]
1J
1H
1A
1C
1*
0H
1,
0C
0,
#21000
1!
18
1P
1T
1X
0Y
0\
0W
1]
0J
0I
0A
0B
0*
1H
0+
1C
1,
#22000
0!
1"
19
08
0P
1S
1Y
1J
1A
1*
#23000
1!
18
1P
0X
0Y
1\
0J
1I
0A
1B
0*
1+
#24000
0!
0"
0#
1$
1;
0:
09
08
0P
0S
0N
1M
0V
1W
0T
1Y
0]
1^
0U
0W
1]
1V
1J
0^
1G
0H
1A
1D
0C
1*
1H
1-
0,
1C
0G
1,
0D
0-
#25000
1!
18
1P
1T
1X
0Y
0\
1U
1W
0]
0V
0J
1^
0I
0A
0B
0*
0H
0+
0C
1G
0,
1D
1-
#26000
0!
1"
19
08
0P
1S
1Y
1J
1A
1*
#27000
1!
18
1P
0X
0Y
1\
0J
1I
0A
1B
0*
1+
#28000
0!
0"
1#
1:
09
08
0P
0S
1N
0W
0T
1Y
1]
1W
0]
1J
1H
1A
1C
1*
0H
1,
0C
0,
#29000
1!
18
1P
1T
1X
0Y
0\
0W
1]
0J
0I
0A
0B
0*
1H
0+
1C
1,
#30000
0!
1"
19
08
0P
1S
1Y
1J
1A
1*
#31000
1!
18
1P
0X
0Y
1\
0J
1I
0A
1B
0*
1+
#32000
0!
0"
0#
0$
0%
1&
0;
0:
09
08
1=
0<
0R
1Q
0P
0S
0N
0M
1V
1W
0T
0]
0^
0U
0W
1]
0V
1^
0G
0H
0D
0C
1H
0-
0,
1C
1G
1,
1D
1-
#33000
1!
18
1P
1Y
1J
1A
1*
#34000
0!
1"
19
08
0P
1S
1T
1X
0Y
0\
1U
1W
0]
1V
0J
0^
0I
0A
0B
0*
0H
0+
0C
0G
0,
0D
0-
#35000
1!
18
1P
1Y
1J
1A
1*
#36000
0!
0"
1#
1:
09
08
0P
0S
1N
0W
0T
0X
0Y
1\
1]
1W
0]
0J
1H
1I
0A
1C
1B
0*
0H
1,
1+
0C
0,
#37000
1!
18
1P
1Y
1J
1A
1*
#38000
0!
1"
19
08
0P
1S
1T
1X
0Y
0\
0W
1]
0J
0I
0A
0B
0*
1H
0+
1C
1,
#39000
1!
18
1P
1Y
1J
1A
1*
#40000
0!
0"
0#
1$
1;
0:
09
08
0P
0S
0N
1M
0V
1W
0T
0X
0Y
1\
0]
1^
0U
0W
1]
1V
0J
0^
1G
0H
1I
0A
1D
0C
1B
0*
1H
1-
0,
1+
1C
0G
1,
0D
0-
#41000
1!
18
1P
1Y
1J
1A
1*
#42000
0!
1"
19
08
0P
1S
1T
1X
0Y
0\
1U
1W
0]
0V
0J
1^
0I
0A
0B
0*
0H
0+
0C
1G
0,
1D
1-
#43000
1!
18
1P
1Y
1J
1A
1*
#44000
0!
0"
1#
1:
09
08
0P
0S
1N
0W
0T
0X
0Y
1\
1]
1W
0]
0J
1H
1I
0A
1C
1B
0*
0H
1,
1+
0C
0,
#45000
1!
18
1P
1Y
1J
1A
1*
#46000
0!
1"
19
08
0P
1S
1T
1X
0Y
0\
0W
1]
0J
0I
0A
0B
0*
1H
0+
1C
1,
#47000
1!
18
1P
1Y
1J
1A
1*
#48000
0!
0"
0#
0$
1%
0;
0:
09
08
1<
1R
0P
0S
0N
0M
1V
1W
0T
0]
0^
0U
0W
1]
0V
1^
0G
0H
0D
0C
1H
0-
0,
1C
1G
1,
1D
1-
#49000
1!
18
1P
0X
0Y
1\
0J
1I
0A
1B
0*
1+
#50000
0!
1"
19
08
0P
1S
1Y
1J
1A
1*
#51000
1!
18
1P
1T
1X
0Y
0\
1U
1W
0]
1V
0J
0^
0I
0A
0B
0*
0H
0+
0C
0G
0,
0D
0-
#52000
0!
0"
1#
1:
09
08
0P
0S
1N
0W
0T
1Y
1]
1W
0]
1J
1H
1A
1C
1*
0H
1,
0C
0,
#53000
1!
18
1P
0X
0Y
1\
0J
1I
0A
1B
0*
1+
#54000
0!
1"
19
08
0P
1S
1Y
1J
1A
1*
#55000
1!
18
1P
1T
1X
0Y
0\
0W
1]
0J
0I
0A
0B
0*
1H
0+
1C
1,
#56000
0!
0"
0#
1$
1;
0:
09
08
0P
0S
0N
1M
0V
1W
0T
1Y
0]
1^
0U
0W
1]
1V
1J
0^
1G
0H
1A
1D
0C
1*
1H
1-
0,
1C
0G
1,
0D
0-
#57000
1!
18
1P
0X
0Y
1\
0J
1I
0A
1B
0*
1+
#58000
0!
1"
19
08
0P
1S
1Y
1J
1A
1*
#59000
1!
18
1P
1T
1X
0Y
0\
1U
1W
0]
0V
0J
1^
0I
0A
0B
0*
0H
0+
0C
1G
0,
1D
1-
#60000
0!
0"
1#
1:
09
08
0P
0S
1N
0W
0T
1Y
1]
1W
0]
1J
1H
1A
1C
1*
0H
1,
0C
0,
#61000
1!
18
1P
0X
0Y
1\
0J
1I
0A
1B
0*
1+
#62000
0!
1"
19
08
0P
1S
1Y
1J
1A
1*
#63000
1!
18
1P
1T
1X
0Y
0\
0W
1]
0J
0I
0A
0B
0*
1H
0+
1C
1,
#64000
0!
0"
0#
0$
0%
0&
1'
0;
0:
09
08
1>
0=
0<
0R
0Q
1O
0P
0S
0N
0M
1V
0U
0^
0V
1^
0G
0D
1G
0-
1D
1-
#65000
1!
18
1P
1Y
1J
1A
1*
#66000
0!
1"
19
08
0P
1S
0X
0Y
1\
0J
1I
0A
1B
0*
1+
#67000
1!
18
1P
1Y
1J
1A
1*
#68000
0!
0"
1#
1:
09
08
0P
0S
1N
1U
1W
1X
0Y
0\
0]
1V
0^
0J
0H
0I
0A
0C
0B
0*
0G
0,
0+
0D
0-
#69000
1!
18
1P
1Y
1J
1A
1*
#70000
0!
1"
19
08
0P
1S
0X
0Y
1\
0J
1I
0A
1B
0*
1+
#71000
1!
18
1P
1Y
1J
1A
1*
#72000
0!
0"
0#
1$
1;
0:
09
08
0P
0S
0N
1M
0V
0U
0W
1X
0Y
0\
1]
1^
1V
0^
0J
1G
1H
0I
0A
1D
1C
0B
0*
0G
1-
1,
0+
0D
0-
#73000
1!
18
1P
1Y
1J
1A
1*
#74000
0!
1"
19
08
0P
1S
0X
0Y
1\
0J
1I
0A
1B
0*
1+
#75000
1!
18
1P
1Y
1J
1A
1*
#76000
0!
0"
1#
1:
09
08
0P
0S
1N
1U
1W
1X
0Y
0\
0]
0V
1^
0J
0H
0I
0A
0C
0B
0*
1G
0,
0+
1D
1-
#77000
1!
18
1P
1Y
1J
1A
1*
#78000
0!
1"
19
08
0P
1S
0X
0Y
1\
0J
1I
0A
1B
0*
1+
#79000
1!
18
1P
1Y
1J
1A
1*
#80000
0!
0"
0#
0$
1%
0;
0:
09
08
1<
1R
0P
0S
0N
0M
1V
0U
0W
0T
1]
0^
1W
0V
1^
0]
0G
1H
0D
1C
0H
1G
0-
1,
0C
1D
1-
0,
#81000
1!
18
1P
1T
1X
0Y
0\
0W
1]
0J
0I
0A
0B
0*
1H
0+
1C
1,
#82000
0!
1"
19
08
0P
1S
1Y
1J
1A
1*
#83000
1!
18
1P
0X
0Y
1\
0J
1I
0A
1B
0*
1+
#84000
0!
0"
1#
1:
09
08
0P
0S
1N
1U
1W
0T
1Y
0]
0U
0W
1V
0^
1]
0V
1J
1^
0H
1A
0C
1*
1H
0G
0,
1C
0D
1G
0-
1,
1D
1-
#85000
1!
18
1P
1T
1X
0Y
0\
1U
1W
0]
1V
0J
0^
0I
0A
0B
0*
0H
0+
0C
0G
0,
0D
0-
#86000
0!
1"
19
08
0P
1S
1Y
1J
1A
1*
#87000
1!
18
1P
0X
0Y
1\
0J
1I
0A
1B
0*
1+
#88000
0!
0"
0#
1$
1;
0:
09
08
0P
0S
0N
1M
0V
0U
0W
0T
1Y
1]
1^
1W
1V
0^
0]
1J
1G
1H
1A
1D
1C
1*
0H
0G
1-
1,
0C
0D
0-
0,
#89000
1!
18
1P
1T
1X
0Y
0\
0W
1]
0J
0I
0A
0B
0*
1H
0+
1C
1,
#90000
0!
1"
19
08
0P
1S
1Y
1J
1A
1*
#91000
1!
18
1P
0X
0Y
1\
0J
1I
0A
1B
0*
1+
#92000
0!
0"
1#
1:
09
08
0P
0S
1N
1U
1W
0T
1Y
0]
0U
0W
0V
1^
1]
1V
1J
0^
0H
1A
0C
1*
1H
1G
0,
1C
1D
0G
1-
1,
0D
0-
#93000
1!
18
1P
1T
1X
0Y
0\
1U
1W
0]
0V
0J
1^
0I
0A
0B
0*
0H
0+
0C
1G
0,
1D
1-
#94000
0!
1"
19
08
0P
1S
1Y
1J
1A
1*
#95000
1!
18
1P
0X
0Y
1\
0J
1I
0A
1B
0*
1+
#96000
0!
0"
0#
0$
0%
1&
0;
0:
09
08
1=
0<
0R
1Q
0P
0S
0N
0M
1V
0U
0W
0T
1]
0^
1W
0V
1^
0]
0G
1H
0D
1C
0H
1G
0-
1,
0C
1D
1-
0,
#97000
1!
18
1P
1Y
1J
1A
1*
#98000
0!
1"
19
08
0P
1S
1T
1X
0Y
0\
0W
1]
0J
0I
0A
0B
0*
1H
0+
1C
1,
#99000
1!
18
1P
1Y
1J
1A
1*
#100000
0!
0"
1#
1:
09
08
0P
0S
1N
1U
1W
0T
0X
0Y
1\
0]
0U
0W
1V
0^
1]
0V
0J
1^
0H
1I
0A
0C
1B
0*
1H
0G
0,
1+
1C
0D
1G
0-
1,
1D
1-
#101000
1!
18
1P
1Y
1J
1A
1*
#102000
0!
1"
19
08
0P
1S
1T
1X
0Y
0\
1U
1W
0]
1V
0J
0^
0I
0A
0B
0*
0H
0+
0C
0G
0,
0D
0-
#103000
1!
18
1P
1Y
1J
1A
1*
#104000
0!
0"
0#
1$
1;
0:
09
08
0P
0S
0N
1M
0V
0U
0W
0T
0X
0Y
1\
1]
1^
1W
1V
0^
0]
0J
1G
1H
1I
0A
1D
1C
1B
0*
0H
0G
1-
1,
1+
0C
0D
0-
0,
#105000
1!
18
1P
1Y
1J
1A
1*
#106000
0!
1"
19
08
0P
1S
1T
1X
0Y
0\
0W
1]
0J
0I
0A
0B
0*
1H
0+
1C
1,
#107000
1!
18
1P
1Y
1J
1A
1*
#108000
0!
0"
1#
1:
09
08
0P
0S
1N
1U
1W
0T
0X
0Y
1\
0]
0U
0W
0V
1^
1]
1V
0J
0^
0H
1I
0A
0C
1B
0*
1H
1G
0,
1+
1C
1D
0G
1-
1,
0D
0-
#109000
1!
18
1P
1Y
1J
1A
1*
#110000
0!
1"
19
08
0P
1S
1T
1X
0Y
0\
1U
1W
0]
0V
0J
1^
0I
0A
0B
0*
0H
0+
0C
1G
0,
1D
1-
#111000
1!
18
1P
1Y
1J
1A
1*
#112000
0!
0"
0#
0$
1%
0;
0:
09
08
1<
1R
0P
0S
0N
0M
1V
0U
0W
0T
1]
0^
1W
0V
1^
0]
0G
1H
0D
1C
0H
1G
0-
1,
0C
1D
1-
0,
#113000
1!
18
1P
0X
0Y
1\
0J
1I
0A
1B
0*
1+
#114000
0!
1"
19
08
0P
1S
1Y
1J
1A
1*
#115000
1!
18
1P
1T
1X
0Y
0\
0W
1]
0J
0I
0A
0B
0*
1H
0+
1C
1,
#116000
0!
0"
1#
1:
09
08
0P
0S
1N
1U
1W
0T
1Y
0]
0U
0W
1V
0^
1]
0V
1J
1^
0H
1A
0C
1*
1H
0G
0,
1C
0D
1G
0-
1,
1D
1-
#117000
1!
18
1P
0X
0Y
1\
0J
1I
0A
1B
0*
1+
#118000
0!
1"
19
08
0P
1S
1Y
1J
1A
1*
#119000
1!
18
1P
1T
1X
0Y
0\
1U
1W
0]
1V
0J
0^
0I
0A
0B
0*
0H
0+
0C
0G
0,
0D
0-
#120000
0!
0"
0#
1$
1;
0:
09
08
0P
0S
0N
1M
0V
0U
0W
0T
1Y
1]
1^
1W
1V
0^
0]
1J
1G
1H
1A
1D
1C
1*
0H
0G
1-
1,
0C
0D
0-
0,
#121000
1!
18
1P
0X
0Y
1\
0J
1I
0A
1B
0*
1+
#122000
0!
1"
19
08
0P
1S
1Y
1J
1A
1*
#123000
1!
18
1P
1T
1X
0Y
0\
0W
1]
0J
0I
0A
0B
0*
1H
0+
1C
1,
#124000
0!
0"
1#
1:
09
08
0P
0S
1N
1U
1W
0T
1Y
0]
0U
0W
0V
1^
1]
1V
1J
0^
0H
1A
0C
1*
1H
1G
0,
1C
1D
0G
1-
1,
0D
0-
#125000
1!
18
1P
0X
0Y
1\
0J
1I
0A
1B
0*
1+
#126000
0!
1"
19
08
0P
1S
1Y
1J
1A
1*
#127000
1!
18
1P
1T
1X
0Y
0\
1U
1W
0]
0V
0J
1^
0I
0A
0B
0*
0H
0+
0C
1G
0,
1D
1-
#128000
0!
0"
0#
0$
0%
0&
0'
1(
0;
0:
09
08
1?
0>
0=
0<
0R
0Q
0O
1L
0P
0S
0N
0M
0Z
1[
1K
1E
1)
#129000
1!
18
1P
1Y
1J
1A
1*
#130000
0!
1"
19
08
0P
1S
0X
0Y
1\
0J
1I
0A
1B
0*
1+
#131000
1!
18
1P
1Y
1J
1A
1*
#132000
0!
0"
1#
1:
09
08
0P
0S
1N
0W
1X
0Y
0\
1]
0J
1H
0I
0A
1C
0B
0*
1,
0+
#133000
1!
18
1P
1Y
1J
1A
1*
#134000
0!
1"
19
08
0P
1S
0X
0Y
1\
0J
1I
0A
1B
0*
1+
#135000
1!
18
1P
1Y
1J
1A
1*
#136000
0!
0"
0#
1$
1;
0:
09
08
0P
0S
0N
1M
1V
1Z
1W
1X
0Y
0\
0]
0[
0^
0J
0G
0K
0H
0I
0A
0D
0E
0C
0B
0*
0-
0,
0+
0)
#137000
1!
18
1P
1Y
1J
1A
1*
#138000
0!
1"
19
08
0P
1S
0X
0Y
1\
0J
1I
0A
1B
0*
1+
#139000
1!
18
1P
1Y
1J
1A
1*
#140000
0!
0"
1#
1:
09
08
0P
0S
1N
0W
1X
0Y
0\
1]
0J
1H
0I
0A
1C
0B
0*
1,
0+
#141000
1!
18
1P
1Y
1J
1A
1*
#142000
0!
1"
19
08
0P
1S
0X
0Y
1\
0J
1I
0A
1B
0*
1+
#143000
1!
18
1P
1Y
1J
1A
1*
#144000
0!
0"
0#
0$
1%
0;
0:
09
08
1<
1R
0P
0S
0N
0M
0V
0Z
1W
0T
0]
1[
1^
0U
0W
1]
1V
1Z
0[
0^
1G
1K
0H
1D
1E
0C
1H
1-
0,
1)
1C
0G
0K
1,
0D
0E
0-
0)
#145000
1!
18
1P
1T
1X
0Y
0\
1U
1W
0]
0V
0Z
0J
1[
1^
0I
0A
0B
0*
0H
0+
0C
1G
1K
0,
1D
1E
1-
1)
#146000
0!
1"
19
08
0P
1S
1Y
1J
1A
1*
#147000
1!
18
1P
0X
0Y
1\
0J
1I
0A
1B
0*
1+
#148000
0!
0"
1#
1:
09
08
0P
0S
1N
0W
0T
1Y
1]
1W
0]
1J
1H
1A
1C
1*
0H
1,
0C
0,
#149000
1!
18
1P
1T
1X
0Y
0\
0W
1]
0J
0I
0A
0B
0*
1H
0+
1C
1,
#150000
0!
1"
19
08
0P
1S
1Y
1J
1A
1*
#151000
1!
18
1P
0X
0Y
1\
0J
1I
0A
1B
0*
1+
#152000
0!
0"
0#
1$
1;
0:
09
08
0P
0S
0N
1M
1V
1Z
1W
0T
1Y
0]
0[
0^
0U
0W
1]
0V
1J
1^
0G
0K
0H
1A
0D
0E
0C
1*
1H
0-
0,
0)
1C
1G
1,
1D
1-
#153000
1!
18
1P
1T
1X
0Y
0\
1U
1W
0]
1V
0J
0^
0I
0A
0B
0*
0H
0+
0C
0G
0,
0D
0-
#154000
0!
1"
19
08
0P
1S
1Y
1J
1A
1*
#155000
1!
18
1P
0X
0Y
1\
0J
1I
0A
1B
0*
1+
#156000
0!
0"
1#
1:
09
08
0P
0S
1N
0W
0T
1Y
1]
1W
0]
1J
1H
1A
1C
1*
0H
1,
0C
0,
#157000
1!
18
1P
1T
1X
0Y
0\
0W
1]
0J
0I
0A
0B
0*
1H
0+
1C
1,
#158000
0!
1"
19
08
0P
1S
1Y
1J
1A
1*
#159000
1!
18
1P
0X
0Y
1\
0J
1I
0A
1B
0*
1+
#160000
0!
0"
0#
0$
0%
1&
0;
0:
09
08
1=
0<
0R
1Q
0P
0S
0N
0M
0V
0Z
1W
0T
0]
1[
1^
0U
0W
1]
1V
1Z
0[
0^
1G
1K
0H
1D
1E
0C
1H
1-
0,
1)
1C
0G
0K
1,
0D
0E
0-
0)
#161000
1!
18
1P
1Y
1J
1A
1*
#162000
0!
1"
19
08
0P
1S
1T
1X
0Y
0\
1U
1W
0]
0V
0Z
0J
1[
1^
0I
0A
0B
0*
0H
0+
0C
1G
1K
0,
1D
1E
1-
1)
#163000
1!
18
1P
1Y
1J
1A
1*
#164000
0!
0"
1#
1:
09
08
0P
0S
1N
0W
0T
0X
0Y
1\
1]
1W
0]
0J
1H
1I
0A
1C
1B
0*
0H
1,
1+
0C
0,
#165000
1!
18
1P
1Y
1J
1A
1*
#166000
0!
1"
19
08
0P
1S
1T
1X
0Y
0\
0W
1]
0J
0I
0A
0B
0*
1H
0+
1C
1,
#167000
1!
18
1P
1Y
1J
1A
1*
#168000
0!
0"
0#
1$
1;
0:
09
08
0P
0S
0N
1M
1V
1Z
1W
0T
0X
0Y
1\
0]
0[
0^
0U
0W
1]
0V
0J
1^
0G
0K
0H
1I
0A
0D
0E
0C
1B
0*
1H
0-
0,
1+
0)
1C
1G
1,
1D
1-
#169000
1!
18
1P
1Y
1J
1A
1*
#170000
0!
1"
19
08
0P
1S
1T
1X
0Y
0\
1U
1W
0]
1V
0J
0^
0I
0A
0B
0*
0H
0+
0C
0G
0,
0D
0-
#171000
1!
18
1P
1Y
1J
1A
1*
#172000
0!
0"
1#
1:
09
08
0P
0S
1N
0W
0T
0X
0Y
1\
1]
1W
0]
0J
1H
1I
0A
1C
1B
0*
0H
1,
1+
0C
0,
#173000
1!
18
1P
1Y
1J
1A
1*
#174000
0!
1"
19
08
0P
1S
1T
1X
0Y
0\
0W
1]
0J
0I
0A
0B
0*
1H
0+
1C
1,
#175000
1!
18
1P
1Y
1J
1A
1*
#176000
0!
0"
0#
0$
1%
0;
0:
09
08
1<
1R
0P
0S
0N
0M
0V
0Z
1W
0T
0]
1[
1^
0U
0W
1]
1V
1Z
0[
0^
1G
1K
0H
1D
1E
0C
1H
1-
0,
1)
1C
0G
0K
1,
0D
0E
0-
0)
#177000
1!
18
1P
0X
0Y
1\
0J
1I
0A
1B
0*
1+
#178000
0!
1"
19
08
0P
1S
1Y
1J
1A
1*
#179000
1!
18
1P
1T
1X
0Y
0\
1U
1W
0]
0V
0Z
0J
1[
1^
0I
0A
0B
0*
0H
0+
0C
1G
1K
0,
1D
1E
1-
1)
#180000
0!
0"
1#
1:
09
08
0P
0S
1N
0W
0T
1Y
1]
1W
0]
1J
1H
1A
1C
1*
0H
1,
0C
0,
#181000
1!
18
1P
0X
0Y
1\
0J
1I
0A
1B
0*
1+
#182000
0!
1"
19
08
0P
1S
1Y
1J
1A
1*
#183000
1!
18
1P
1T
1X
0Y
0\
0W
1]
0J
0I
0A
0B
0*
1H
0+
1C
1,
#184000
0!
0"
0#
1$
1;
0:
09
08
0P
0S
0N
1M
1V
1Z
1W
0T
1Y
0]
0[
0^
0U
0W
1]
0V
1J
1^
0G
0K
0H
1A
0D
0E
0C
1*
1H
0-
0,
0)
1C
1G
1,
1D
1-
#185000
1!
18
1P
0X
0Y
1\
0J
1I
0A
1B
0*
1+
#186000
0!
1"
19
08
0P
1S
1Y
1J
1A
1*
#187000
1!
18
1P
1T
1X
0Y
0\
1U
1W
0]
1V
0J
0^
0I
0A
0B
0*
0H
0+
0C
0G
0,
0D
0-
#188000
0!
0"
1#
1:
09
08
0P
0S
1N
0W
0T
1Y
1]
1W
0]
1J
1H
1A
1C
1*
0H
1,
0C
0,
#189000
1!
18
1P
0X
0Y
1\
0J
1I
0A
1B
0*
1+
#190000
0!
1"
19
08
0P
1S
1Y
1J
1A
1*
#191000
1!
18
1P
1T
1X
0Y
0\
0W
1]
0J
0I
0A
0B
0*
1H
0+
1C
1,
#192000
0!
0"
0#
0$
0%
0&
1'
0;
0:
09
08
1>
0=
0<
0R
0Q
1O
0P
0S
0N
0M
0V
0Z
0U
1[
1^
1V
1Z
0[
0^
1G
1K
1D
1E
0G
0K
1-
1)
0D
0E
0-
0)
#193000
1!
18
1P
1Y
1J
1A
1*
#194000
0!
1"
19
08
0P
1S
0X
0Y
1\
0J
1I
0A
1B
0*
1+
#195000
1!
18
1P
1Y
1J
1A
1*
#196000
0!
0"
1#
1:
09
08
0P
0S
1N
1U
1W
1X
0Y
0\
0]
0V
0Z
1[
1^
0J
0H
0I
0A
0C
0B
0*
1G
1K
0,
0+
1D
1E
1-
1)
#197000
1!
18
1P
1Y
1J
1A
1*
#198000
0!
1"
19
08
0P
1S
0X
0Y
1\
0J
1I
0A
1B
0*
1+
#199000
1!
18
1P
1Y
1J
1A
1*
#200000
0!
0"
0#
1$
1;
0:
09
08
0P
0S
0N
1M
1V
1Z
0U
0W
1X
0Y
0\
1]
0[
0^
0V
1^
0J
0G
0K
1H
0I
0A
0D
0E
1C
0B
0*
1G
0-
1,
0+
0)
1D
1-
#201000
1!
18
1P
1Y
1J
1A
1*
#202000
0!
1"
19
08
0P
1S
0X
0Y
1\
0J
1I
0A
1B
0*
1+
#203000
1!
18
1P
1Y
1J
1A
1*
#204000
0!
0"
1#
1:
09
08
0P
0S
1N
1U
1W
1X
0Y
0\
0]
1V
0^
0J
0H
0I
0A
0C
0B
0*
0G
0,
0+
0D
0-
#205000
1!
18
1P
1Y
1J
1A
1*
#206000
0!
1"
19
08
0P
1S
0X
0Y
1\
0J
1I
0A
1B
0*
1+
#207000
1!
18
1P
1Y
1J
1A
1*
#208000
0!
0"
0#
0$
1%
0;
0:
09
08
1<
1R
0P
0S
0N
0M
0V
0Z
0U
0W
0T
1]
1[
1^
1W
1V
1Z
0[
0^
0]
1G
1K
1H
1D
1E
1C
0H
0G
0K
1-
1,
1)
0C
0D
0E
0-
0,
0)
#209000
1!
18
1P
1T
1X
0Y
0\
0W
1]
0J
0I
0A
0B
0*
1H
0+
1C
1,
#210000
0!
1"
19
08
0P
1S
1Y
1J
1A
1*
#211000
1!
18
1P
0X
0Y
1\
0J
1I
0A
1B
0*
1+
#212000
0!
0"
1#
1:
09
08
0P
0S
1N
1U
1W
0T
1Y
0]
0U
0W
0V
0Z
1[
1^
1]
1V
1Z
1J
0[
0^
0H
1A
0C
1*
1H
1G
1K
0,
1C
1D
1E
0G
0K
1-
1,
1)
0D
0E
0-
0)
#213000
1!
18
1P
1T
1X
0Y
0\
1U
1W
0]
0V
0Z
0J
1[
1^
0I
0A
0B
0*
0H
0+
0C
1G
1K
0,
1D
1E
1-
1)
#214000
0!
1"
19
08
0P
1S
1Y
1J
1A
1*
#215000
1!
18
1P
0X
0Y
1\
0J
1I
0A
1B
0*
1+
#216000
0!
0"
0#
1$
1;
0:
09
08
0P
0S
0N
1M
1V
1Z
0U
0W
0T
1Y
1]
0[
0^
1W
0V
1^
0]
1J
0G
0K
1H
1A
0D
0E
1C
1*
0H
1G
0-
1,
0)
0C
1D
1-
0,
#217000
1!
18
1P
1T
1X
0Y
0\
0W
1]
0J
0I
0A
0B
0*
1H
0+
1C
1,
#218000
0!
1"
19
08
0P
1S
1Y
1J
1A
1*
#219000
1!
18
1P
0X
0Y
1\
0J
1I
0A
1B
0*
1+
#220000
0!
0"
1#
1:
09
08
0P
0S
1N
1U
1W
0T
1Y
0]
0U
0W
1V
0^
1]
0V
1J
1^
0H
1A
0C
1*
1H
0G
0,
1C
0D
1G
0-
1,
1D
1-
#221000
1!
18
1P
1T
1X
0Y
0\
1U
1W
0]
1V
0J
0^
0I
0A
0B
0*
0H
0+
0C
0G
0,
0D
0-
#222000
0!
1"
19
08
0P
1S
1Y
1J
1A
1*
#223000
1!
18
1P
0X
0Y
1\
0J
1I
0A
1B
0*
1+
#224000
0!
0"
0#
0$
0%
1&
0;
0:
09
08
1=
0<
0R
1Q
0P
0S
0N
0M
0V
0Z
0U
0W
0T
1]
1[
1^
1W
1V
1Z
0[
0^
0]
1G
1K
1H
1D
1E
1C
0H
0G
0K
1-
1,
1)
0C
0D
0E
0-
0,
0)
#225000
1!
18
1P
1Y
1J
1A
1*
#226000
0!
1"
19
08
0P
1S
1T
1X
0Y
0\
0W
1]
0J
0I
0A
0B
0*
1H
0+
1C
1,
#227000
1!
18
1P
1Y
1J
1A
1*
