Aula4Exercicio2/simulation/qsim/Aula4Exercicio2.msim.vcd
$comment
	File created using the following command:
		vcd file Aula4Exercicio2.msim.vcd -direction
$end
$date
	Thu Aug 22 15:10:32 2019
$end
$version
	ModelSim Version 10.5b
$end
$timescale
	1ps
$end

$scope module aula4exercicio2_vhd_vec_tst $end
$var wire 1 ! A [0] $end
$var wire 1 " A [1] $end
$var wire 1 # A [2] $end
$var wire 1 $ A [3] $end
$var wire 1 % B [0] $end
$var wire 1 & B [1] $end
$var wire 1 ' B [2] $end
$var wire 1 ( B [3] $end
$var wire 1 ) C [7] $end
$var wire 1 * C [6] $end
$var wire 1 + C [5] $end
$var wire 1 , C [4] $end
$var wire 1 - C [3] $end
$var wire 1 . C [2] $end
$var wire 1 / C [1] $end
$var wire 1 0 C [0] $end

$scope module i1 $end
$var wire 1 1 gnd $end
$var wire 1 2 vcc $end
$var wire 1 3 unknown $end
$var wire 1 4 devoe $end
$var wire 1 5 devclrn $end
$var wire 1 6 devpor $end
$var wire 1 7 ww_devoe $end
$var wire 1 8 ww_devclrn $end
$var wire 1 9 ww_devpor $end
$var wire 1 : ww_A [0] $end
$var wire 1 ; ww_A [1] $end
$var wire 1 < ww_A [2] $end
$var wire 1 = ww_A [3] $end
$var wire 1 > ww_B [0] $end
$var wire 1 ? ww_B [1] $end
$var wire 1 @ ww_B [2] $end
$var wire 1 A ww_B [3] $end
$var wire 1 B ww_C [7] $end
$var wire 1 C ww_C [6] $end
$var wire 1 D ww_C [5] $end
$var wire 1 E ww_C [4] $end
$var wire 1 F ww_C [3] $end
$var wire 1 G ww_C [2] $end
$var wire 1 H ww_C [1] $end
$var wire 1 I ww_C [0] $end
$var wire 1 J \C[0]~output_o\ $end
$var wire 1 K \C[1]~output_o\ $end
$var wire 1 L \C[2]~output_o\ $end
$var wire 1 M \C[3]~output_o\ $end
$var wire 1 N \C[4]~output_o\ $end
$var wire 1 O \C[5]~output_o\ $end
$var wire 1 P \C[6]~output_o\ $end
$var wire 1 Q \C[7]~output_o\ $end
$var wire 1 R \B[3]~input_o\ $end
$var wire 1 S \B[2]~input_o\ $end
$var wire 1 T \B[1]~input_o\ $end
$var wire 1 U \B[0]~input_o\ $end
$var wire 1 V \A[0]~input_o\ $end
$var wire 1 W \A[1]~input_o\ $end
$var wire 1 X \A[2]~input_o\ $end
$var wire 1 Y \A[3]~input_o\ $end
$upscope $end
$upscope $end
$enddefinitions $end
#0
$dumpvars
01
12
x3
14
15
16
17
18
19
0J
0K
0L
0M
0N
0O
0P
0Q
0R
0S
0T
0U
0V
0W
0X
0Y
0!
0"
0#
0$
0%
0&
0'
0(
0)
0*
0+
0,
0-
0.
0/
00
0:
0;
0<
0=
0>
0?
0@
0A
0B
0C
0D
0E
0F
0G
0H
0I
$end
#5000
1!
1%
1:
1>
1U
1V
1N
1M
1E
1F
1-
1,
#7500
1"
1&
1;
1?
1T
1W
1O
1L
1D
1G
1.
1+
#10000
0!
0%
1#
1'
1<
0:
1@
0>
0U
1S
0V
1X
1P
0N
1K
0M
1C
0E
1H
0F
1/
0-
0,
1*
#12500
1$
1(
1=
1A
1R
1Y
1Q
1J
1B
1I
10
1)
#15000
1!
1%
0"
0&
0;
1:
0?
1>
1U
0T
1V
0W
0O
1N
0L
1M
0D
1E
0G
1F
0.
1-
1,
0+
#20000
0!
0%
0#
0'
0<
0:
0@
0>
0U
0S
0V
0X
0P
0N
0K
0M
0C
0E
0H
0F
0/
0-
0,
0*
#22500
1"
1&
1;
1?
1T
1W
1O
1L
1D
1G
1.
1+
#25000
1!
1%
0$
0(
0=
1:
0A
1>
1U
0R
1V
0Y
0Q
1N
0J
1M
0B
1E
0I
1F
00
1-
1,
0)
#30000
0!
0%
0"
0&
1#
1'
1<
0;
0:
1@
0?
0>
0U
0T
1S
0V
0W
1X
1P
0O
0N
1K
0L
0M
1C
0D
0E
1H
0G
0F
1/
0.
0-
0,
0+
1*
#35000
1!
1%
1:
1>
1U
1V
1N
1M
1E
1F
1-
1,
#37500
1"
1&
1$
1(
1=
1;
1A
1?
1T
1R
1W
1Y
1Q
1O
1J
1L
1B
1D
1I
1G
10
1.
1+
1)
#40000
0!
0%
0#
0'
0<
0:
0@
0>
0U
0S
0V
0X
0P
0N
0K
0M
0C
0E
0H
0F
0/
0-
0,
0*
#45000
1!
1%
0"
0&
0;
1:
0?
1>
1U
0T
1V
0W
0O
1N
0L
1M
0D
1E
0G
1F
0.
1-
1,
0+
#50000
0!
0%
1#
1'
0$
0(
0=
1<
0:
0A
1@
0>
0U
1S
0R
0V
1X
0Y
0Q
1P
0N
0J
1K
0M
0B
1C
0E
0I
1H
0F
00
1/
0-
0,
1*
0)
#52500
1"
1&
1;
1?
1T
1W
1O
1L
1D
1G
1.
1+
#55000
1!
1%
1:
1>
1U
1V
1N
1M
1E
1F
1-
1,
#60000
0!
0%
0"
0&
0#
0'
0<
0;
0:
0@
0?
0>
0U
0T
0S
0V
0W
0X
0P
0O
0N
0K
0L
0M
0C
0D
0E
0H
0G
0F
0/
0.
0-
0,
0+
0*
#62500
1$
1(
1=
1A
1R
1Y
1Q
1J
1B
1I
10
1)
#65000
1!
1%
1:
1>
1U
1V
1N
1M
1E
1F
1-
1,
#67500
1"
1&
1;
1?
1T
1W
1O
1L
1D
1G
1.
1+
#70000
0!
0%
1#
1'
1<
0:
1@
0>
0U
1S
0V
1X
1P
0N
1K
0M
1C
0E
1H
0F
1/
0-
0,
1*
#75000
1!
1%
0"
0&
0$
0(
0=
0;
1:
0A
0?
1>
1U
0T
0R
1V
0W
0Y
0Q
0O
1N
0J
0L
1M
0B
0D
1E
0I
0G
1F
00
0.
1-
1,
0+
0)
#80000
0!
0%
0#
0'
0<
0:
0@
0>
0U
0S
0V
0X
0P
0N
0K
0M
0C
0E
0H
0F
0/
0-
0,
0*
#82500
1"
1&
1;
1?
1T
1W
1O
1L
1D
1G
1.
1+
#85000
1!
1%
1:
1>
1U
1V
1N
1M
1E
1F
1-
1,
#87500
1$
1(
1=
1A
1R
1Y
1Q
1J
1B
1I
10
1)
#90000
0!
0%
0"
0&
1#
1'
1<
0;
0:
1@
0?
0>
0U
0T
1S
0V
0W
1X
1P
0O
0N
1K
0L
0M
1C
0D
0E
1H
0G
0F
1/
0.
0-
0,
0+
1*
#95000
1!
1%
1:
1>
1U
1V
1N
1M
1E
1F
1-
1,
#97500
1"
1&
1;
1?
1T
1W
1O
1L
1D
1G
1.
1+
#100000
0!
0%
0#
0'
0$
0(
0=
0<
0:
0A
0@
0>
0U
0S
0R
0V
0X
0Y
0Q
0P
0N
0J
0K
0M
0B
0C
0E
0I
0H
0F
00
0/
0-
0,
0*
0)
#105000
1!
1%
0"
0&
0;
1:
0?
1>
1U
0T
1V
0W
0O
1N
0L
1M
0D
1E
0G
1F
0.
1-
1,
0+
#110000
0!
0%
1#
1'
1<
0:
1@
0>
0U
1S
0V
1X
1P
0N
1K
0M
1C
0E
1H
0F
1/
0-
0,
1*
#112500
1"
1&
1$
1(
1=
1;
1A
1?
1T
1R
1W
1Y
1Q
1O
1J
1L
1B
1D
1I
1G
10
1.
1+
1)
#115000
1!
1%
1:
1>
1U
1V
1N
1M
1E
1F
1-
1,
#120000
0!
0%
0"
0&
0#
0'
0<
0;
0:
0@
0?
0>
0U
0T
0S
0V
0W
0X
0P
0O
0N
0K
0L
0M
0C
0D
0E
0H
0G
0F
0/
0.
0-
0,
0+
0*
#125000
1!
1%
0$
0(
0=
1:
0A
1>
1U
0R
1V
0Y
0Q
1N
0J
1M
0B
1E
0I
1F
00
1-
1,
0)
#127500
1"
1&
1;
1?
1T
1W
1O
1L
1D
1G
1.
1+
#130000
0!
0%
1#
1'
1<
0:
1@
0>
0U
1S
0V
1X
1P
0N
1K
0M
1C
0E
1H
0F
1/
0-
0,
1*
#135000
1!
1%
0"
0&
0;
1:
0?
1>
1U
0T
1V
0W
0O
1N
0L
1M
0D
1E
0G
1F
0.
1-
1,
0+
#137500
1$
1(
1=
1A
1R
1Y
1Q
1J
1B
1I
10
1)
#140000
0!
0%
0#
0'
0<
0:
0@
0>
0U
0S
0V
0X
0P
0N
0K
0M
0C
0E
0H
0F
0/
0-
0,
0*
#142500
1"
1&
1;
1?
1T
1W
1O
1L
1D
1G
1.
1+
#145000
1!
1%
1:
1>
1U
1V
1N
1M
1E
1F
1-
1,
#150000
0!
0%
0"
0&
1#
1'
0$
0(
0=
1<
0;
0:
0A
1@
0?
0>
0U
0T
1S
0R
0V
0W
1X
0Y
0Q
1P
0O
0N
0J
1K
0L
0M
0B
1C
0D
0E
0I
1H
0G
0F
00
1/
0.
0-
0,
0+
1*
0)
#155000
1!
1%
1:
1>
1U
1V
1N
1M
1E
1F
1-
1,
#157500
1"
1&
1;
1?
1T
1W
1O
1L
1D
1G
1.
1+
#160000
0!
0%
0#
0'
0<
0:
0@
0>
0U
0S
0V
0X
0P
0N
0K
0M
0C
0E
0H
0F
0/
0-
0,
0*
#162500
1$
1(
1=
1A
1R
1Y
1Q
1J
1B
1I
10
1)
#165000
1!
1%
0"
0&
0;
1:
0?
1>
1U
0T
1V
0W
0O
1N
0L
1M
0D
1E
0G
1F
0.
1-
1,
0+
#170000
0!
0%
1#
1'
1<
0:
1@
0>
0U
1S
0V
1X
1P
0N
1K
0M
1C
0E
1H
0F
1/
0-
0,
1*
#172500
1"
1&
1;
1?
1T
1W
1O
1L
1D
1G
1.
1+
#175000
1!
1%
0$
0(
0=
1:
0A
1>
1U
0R
1V
0Y
0Q
1N
0J
1M
0B
1E
0I
1F
00
1-
1,
0)
#180000
0!
0%
0"
0&
0#
0'
0<
0;
0:
0@
0?
0>
0U
0T
0S
0V
0W
0X
0P
0O
0N
0K
0L
0M
0C
0D
0E
0H
0G
0F
0/
0.
0-
0,
0+
0*
#185000
1!
1%
1:
1>
1U
1V
1N
1M
1E
1F
1-
1,
#187500
1"
1&
1$
1(
1=
1;
1A
1?
1T
1R
1W
1Y
1Q
1O
1J
1L
1B
1D
1I
1G
10
1.
1+
1)
#190000
0!
0%
1#
1'
1<
0:
1@
0>
0U
1S
0V
1X
1P
0N
1K
0M
1C
0E
1H
0F
1/
0-
0,
1*
#195000
1!
1%
0"
0&
0;
1:
0?
1>
1U
0T
1V
0W
0O
1N
0L
1M
0D
1E
0G
1F
0.
1-
1,
0+
#200000
0!
0%
0#
0'
0$
0(
0=
0<
0:
0A
0@
0>
0U
0S
0R
0V
0X
0Y
0Q
0P
0N
0J
0K
0M
0B
0C
0E
0I
0H
0F
00
0/
0-
0,
0*
0)
#202500
1"
1&
1;
1?
1T
1W
1O
1L
1D
1G
1.
1+
#205000
1!
1%
1:
1>
1U
1V
1N
1M
1E
1F
1-
1,
#210000
0!
0%
0"
0&
1#
1'
1<
0;
0:
1@
0?
0>
0U
0T
1S
0V
0W
1X
1P
0O
0N
1K
0L
0M
1C
0D
0E
1H
0G
0F
1/
0.
0-
0,
0+
1*
#212500
1$
1(
1=
1A
1R
1Y
1Q
1J
1B
1I
10
1)
#215000
1!
1%
1:
1>
1U
1V
1N
1M
1E
1F
1-
1,
#217500
1"
1&
1;
1?
1T
1W
1O
1L
1D
1G
1.
1+
#220000
0!
0%
0#
0'
0<
0:
0@
0>
0U
0S
0V
0X
0P
0N
0K
0M
0C
0E
0H
0F
0/
0-
0,
0*
#225000
1!
1%
0"
0&
0$
0(
0=
0;
1:
0A
0?
1>
1U
0T
0R
1V
0W
0Y
0Q
0O
1N
0J
0L
1M
0B
0D
1E
0I
0G
1F
00
0.
1-
1,
0+
0)
#230000
0!
0%
1#
1'
1<
0:
1@
0>
0U
1S
0V
1X
1P
0N
1K
0M
1C
0E
1H
0F
1/
0-
0,
1*
#232500
1"
1&
1;
1?
1T
1W
1O
1L
1D
1G
1.
1+
#235000
1!
1%
1:
1>
1U
1V
1N
1M
1E
1F
1-
1,
#237500
1$
1(
1=
1A
1R
1Y
1Q
1J
1B
1I
10
1)
#240000
0!
0%
0"
0&
0#
0'
0<
0;
0:
0@
0?
0>
0U
0T
0S
0V
0W
0X
0P
0O
0N
0K
0L
0M
0C
0D
0E
0H
0G
0F
0/
0.
0-
0,
0+
0*
#245000
1!
1%
1:
1>
1U
1V
1N
1M
1E
1F
1-
1,
#247500
1"
1&
1;
1?
1T
1W
1O
1L
1D
1G
1.
1+
#250000
0!
0%
1#
1'
0$
0(
0=
1<
0:
0A
1@
0>
0U
1S
0R
0V
1X
0Y
0Q
1P
0N
0J
1K
0M
0B
1C
0E
0I
1H
0F
00
1/
0-
0,
1*
0)
#255000
1!
1%
0"
0&
0;
1:
0?
1>
1U
0T
1V
0W
0O
1N
0L
1M
0D
1E
0G
1F
0.
1-
1,
0+
#260000
0!
0%
0#
0'
0<
0:
0@
0>
0U
0S
0V
0X
0P
0N
0K
0M
0C
0E
0H
0F
0/
0-
0,
0*
#262500
1"
1&
1$
1(
1=
1;
1A
1?
1T
1R
1W
1Y
1Q
1O
1J
1L
1B
1D
1I
1G
10
1.
1+
1)
#265000
1!
1%
1:
1>
1U
1V
1N
1M
1E
1F
1-
1,
#270000
0!
0%
0"
0&
1#
1'
1<
0;
0:
1@
0?
0>
0U
0T
1S
0V
0W
1X
1P
0O
0N
1K
0L
0M
1C
0D
0E
1H
0G
0F
1/
0.
0-
0,
0+
1*
#275000
1!
1%
0$
0(
0=
1:
0A
1>
1U
0R
1V
0Y
0Q
1N
0J
1M
0B
1E
0I
1F
00
1-
1,
0)
#277500
1"
1&
1;
1?
1T
1W
1O
1L
1D
1G
1.
1+
#280000
0!
0%
0#
0'
0<
0:
0@
0>
0U
0S
0V
0X
0P
0N
0K
0M
0C
0E
0H
0F
0/
0-
0,
0*
#285000
1!
1%
0"
0&
0;
1:
0?
1>
1U
0T
1V
0W
0O
1N
0L
1M
0D
1E
0G
1F
0.
1-
1,
0+
#287500
1$
1(
1=
1A
1R
1Y
1Q
1J
1B
1I
10
1)
#290000
0!
0%
1#
1'
1<
0:
1@
0>
0U
1S
0V
1X
1P
0N
1K
0M
1C
0E
1H
0F
1/
0-
0,
1*
#292500
1"
1&
1;
1?
1T
1W
1O
1L
1D
1G
1.
1+
#295000
1!
1%
1:
1>
1U
1V
1N
1M
1E
1F
1-
1,
#300000
0!
0%
0"
0&
0#
0'
0$
0(
0=
0<
0;
0:
0A
0@
0?
0>
0U
0T
0S
0R
0V
0W
0X
0Y
0Q
0P
0O
0N
0J
0K
0L
0M
0B
0C
0D
0E
0I
0H
0G
0F
00
0/
0.
0-
0,
0+
0*
0)
#305000
1!
1%
1:
1>
1U
1V
1N
1M
1E
1F
1-
1,
#307500
1"
1&
1;
1?
1T
1W
1O
1L
1D
1G
1.
1+
#310000
0!
0%
1#
1'
1<
0:
1@
0>
0U
1S
0V
1X
1P
0N
1K
0M
1C
0E
1H
0F
1/
0-
0,
1*
#312500
1$
1(
1=
1A
1R
1Y
1Q
1J
1B
1I
10
1)
#315000
1!
1%
0"
0&
0;
1:
0?
1>
1U
0T
1V
0W
0O
1N
0L
1M
0D
1E
0G
1F
0.
1-
1,
0+
#320000
0!
0%
0#
0'
0<
0:
0@
0>
0U
0S
0V
0X
0P
0N
0K
0M
0C
0E
0H
0F
0/
0-
0,
0*
#322500
1"
1&
1;
1?
1T
1W
1O
1L
1D
1G
1.
1+
#325000
1!
1%
0$
0(
0=
1:
0A
1>
1U
0R
1V
0Y
0Q
1N
0J
1M
0B
1E
0I
1F
00
1-
1,
0)
#330000
0!
0%
0"
0&
1#
1'
1<
0;
0:
1@
0?
0>
0U
0T
1S
0V
0W
1X
1P
0O
0N
1K
0L
0M
1C
0D
0E
1H
0G
0F
1/
0.
0-
0,
0+
1*
#335000
1!
1%
1:
1>
1U
1V
1N
1M
1E
1F
1-
1,
#337500
1"
1&
1$
1(
1=
1;
1A
1?
1T
1R
1W
1Y
1Q
1O
1J
1L
1B
1D
1I
1G
10
1.
1+
1)
#340000
0!
0%
0#
0'
0<
0:
0@
0>
0U
0S
0V
0X
0P
0N
0K
0M
0C
0E
0H
0F
0/
0-
0,
0*
#345000
1!
1%
0"
0&
0;
1:
0?
1>
1U
0T
1V
0W
0O
1N
0L
1M
0D
1E
0G
1F
0.
1-
1,
0+
#350000
0!
0%
1#
1'
0$
0(
0=
1<
0:
0A
1@
0>
0U
1S
0R
0V
1X
0Y
0Q
1P
0N
0J
1K
0M
0B
1C
0E
0I
1H
0F
00
1/
0-
0,
1*
0)
#352500
1"
1&
1;
1?
1T
1W
1O
1L
1D
1G
1.
1+
#355000
1!
1%
1:
1>
1U
1V
1N
1M
1E
1F
1-
1,
#360000
0!
0%
0"
0&
0#
0'
0<
0;
0:
0@
0?
0>
0U
0T
0S
0V
0W
0X
0P
0O
0N
0K
0L
0M
0C
0D
0E
0H
0G
0F
0/
0.
0-
0,
0+
0*
#362500
1$
1(
1=
1A
1R
1Y
1Q
1J
1B
1I
10
1)
#365000
1!
1%
1:
1>
1U
1V
1N
1M
1E
1F
1-
1,
#367500
1"
1&
1;
1?
1T
1W
1O
1L
1D
1G
1.
1+
#370000
0!
0%
1#
1'
1<
0:
1@
0>
0U
1S
0V
1X
1P
0N
1K
0M
1C
0E
1H
0F
1/
0-
0,
1*
#375000
1!
1%
0"
0&
0$
0(
0=
0;
1:
0A
0?
1>
1U
0T
0R
1V
0W
0Y
0Q
0O
1N
0J
0L
1M
0B
0D
1E
0I
0G
1F
00
0.
1-
1,
0+
0)
#380000
0!
0%
0#
0'
0<
0:
0@
0>
0U
0S
0V
0X
0P
0N
0K
0M
0C
0E
0H
0F
0/
0-
0,
0*
#382500
1"
1&
1;
1?
1T
1W
1O
1L
1D
1G
1.
1+
#385000
1!
1%
1:
1>
1U
1V
1N
1M
1E
1F
1-
1,
#387500
1$
1(
1=
1A
1R
1Y
1Q
1J
1B
1I
10
1)
#390000
0!
0%
0"
0&
1#
1'
1<
0;
0:
1@
0?
0>
0U
0T
1S
0V
0W
1X
1P
0O
0N
1K
0L
0M
1C
0D
0E
1H
0G
0F
1/
0.
0-
0,
0+
1*
#395000
1!
1%
1:
1>
1U
1V
1N
1M
1E
1F
1-
1,
#397500
1"
1&
1;
1?
1T
1W
1O
1L
1D
1G
1.
1+
#400000
0!
0%
0#
0'
0$
0(
0=
0<
0:
0A
0@
0>
0U
0S
0R
0V
0X
0Y
0Q
0P
0N
0J
0K
0M
0B
0C
0E
0I
0H
0F
00
0/
0-
0,
0*
0)
#405000
1!
1%
0"
0&
0;
1:
0?
1>
1U
0T
1V
0W
0O
1N
0L
1M
0D
1E
0G
1F
0.
1-
1,
0+
#410000
0!
0%
1#
1'
1<
0:
1@
0>
0U
1S
0V
1X
1P
0N
1K
0M
1C
0E
1H
0F
1/
0-
0,
1*
#412500
1"
1&
1$
1(
1=
1;
1A
1?
1T
1R
1W
1Y
1Q
1O
1J
1L
1B
1D
1I
1G
10
1.
1+
1)
#415000
1!
1%
1:
1>
1U
1V
1N
1M
1E
1F
1-
1,
#420000
0!
0%
0"
0&
0#
0'
0<
0;
0:
0@
0?
0>
0U
0T
0S
0V
0W
0X
0P
0O
0N
0K
0L
0M
0C
0D
0E
0H
0G
0F
0/
0.
0-
0,
0+
0*
#425000
1!
1%
0$
0(
0=
1:
0A
1>
1U
0R
1V
0Y
0Q
1N
0J
1M
0B
1E
0I
1F
00
1-
1,
0)
#427500
1"
1&
1;
1?
1T
1W
1O
1L
1D
1G
1.
1+
#430000
0!
0%
1#
1'
1<
0:
1@
0>
0U
1S
0V
1X
1P
0N
1K
0M
1C
0E
1H
0F
1/
0-
0,
1*
#435000
1!
1%
0"
0&
0;
1:
0?
1>
1U
0T
1V
0W
0O
1N
0L
1M
0D
1E
0G
1F
0.
1-
1,
0+
#437500
1$
1(
1=
1A
1R
1Y
1Q
1J
1B
1I
10
1)
#440000
0!
0%
0#
0'
0<
0:
0@
0>
0U
0S
0V
0X
0P
0N
0K
0M
0C
0E
0H
0F
0/
0-
0,
0*
#442500
1"
1&
1;
1?
1T
1W
1O
1L
1D
1G
1.
1+
#445000
1!
1%
1:
1>
1U
1V
1N
1M
1E
1F
1-
1,
#450000
0!
0%
0"
0&
1#
1'
0$
0(
0=
1<
0;
0:
0A
1@
0?
0>
0U
0T
1S
0R
0V
0W
1X
0Y
0Q
1P
0O
0N
0J
1K
0L
0M
0B
1C
0D
0E
0I
1H
0G
0F
00
1/
0.
0-
0,
0+
1*
0)
#455000
1!
1%
1:
1>
1U
1V
1N
1M
1E
1F
1-
1,
#457500
1"
1&
1;
1?
1T
1W
1O
1L
1D
1G
1.
1+
#460000
0!
0%
0#
0'
0<
0:
0@
0>
0U
0S
0V
0X
0P
0N
0K
0M
0C
0E
0H
0F
0/
0-
0,
0*
#462500
1$
1(
1=
1A
1R
1Y
1Q
1J
1B
1I
10
1)
#465000
1!
1%
0"
0&
0;
1:
0?
1>
1U
0T
1V
0W
0O
1N
0L
1M
0D
1E
0G
1F
0.
1-
1,
0+
#470000
0!
0%
1#
1'
1<
0:
1@
0>
0U
1S
0V
1X
1P
0N
1K
0M
1C
0E
1H
0F
1/
0-
0,
1*
#472500
1"
1&
1;
1?
1T
1W
1O
1L
1D
1G
1.
1+
#475000
1!
1%
0$
0(
0=
1:
0A
1>
1U
0R
1V
0Y
0Q
1N
0J
1M
0B
1E
0I
1F
00
1-
1,
0)
#480000
0!
0%
0"
0&
0#
0'
0<
0;
0:
0@
0?
0>
0U
0T
0S
0V
0W
0X
0P
0O
0N
0K
0L
0M
0C
0D
0E
0H
0G
0F
0/
0.
0-
0,
0+
0*
#485000
1!
1%
1:
1>
1U
1V
1N
1M
1E
1F
1-
1,
#487500
1"
1&
1$
1(
1=
1;
1A
1?
1T
1R
1W
1Y
1Q
1O
1J
1L
1B
1D
1I
1G
10
1.
1+
1)
#490000
0!
0%
1#
1'
1<
0:
1@
0>
0U
1S
0V
1X
1P
0N
1K
0M
1C
0E
1H
0F
1/
0-
0,
1*
#495000
1!
1%
0"
0&
0;
1:
0?
1>
1U
0T
1V
0W
0O
1N
0L
1M
0D
1E
0G
1F
0.
1-
1,
0+
#500000
0!
0%
0#
0'
0$
0(
0=
0<
0:
0A
0@
0>
0U
0S
0R
0V
0X
0Y
0Q
0P
0N
0J
0K
0M
0B
0C
0E
0I
0H
0F
00
0/
0-
0,
0*
0)
#502500
1"
1&
1;
1?
1T
1W
1O
1L
1D
1G
1.
1+
#505000
1!
1%
1:
1>
1U
1V
1N
1M
1E
1F
1-
1,
#510000
0!
0%
0"
0&
1#
1'
1<
0;
0:
1@
0?
0>
0U
0T
1S
0V
0W
1X
1P
0O
0N
1K
0L
0M
1C
0D
0E
1H
0G
0F
1/
0.
0-
0,
0+
1*
#512500
1$
1(
1=
1A
1R
1Y
1Q
1J
1B
1I
10
1)
#515000
1!
1%
1:
1>
1U
1V
1N
1M
1E
1F
1-
1,
#517500
1"
1&
1;
1?
1T
1W
1O
1L
1D
1G
1.
1+
#520000
0!
0%
0#
0'
0<
0:
0@
0>
0U
0S
0V
0X
0P
0N
0K
0M
0C
0E
0H
0F
0/
0-
0,
0*
#525000
1!
1%
0"
0&
0$
0(
0=
0;
1:
0A
0?
1>
1U
0T
0R
1V
0W
0Y
0Q
0O
1N
0J
0L
1M
0B
0D
1E
0I
0G
1F
00
0.
1-
1,
0+
0)
#530000
0!
0%
1#
1'
1<
0:
1@
0>
0U
1S
0V
1X
1P
0N
1K
0M
1C
0E
1H
0F
1/
0-
0,
1*
#532500
1"
1&
1;
1?
1T
1W
1O
1L
1D
1G
1.
1+
#535000
1!
1%
1:
1>
1U
1V
1N
1M
1E
1F
1-
1,
#537500
1$
1(
1=
1A
1R
1Y
1Q
1J
1B
1I
10
1)
#540000
0!
0%
0"
0&
0#
0'
0<
0;
0:
0@
0?
0>
0U
0T
0S
0V
0W
0X
0P
0O
0N
0K
0L
0M
0C
0D
0E
0H
0G
0F
0/
0.
0-
0,
0+
0*
#545000
1!
1%
1:
1>
1U
1V
1N
1M
1E
1F
1-
1,
#547500
1"
1&
1;
1?
1T
1W
1O
1L
1D
1G
1.
1+
#550000
0!
0%
1#
1'
0$
0(
0=
1<
0:
0A
1@
0>
0U
1S
0R
0V
1X
0Y
0Q
1P
0N
0J
1K
0M
0B
1C
0E
0I
1H
0F
00
1/
0-
0,
1*
0)
#555000
1!
1%
0"
0&
0;
1:
0?
1>
1U
0T
1V
0W
0O
1N
0L
1M
0D
1E
0G
1F
0.
1-
1,
0+
#560000
0!
0%
0#
0'
0<
0:
0@
0>
0U
0S
0V
0X
0P
0N
0K
0M
0C
0E
0H
0F
0/
0-
0,
0*
#562500
1"
1&
1$
1(
1=
1;
1A
1?
1T
1R
1W
1Y
1Q
1O
1J
1L
1B
1D
1I
1G
10
1.
1+
1)
#565000
1!
1%
1:
1>
1U
1V
1N
1M
1E
1F
1-
1,
#570000
0!
0%
0"
0&
1#
1'
1<
0;
0:
1@
0?
0>
0U
0T
1S
0V
0W
1X
1P
0O
0N
1K
0L
0M
1C
0D
0E
1H
0G
0F
1/
0.
0-
0,
0+
1*
#575000
1!
1%
0$
0(
0=
1:
0A
1>
1U
0R
1V
0Y
0Q
1N
0J
1M
0B
1E
0I
1F
00
1-
1,
0)
#577500
1"
1&
1;
1?
1T
1W
1O
1L
1D
1G
1.
1+
#580000
0!
0%
0#
0'
0<
0:
0@
0>
0U
0S
0V
0X
0P
0N
0K
0M
0C
0E
0H
0F
0/
0-
0,
0*
#585000
1!
1%
0"
0&
0;
1:
0?
1>
1U
0T
1V
0W
0O
1N
0L
1M
0D
1E
0G
1F
0.
1-
1,
0+
#587500
1$
1(
1=
1A
1R
1Y
1Q
1J
1B
1I
10
1)
#590000
0!
0%
1#
1'
1<
0:
1@
0>
0U
1S
0V
1X
1P
0N
1K
0M
1C
0E
1H
0F
1/
0-
0,
1*
#592500
1"
1&
1;
1?
1T
1W
1O
1L
1D
1G
1.
1+
#595000
1!
1%
1:
1>
1U
1V
1N
1M
1E
1F
1-
1,
#600000
0!
0%
0"
0&
0#
0'
0$
0(
0=
0<
0;
0:
0A
0@
0?
0>
0U
0T
0S
0R
0V
0W
0X
0Y
0Q
0P
0O
0N
0J
0K
0L
0M
0B
0C
0D
0E
0I
0H
0G
0F
00
0/
0.
0-
0,
0+
0*
0)
#605000
1!
1%
1:
1>
1U
1V
1N
1M
1E
1F
1-
1,
#607500
1"
1&
1;
1?
1T
1W
1O
1L
1D
1G
1.
1+
#610000
0!
0%
1#
1'
1<
0:
1@
0>
0U
1S
0V
1X
1P
0N
1K
0M
1C
0E
1H
0F
1/
0-
0,
1*
#612500
1$
1(
1=
1A
1R
1Y
1Q
1J
1B
1I
10
1)
#615000
1!
1%
0"
0&
0;
1:
0?
1>
1U
0T
1V
0W
0O
1N
0L
1M
0D
1E
0G
1F
0.
1-
1,
0+
#620000
0!
0%
0#
0'
0<
0:
0@
0>
0U
0S
0V
0X
0P
0N
0K
0M
0C
0E
0H
0F
0/
0-
0,
0*
#622500
1"
1&
1;
1?
1T
1W
1O
1L
1D
1G
1.
1+
#625000
1!
1%
0$
0(
0=
1:
0A
1>
1U
0R
1V
0Y
0Q
1N
0J
1M
0B
1E
0I
1F
00
1-
1,
0)
#630000
0!
0%
0"
0&
1#
1'
1<
0;
0:
1@
0?
0>
0U
0T
1S
0V
0W
1X
1P
0O
0N
1K
0L
0M
1C
0D
0E
1H
0G
0F
1/
0.
0-
0,
0+
1*
#635000
1!
1%
1:
1>
1U
1V
1N
1M
1E
1F
1-
1,
#637500
1"
1&
1$
1(
1=
1;
1A
1?
1T
1R
1W
1Y
1Q
1O
1J
1L
1B
1D
1I
1G
10
1.
1+
1)
#640000
0!
0%
0#
0'
0<
0:
0@
0>
0U
0S
0V
0X
0P
0N
0K
0M
0C
0E
0H
0F
0/
0-
0,
0*
#645000
1!
1%
0"
0&
0;
1:
0?
1>
1U
0T
1V
0W
0O
1N
0L
1M
0D
1E
0G
1F
0.
1-
1,
0+
#650000
0!
0%
1#
1'
0$
0(
0=
1<
0:
0A
1@
0>
0U
1S
0R
0V
1X
0Y
0Q
1P
0N
0J
1K
0M
0B
1C
0E
0I
1H
0F
00
1/
0-
0,
1*
0)
#652500
1"
1&
1;
1?
1T
1W
1O
1L
1D
1G
1.
1+
#655000
1!
1%
1:
1>
1U
1V
1N
1M
1E
1F
1-
1,
#660000
0!
0%
0"
0&
0#
0'
0<
0;
0:
0@
0?
0>
0U
0T
0S
0V
0W
0X
0P
0O
0N
0K
0L
0M
0C
0D
0E
0H
0G
0F
0/
0.
0-
0,
0+
0*
#662500
1$
1(
1=
1A
1R
1Y
1Q
1J
1B
1I
10
1)
#665000
1!
1%
1:
1>
1U
1V
1N
1M
1E
1F
1-
1,
#667500
1"
1&
1;
1?
1T
1W
1O
1L
1D
1G
1.
1+
#670000
0!
0%
1#
1'
1<
0:
1@
0>
0U
1S
0V
1X
1P
0N
1K
0M
1C
0E
1H
0F
1/
0-
0,
1*
#675000
1!
1%
0"
0&
0$
0(
0=
0;
1:
0A
0?
1>
1U
0T
0R
1V
0W
0Y
0Q
0O
1N
0J
0L
1M
0B
0D
1E
0I
0G
1F
00
0.
1-
1,
0+
0)
#680000
0!
0%
0#
0'
0<
0:
0@
0>
0U
0S
0V
0X
0P
0N
0K
0M
0C
0E
0H
0F
0/
0-
0,
0*
#682500
1"
1&
1;
1?
1T
1W
1O
1L
1D
1G
1.
1+
#685000
1!
1%
1:
1>
1U
1V
1N
1M
1E
1F
1-
1,
#687500
1$
1(
1=
1A
1R
1Y
1Q
1J
1B
1I
10
1)
