Aula4Exercicio2/simulation/qsim/Aula4Exercicio2.msim.vcd
$comment
	File created using the following command:
		vcd file Aula4Exercicio2.msim.vcd -direction
$end
$date
	Fri Aug 23 10:50:04 2019
$end
$version
	ModelSim Version 10.5b
$end
$timescale
	1ps
$end

$scope module aula4exercicio2_vhd_vec_tst $end
$var wire 1 ! A [0] $end
$var wire 1 " A [1] $end
$var wire 1 # A [2] $end
$var wire 1 $ A [3] $end
$var wire 1 % B [0] $end
$var wire 1 & B [1] $end
$var wire 1 ' B [2] $end
$var wire 1 ( B [3] $end
$var wire 1 ) C [7] $end
$var wire 1 * C [6] $end
$var wire 1 + C [5] $end
$var wire 1 , C [4] $end
$var wire 1 - C [3] $end
$var wire 1 . C [2] $end
$var wire 1 / C [1] $end
$var wire 1 0 C [0] $end

$scope module i1 $end
$var wire 1 1 gnd $end
$var wire 1 2 vcc $end
$var wire 1 3 unknown $end
$var wire 1 4 devoe $end
$var wire 1 5 devclrn $end
$var wire 1 6 devpor $end
$var wire 1 7 ww_devoe $end
$var wire 1 8 ww_devclrn $end
$var wire 1 9 ww_devpor $end
$var wire 1 : ww_A [0] $end
$var wire 1 ; ww_A [1] $end
$var wire 1 < ww_A [2] $end
$var wire 1 = ww_A [3] $end
$var wire 1 > ww_B [0] $end
$var wire 1 ? ww_B [1] $end
$var wire 1 @ ww_B [2] $end
$var wire 1 A ww_B [3] $end
$var wire 1 B ww_C [7] $end
$var wire 1 C ww_C [6] $end
$var wire 1 D ww_C [5] $end
$var wire 1 E ww_C [4] $end
$var wire 1 F ww_C [3] $end
$var wire 1 G ww_C [2] $end
$var wire 1 H ww_C [1] $end
$var wire 1 I ww_C [0] $end
$var wire 1 J \C[0]~output_o\ $end
$var wire 1 K \C[1]~output_o\ $end
$var wire 1 L \C[2]~output_o\ $end
$var wire 1 M \C[3]~output_o\ $end
$var wire 1 N \C[4]~output_o\ $end
$var wire 1 O \C[5]~output_o\ $end
$var wire 1 P \C[6]~output_o\ $end
$var wire 1 Q \C[7]~output_o\ $end
$var wire 1 R \B[3]~input_o\ $end
$var wire 1 S \B[2]~input_o\ $end
$var wire 1 T \B[1]~input_o\ $end
$var wire 1 U \B[0]~input_o\ $end
$var wire 1 V \A[0]~input_o\ $end
$var wire 1 W \A[1]~input_o\ $end
$var wire 1 X \A[2]~input_o\ $end
$var wire 1 Y \A[3]~input_o\ $end
$upscope $end
$upscope $end
$enddefinitions $end
#0
$dumpvars
01
12
x3
14
15
16
17
18
19
0J
0K
0L
0M
1N
0O
0P
0Q
0R
0S
0T
0U
1V
0W
0X
0Y
1!
0"
0#
0$
0%
0&
0'
0(
0)
0*
0+
1,
0-
0.
0/
00
1:
0;
0<
0=
0>
0?
0@
0A
0B
0C
0D
1E
0F
0G
0H
0I
$end
#10000
1#
1"
0!
1(
1'
1%
1<
1;
0:
1A
1@
1>
1U
1S
1R
0V
1W
1X
1P
1O
0N
1J
1K
1M
1C
1D
0E
1I
1H
1F
10
1/
1-
0,
1+
1*
#20000
1!
0(
0%
1&
1:
0A
1?
0>
0U
1T
0R
1V
1N
0J
1L
0M
1E
0I
1G
0F
00
1.
0-
1,
#30000
0!
1%
0&
0#
0'
0<
0:
0@
0?
1>
1U
0T
0S
0V
0X
0P
0N
0K
0L
1M
0C
0E
0H
0G
1F
0/
0.
1-
0,
0*
#40000
1!
0%
1#
1'
1<
1:
1@
0>
0U
1S
1V
1X
1P
1N
1K
0M
1C
1E
1H
0F
1/
0-
1,
1*
#50000
0!
1%
0#
0'
1(
0<
0:
1A
0@
1>
1U
0S
1R
0V
0X
0P
0N
1J
0K
1M
0C
0E
1I
0H
1F
10
0/
1-
0,
0*
#60000
0"
1$
1=
0;
0W
1Y
1Q
0O
1B
0D
0+
1)
#70000
0%
1'
1&
1@
1?
0>
0U
1T
1S
1K
1L
0M
1H
1G
0F
1/
1.
0-
#80000
0'
0$
1!
0@
0=
1:
1V
0Y
0S
0K
0Q
1N
0H
0B
1E
0/
1,
0)
#90000
1'
0!
0&
1"
0(
0A
1@
0?
1;
0:
0V
1W
0T
1S
0R
0J
1K
0L
1O
0N
0I
1H
0G
1D
0E
00
1/
0.
0,
1+
#100000
1&
1(
1$
1#
1A
1?
1=
1<
1X
1Y
1T
1R
1J
1L
1Q
1P
1I
1G
1B
1C
10
1.
1*
1)
#110000
0&
1!
0"
0?
0;
1:
1V
0W
0T
0L
0O
1N
0G
0D
1E
0.
1,
0+
#120000
1&
0$
0'
1%
0@
1?
1>
0=
0Y
1U
1T
0S
0K
1L
1M
0Q
0H
1G
1F
0B
0/
1.
1-
0)
#130000
1'
1"
0(
0#
0A
1@
0<
1;
1W
0X
1S
0R
0J
1K
0P
1O
0I
1H
0C
1D
00
1/
1+
0*
#140000
0'
0"
1$
0!
0@
1=
0;
0:
0V
0W
1Y
0S
0K
1Q
0O
0N
0H
1B
0D
0E
0/
0,
0+
1)
#150000
1'
1(
0&
1A
1@
0?
0T
1S
1R
1J
1K
0L
1I
1H
0G
10
1/
0.
#160000
0(
1&
1"
1!
1#
0%
0A
1?
0>
1<
1;
1:
1V
1W
1X
0U
1T
0R
0J
1L
0M
1P
1O
1N
0I
1G
0F
1C
1D
1E
00
1.
0-
1,
1+
1*
#170000
0&
0"
0'
0@
0?
0;
0W
0T
0S
0K
0L
0O
0H
0G
0D
0/
0.
0+
#180000
1'
1(
0!
1%
0$
1A
1@
1>
0=
0:
0V
0Y
1U
1S
1R
1J
1K
1M
0Q
0N
1I
1H
1F
0B
0E
10
1/
1-
0,
0)
#190000
0'
0(
1!
1$
1&
1"
0#
0A
0@
1?
1=
0<
1;
1:
1V
1W
0X
1Y
1T
0S
0R
0J
0K
1L
1Q
0P
1O
1N
0I
0H
1G
1B
0C
1D
1E
00
0/
1.
1,
1+
0*
1)
#200000
1(
0!
0&
0"
1#
0%
1A
0?
0>
1<
0;
0:
0V
0W
1X
0U
0T
1R
1J
0L
0M
1P
0O
0N
1I
0G
0F
1C
0D
0E
10
0.
0-
0,
0+
1*
#210000
1!
0#
1%
1'
0<
1:
1@
1>
1U
1S
1V
0X
0P
1N
1K
1M
0C
1E
1H
1F
1/
1-
1,
0*
#220000
1#
0%
1"
0$
0=
1<
1;
0>
0U
1W
1X
0Y
0Q
1P
1O
0M
0B
1C
1D
0F
0-
1+
1*
0)
#230000
1%
0"
0(
1&
0A
1?
1>
0;
0W
1U
1T
0R
0J
1L
1M
0O
0I
1G
1F
0D
00
1.
1-
0+
#240000
1"
0#
1$
1=
0<
1;
1W
0X
1Y
1Q
0P
1O
1B
0C
1D
1+
0*
1)
#250000
1#
1(
1<
1A
1R
1X
1P
1J
1C
1I
10
1*
#260000
0#
0$
0%
0&
0!
0'
0=
0<
0:
0@
0?
0>
0U
0T
0S
0V
0X
0Y
0Q
0P
0N
0K
0L
0M
0B
0C
0E
0H
0G
0F
0/
0.
0-
0,
0*
0)
#270000
1#
1!
1'
0"
1<
0;
1:
1@
1S
1V
0W
1X
1P
0O
1N
1K
1C
0D
1E
1H
1/
1,
0+
1*
#280000
1"
1;
1W
1O
1D
1+
#290000
0"
0!
0'
1&
0(
0;
0:
0A
0@
1?
1T
0S
0R
0V
0W
0O
0N
0J
0K
1L
0D
0E
0I
0H
1G
00
0/
1.
0,
0+
#300000
1"
1!
1$
1%
1=
1;
1:
1>
1U
1V
1W
1Y
1Q
1O
1N
1M
1B
1D
1E
1F
1-
1,
1+
1)
#310000
0%
1'
0&
0#
1@
0?
0>
0<
0X
0U
0T
1S
1K
0L
0M
0P
1H
0G
0F
0C
1/
0.
0-
0*
#320000
1%
1#
0"
0$
1>
0=
1<
0;
0W
1X
0Y
1U
1M
0Q
1P
0O
1F
0B
1C
0D
1-
0+
1*
0)
#330000
0#
1"
1$
1=
0<
1;
1W
0X
1Y
1Q
0P
1O
1B
0C
1D
1+
0*
1)
#340000
0$
0%
0'
1&
0!
0=
0:
0@
1?
0>
0U
1T
0S
0V
0Y
0Q
0N
0K
1L
0M
0B
0E
0H
1G
0F
0/
1.
0-
0,
0)
#350000
1%
1'
0&
1!
1#
0"
1@
0?
1>
1<
0;
1:
1V
0W
1X
1U
0T
1S
1K
0L
1M
1P
0O
1N
1H
0G
1F
1C
0D
1E
1/
0.
1-
1,
0+
1*
#360000
0'
0#
1"
1$
1(
1A
0@
1=
0<
1;
1W
0X
1Y
0S
1R
1J
0K
1Q
0P
1O
1I
0H
1B
0C
1D
10
0/
1+
0*
1)
#370000
1'
1#
0%
1&
0!
1@
1?
0>
1<
0:
0V
1X
0U
1T
1S
1K
1L
0M
1P
0N
1H
1G
0F
1C
0E
1/
1.
0-
0,
1*
#380000
0#
1%
0&
0"
0$
0=
0<
0;
0?
1>
1U
0T
0W
0X
0Y
0Q
0P
0O
0L
1M
0B
0C
0D
0G
1F
0.
1-
0+
0*
0)
#390000
1#
0%
1$
0'
1!
1=
1<
1:
0@
0>
0U
0S
1V
1X
1Y
1Q
1P
1N
0K
0M
1B
1C
1E
0H
0F
0/
0-
1,
1*
1)
#400000
1%
1'
1&
1"
0(
0A
1@
1?
1>
1;
1W
1U
1T
1S
0R
0J
1K
1L
1M
1O
0I
1H
1G
1F
1D
00
1/
1.
1-
1+
#410000
0'
0&
0$
0@
0?
0=
0Y
0T
0S
0K
0L
0Q
0H
0G
0B
0/
0.
0)
#420000
1'
1&
1$
0%
0"
1(
0!
1A
1@
1?
0>
1=
0;
0:
0V
0W
1Y
0U
1T
1S
1R
1J
1K
1L
0M
1Q
0O
0N
1I
1H
1G
0F
1B
0D
0E
10
1/
1.
0-
0,
0+
1)
#430000
0'
0&
0(
1!
0A
0@
0?
1:
1V
0T
0S
0R
0J
0K
0L
1N
0I
0H
0G
1E
00
0/
0.
1,
#440000
1(
0!
1A
0:
0V
1R
1J
0N
1I
0E
10
0,
#450000
1'
0$
1%
0#
1@
1>
0=
0<
0X
0Y
1U
1S
1K
1M
0Q
0P
1H
1F
0B
0C
1/
1-
0*
0)
#460000
0'
1#
0(
1&
1"
0A
0@
1?
1<
1;
1W
1X
1T
0S
0R
0J
0K
1L
1P
1O
0I
0H
1G
1C
1D
00
0/
1.
1+
1*
#470000
1'
0#
1(
0&
0"
1$
1A
1@
0?
1=
0<
0;
0W
0X
1Y
0T
1S
1R
1J
1K
0L
1Q
0P
0O
1I
1H
0G
1B
0C
0D
10
1/
0.
0+
0*
1)
#480000
0'
1#
0(
1&
1"
0$
1!
0A
0@
1?
0=
1<
1;
1:
1V
1W
1X
0Y
1T
0S
0R
0J
0K
1L
0Q
1P
1O
1N
0I
0H
1G
0B
1C
1D
1E
00
0/
1.
1,
1+
1*
0)
#490000
1'
0&
1$
0%
1@
0?
0>
1=
1Y
0U
0T
1S
1K
0L
0M
1Q
1H
0G
0F
1B
1/
0.
0-
1)
#500000
0'
0"
0!
0@
0;
0:
0V
0W
0S
0K
0O
0N
0H
0D
0E
0/
0,
0+
#510000
1"
0$
1%
1(
0=
1;
1A
1>
1U
1R
1W
0Y
0Q
1O
1J
1M
0B
1D
1I
1F
10
1-
1+
0)
#520000
0"
1&
0#
0<
0;
1?
1T
0W
0X
0P
0O
1L
0C
0D
1G
1.
0+
0*
#530000
1"
1#
1$
0(
1'
1!
1=
1<
1;
1:
0A
1@
1S
0R
1V
1W
1X
1Y
1Q
1P
1O
1N
0J
1K
1B
1C
1D
1E
0I
1H
00
1/
1,
1+
1*
1)
#540000
0"
0#
0'
0!
0&
0%
0<
0;
0:
0@
0?
0>
0U
0T
0S
0V
0W
0X
0P
0O
0N
0K
0L
0M
0C
0D
0E
0H
0G
0F
0/
0.
0-
0,
0+
0*
#550000
1"
1#
1!
1(
1<
1;
1:
1A
1R
1V
1W
1X
1P
1O
1N
1J
1C
1D
1E
1I
10
1,
1+
1*
#560000
0"
0!
0(
1'
1&
1%
0;
0:
0A
1@
1?
1>
1U
1T
1S
0R
0V
0W
0O
0N
0J
1K
1L
1M
0D
0E
0I
1H
1G
1F
00
1/
1.
1-
0,
0+
#570000
1"
1!
0'
0&
0#
0$
0=
0<
1;
1:
0@
0?
0T
0S
1V
1W
0X
0Y
0Q
0P
1O
1N
0K
0L
0B
0C
1D
1E
0H
0G
0/
0.
1,
1+
0*
0)
#580000
0"
1#
1$
1(
0%
1=
1<
0;
1A
0>
0U
1R
0W
1X
1Y
1Q
1P
0O
1J
0M
1B
1C
0D
1I
0F
10
0-
0+
1*
1)
#590000
1"
0#
0$
0!
1'
0=
0<
1;
0:
1@
1S
0V
1W
0X
0Y
0Q
0P
1O
0N
1K
0B
0C
1D
0E
1H
1/
0,
1+
0*
0)
#600000
0"
1$
0(
1%
1=
0;
0A
1>
1U
0R
0W
1Y
1Q
0O
0J
1M
1B
0D
0I
1F
00
1-
0+
1)
#610000
1"
0$
1#
1!
0'
1&
0=
1<
1;
1:
0@
1?
1T
0S
1V
1W
1X
0Y
0Q
1P
1O
1N
0K
1L
0B
1C
1D
1E
0H
1G
0/
1.
1,
1+
1*
0)
#620000
1$
0#
0&
1(
1=
0<
1A
0?
0T
1R
0X
1Y
1Q
0P
1J
0L
1B
0C
1I
0G
10
0.
0*
1)
#630000
1#
1&
0(
0"
0!
1<
0;
0:
0A
1?
1T
0R
0V
0W
1X
1P
0O
0N
0J
1L
1C
0D
0E
0I
1G
00
1.
0,
0+
1*
#640000
0#
1"
1!
1'
0%
0<
1;
1:
1@
0>
0U
1S
1V
1W
0X
0P
1O
1N
1K
0M
0C
1D
1E
1H
0F
1/
0-
1,
1+
0*
#650000
0&
1(
1A
0?
0T
1R
1J
0L
1I
0G
10
0.
#660000
1&
1#
0'
0$
0@
1?
0=
1<
1X
0Y
1T
0S
0K
1L
0Q
1P
0H
1G
0B
1C
0/
1.
1*
0)
#670000
0&
0#
1'
1$
0(
0A
1@
0?
1=
0<
0X
1Y
0T
1S
0R
0J
1K
0L
1Q
0P
0I
1H
0G
1B
0C
00
1/
0.
0*
1)
#680000
1&
1#
0"
0!
1%
1?
1>
1<
0;
0:
0V
0W
1X
1U
1T
1L
1M
1P
0O
0N
1G
1F
1C
0D
0E
1.
1-
0,
0+
1*
#690000
0#
1"
0'
1(
0<
1;
1A
0@
0S
1R
1W
0X
0P
1O
1J
0K
0C
1D
1I
0H
10
0/
1+
0*
#700000
1#
0&
0%
0$
0=
1<
0?
0>
0U
0T
1X
0Y
0Q
1P
0L
0M
0B
1C
0G
0F
0.
0-
1*
0)
#710000
0#
1%
1$
0"
1=
0<
0;
1>
1U
0W
0X
1Y
1Q
0P
0O
1M
1B
0C
0D
1F
1-
0+
0*
1)
#720000
1"
1&
1'
1!
1;
1:
1@
1?
1T
1S
1V
1W
1O
1N
1K
1L
1D
1E
1H
1G
1/
1.
1,
1+
#730000
0&
0'
1#
0@
0?
1<
1X
0T
0S
0K
0L
1P
0H
0G
1C
0/
0.
1*
#740000
1&
0"
0%
0$
0(
0A
1?
0>
0=
0;
0W
0Y
0U
1T
0R
0J
1L
0M
0Q
0O
0I
1G
0F
0B
0D
00
1.
0-
0+
0)
#750000
0&
1"
1%
1(
1'
0#
0!
1A
1@
0?
1>
0<
1;
0:
0V
1W
0X
1U
0T
1S
1R
1J
1K
0L
1M
0P
1O
0N
1I
1H
0G
1F
0C
1D
0E
10
1/
0.
1-
0,
1+
0*
#760000
1&
0"
0%
0'
1#
1$
0@
1?
0>
1=
1<
0;
0W
1X
1Y
0U
1T
0S
0K
1L
0M
1Q
1P
0O
0H
1G
0F
1B
1C
0D
0/
1.
0-
0+
1*
1)
#770000
1'
0#
0(
0A
1@
0<
0X
1S
0R
0J
1K
0P
0I
1H
0C
00
1/
0*
#780000
1#
1(
0&
1"
1%
1<
1;
1A
0?
1>
1U
0T
1R
1W
1X
1P
1O
1J
0L
1M
1C
1D
1I
0G
1F
10
0.
1-
1+
1*
#790000
0#
1&
0"
0<
0;
1?
1T
0W
0X
0P
0O
1L
0C
0D
1G
1.
0+
0*
#800000
0%
0'
0@
0>
0U
0S
0K
0M
0H
0F
0/
0-
#810000
1#
1"
0(
1!
1<
1;
1:
0A
0R
1V
1W
1X
1P
1O
1N
0J
1C
1D
1E
0I
00
1,
1+
1*
#820000
0#
0"
0!
0<
0;
0:
0V
0W
0X
0P
0O
0N
0C
0D
0E
0,
0+
0*
#830000
1#
1!
1(
1%
0$
0=
1<
1:
1A
1>
1U
1R
1V
1X
0Y
0Q
1P
1N
1J
1M
0B
1C
1E
1I
1F
10
1-
1,
1*
0)
#840000
0!
0(
1$
1"
1=
1;
0:
0A
0R
0V
1W
1Y
1Q
1O
0N
0J
1B
1D
0E
0I
00
0,
1+
1)
#850000
1(
0$
0&
1A
0?
0=
0Y
0T
1R
1J
0L
0Q
1I
0G
0B
10
0.
0)
#860000
1!
0#
0%
0<
1:
0>
0U
1V
0X
0P
1N
0M
0C
1E
0F
0-
1,
0*
#870000
0!
1%
0"
1'
0;
0:
1@
1>
1U
1S
0V
0W
0O
0N
1K
1M
0D
0E
1H
1F
1/
1-
0,
0+
#880000
1!
1"
0'
1$
1&
1=
1;
1:
0@
1?
1T
0S
1V
1W
1Y
1Q
1O
1N
0K
1L
1B
1D
1E
0H
1G
0/
1.
1,
1+
1)
#890000
0"
1'
0$
1#
0(
0=
1<
0;
0A
1@
1S
0R
0W
1X
0Y
0Q
1P
0O
0J
1K
0B
1C
0D
0I
1H
00
1/
0+
1*
0)
#900000
0'
1$
0#
1(
0!
0&
1A
0@
0?
1=
0<
0:
0V
0X
1Y
0T
0S
1R
1J
0K
0L
1Q
0P
0N
1I
0H
0G
1B
0C
0E
10
0/
0.
0,
0*
1)
#910000
0$
1#
0(
1&
1"
0=
1<
1;
0A
1?
1T
0R
1W
1X
0Y
0Q
1P
1O
0J
1L
0B
1C
1D
0I
1G
00
1.
1+
1*
0)
#920000
1(
0"
1'
0%
1A
1@
0>
0;
0W
0U
1S
1R
1J
1K
0M
0O
1I
1H
0F
0D
10
1/
0-
0+
#930000
0'
1%
1$
0#
0@
1>
1=
0<
0X
1Y
1U
0S
0K
1M
1Q
0P
0H
1F
1B
0C
0/
1-
0*
1)
#940000
0$
1"
0=
1;
1W
0Y
0Q
1O
0B
1D
1+
0)
#950000
0"
1'
0%
1!
0;
1:
1@
0>
0U
1S
1V
0W
0O
1N
1K
0M
0D
1E
1H
0F
1/
0-
1,
0+
#960000
1"
0'
1%
0!
0&
1;
0:
0@
0?
1>
1U
0T
0S
0V
1W
1O
0N
0K
0L
1M
1D
0E
0H
0G
1F
0/
0.
1-
0,
1+
#970000
0"
1'
1&
0(
0;
0A
1@
1?
1T
1S
0R
0W
0O
0J
1K
1L
0D
0I
1H
1G
00
1/
1.
0+
#980000
1"
1(
0%
1$
1#
1=
1<
1;
1A
0>
0U
1R
1W
1X
1Y
1Q
1P
1O
1J
0M
1B
1C
1D
1I
0F
10
0-
1+
1*
1)
#990000
0(
0'
1!
0A
0@
1:
1V
0S
0R
0J
0K
1N
0I
0H
1E
00
0/
1,
