Aula8Exercicio2/simulation/qsim/MaquinaDeCafe.msim.vcd
$comment
	File created using the following command:
		vcd file MaquinaDeCafe.msim.vcd -direction
$end
$date
	Thu Aug 29 13:44:13 2019
$end
$version
	ModelSim Version 10.5b
$end
$timescale
	1ps
$end

$scope module maquinadecafe_vhd_vec_tst $end
$var wire 1 ! CAFE [7] $end
$var wire 1 " CAFE [6] $end
$var wire 1 # CAFE [5] $end
$var wire 1 $ CAFE [4] $end
$var wire 1 % CAFE [3] $end
$var wire 1 & CAFE [2] $end
$var wire 1 ' CAFE [1] $end
$var wire 1 ( CAFE [0] $end
$var wire 1 ) INPUT [0] $end
$var wire 1 * INPUT [1] $end
$var wire 1 + INPUT [2] $end

$scope module i1 $end
$var wire 1 , gnd $end
$var wire 1 - vcc $end
$var wire 1 . unknown $end
$var wire 1 / devoe $end
$var wire 1 0 devclrn $end
$var wire 1 1 devpor $end
$var wire 1 2 ww_devoe $end
$var wire 1 3 ww_devclrn $end
$var wire 1 4 ww_devpor $end
$var wire 1 5 ww_INPUT [0] $end
$var wire 1 6 ww_INPUT [1] $end
$var wire 1 7 ww_INPUT [2] $end
$var wire 1 8 ww_CAFE [7] $end
$var wire 1 9 ww_CAFE [6] $end
$var wire 1 : ww_CAFE [5] $end
$var wire 1 ; ww_CAFE [4] $end
$var wire 1 < ww_CAFE [3] $end
$var wire 1 = ww_CAFE [2] $end
$var wire 1 > ww_CAFE [1] $end
$var wire 1 ? ww_CAFE [0] $end
$var wire 1 @ \CAFE[0]~output_o\ $end
$var wire 1 A \CAFE[1]~output_o\ $end
$var wire 1 B \CAFE[2]~output_o\ $end
$var wire 1 C \CAFE[3]~output_o\ $end
$var wire 1 D \CAFE[4]~output_o\ $end
$var wire 1 E \CAFE[5]~output_o\ $end
$var wire 1 F \CAFE[6]~output_o\ $end
$var wire 1 G \CAFE[7]~output_o\ $end
$var wire 1 H \INPUT[2]~input_o\ $end
$var wire 1 I \INPUT[1]~input_o\ $end
$var wire 1 J \INPUT[0]~input_o\ $end
$var wire 1 K \CAFE[3]~0_combout\ $end
$var wire 1 L \ALT_INV_CAFE[3]~0_combout\ $end
$upscope $end
$upscope $end
$enddefinitions $end
#0
$dumpvars
0,
1-
x.
1/
10
11
12
13
14
0@
0A
0B
1C
0D
0E
1F
0G
0H
0I
0J
0K
1L
0)
0*
0+
05
06
07
08
19
0:
0;
1<
0=
0>
0?
0!
1"
0#
0$
1%
0&
0'
0(
$end
#10000
1)
15
1J
1K
0L
1B
1=
1&
0C
0<
0%
#20000
0)
1*
16
05
0J
1I
1A
0B
1>
0=
1'
0&
#30000
1)
15
1J
1B
1=
1&
#40000
0)
0*
1+
17
06
05
0J
0I
1H
1@
0A
0B
1?
0>
0=
1(
0'
0&
#50000
1)
15
1J
1B
1=
1&
#60000
0)
1*
16
05
0J
1I
1A
0B
1>
0=
1'
0&
#70000
1)
15
1J
1B
1=
1&
#80000
0)
0*
0+
07
06
05
0J
0I
0H
0K
1L
0@
0A
0B
0?
0>
0=
0(
0'
0&
1C
1<
1%
#90000
1)
15
1J
1K
0L
1B
1=
1&
0C
0<
0%
#100000
0)
1*
16
05
0J
1I
1A
0B
1>
0=
1'
0&
#110000
1)
15
1J
1B
1=
1&
#120000
0)
0*
1+
17
06
05
0J
0I
1H
1@
0A
0B
1?
0>
0=
1(
0'
0&
#130000
1)
15
1J
1B
1=
1&
#140000
0)
1*
16
05
0J
1I
1A
0B
1>
0=
1'
0&
#150000
1)
15
1J
1B
1=
1&
#160000
0)
0*
0+
07
06
05
0J
0I
0H
0K
1L
0@
0A
0B
0?
0>
0=
0(
0'
0&
1C
1<
1%
#170000
1)
15
1J
1K
0L
1B
1=
1&
0C
0<
0%
#180000
0)
1*
16
05
0J
1I
1A
0B
1>
0=
1'
0&
#190000
1)
15
1J
1B
1=
1&
#200000
0)
0*
1+
17
06
05
0J
0I
1H
1@
0A
0B
1?
0>
0=
1(
0'
0&
#210000
1)
15
1J
1B
1=
1&
#220000
0)
1*
16
05
0J
1I
1A
0B
1>
0=
1'
0&
#230000
1)
15
1J
1B
1=
1&
#240000
0)
0*
0+
07
06
05
0J
0I
0H
0K
1L
0@
0A
0B
0?
0>
0=
0(
0'
0&
1C
1<
1%
#250000
1)
15
1J
1K
0L
1B
1=
1&
0C
0<
0%
#260000
0)
1*
16
05
0J
1I
1A
0B
1>
0=
1'
0&
#270000
1)
15
1J
1B
1=
1&
#280000
0)
0*
1+
17
06
05
0J
0I
1H
1@
0A
0B
1?
0>
0=
1(
0'
0&
#290000
1)
15
1J
1B
1=
1&
#300000
0)
1*
16
05
0J
1I
1A
0B
1>
0=
1'
0&
#310000
1)
15
1J
1B
1=
1&
#320000
0)
0*
0+
07
06
05
0J
0I
0H
0K
1L
0@
0A
0B
0?
0>
0=
0(
0'
0&
1C
1<
1%
#330000
1)
15
1J
1K
0L
1B
1=
1&
0C
0<
0%
#340000
0)
1*
16
05
0J
1I
1A
0B
1>
0=
1'
0&
#350000
1)
15
1J
1B
1=
1&
#360000
0)
0*
1+
17
06
05
0J
0I
1H
1@
0A
0B
1?
0>
0=
1(
0'
0&
#370000
1)
15
1J
1B
1=
1&
#380000
0)
1*
16
05
0J
1I
1A
0B
1>
0=
1'
0&
#390000
1)
15
1J
1B
1=
1&
#400000
0)
0*
0+
07
06
05
0J
0I
0H
0K
1L
0@
0A
0B
0?
0>
0=
0(
0'
0&
1C
1<
1%
#410000
1)
15
1J
1K
0L
1B
1=
1&
0C
0<
0%
#420000
0)
1*
16
05
0J
1I
1A
0B
1>
0=
1'
0&
#430000
1)
15
1J
1B
1=
1&
#440000
0)
0*
1+
17
06
05
0J
0I
1H
1@
0A
0B
1?
0>
0=
1(
0'
0&
#450000
1)
15
1J
1B
1=
1&
#460000
0)
1*
16
05
0J
1I
1A
0B
1>
0=
1'
0&
#470000
1)
15
1J
1B
1=
1&
#480000
0)
0*
0+
07
06
05
0J
0I
0H
0K
1L
0@
0A
0B
0?
0>
0=
0(
0'
0&
1C
1<
1%
#490000
1)
15
1J
1K
0L
1B
1=
1&
0C
0<
0%
#500000
0)
1*
16
05
0J
1I
1A
0B
1>
0=
1'
0&
#510000
1)
15
1J
1B
1=
1&
#520000
0)
0*
1+
17
06
05
0J
0I
1H
1@
0A
0B
1?
0>
0=
1(
0'
0&
#530000
1)
15
1J
1B
1=
1&
#540000
0)
1*
16
05
0J
1I
1A
0B
1>
0=
1'
0&
#550000
1)
15
1J
1B
1=
1&
#560000
0)
0*
0+
07
06
05
0J
0I
0H
0K
1L
0@
0A
0B
0?
0>
0=
0(
0'
0&
1C
1<
1%
#570000
1)
15
1J
1K
0L
1B
1=
1&
0C
0<
0%
#580000
0)
1*
16
05
0J
1I
1A
0B
1>
0=
1'
0&
#590000
1)
15
1J
1B
1=
1&
#600000
0)
0*
1+
17
06
05
0J
0I
1H
1@
0A
0B
1?
0>
0=
1(
0'
0&
#610000
1)
15
1J
1B
1=
1&
#620000
0)
1*
16
05
0J
1I
1A
0B
1>
0=
1'
0&
#630000
1)
15
1J
1B
1=
1&
#640000
0)
0*
0+
07
06
05
0J
0I
0H
0K
1L
0@
0A
0B
0?
0>
0=
0(
0'
0&
1C
1<
1%
#650000
1)
15
1J
1K
0L
1B
1=
1&
0C
0<
0%
#660000
0)
1*
16
05
0J
1I
1A
0B
1>
0=
1'
0&
#670000
1)
15
1J
1B
1=
1&
#680000
0)
0*
1+
17
06
05
0J
0I
1H
1@
0A
0B
1?
0>
0=
1(
0'
0&
#690000
1)
15
1J
1B
1=
1&
#700000
0)
1*
16
05
0J
1I
1A
0B
1>
0=
1'
0&
#710000
1)
15
1J
1B
1=
1&
#720000
0)
0*
0+
07
06
05
0J
0I
0H
0K
1L
0@
0A
0B
0?
0>
0=
0(
0'
0&
1C
1<
1%
#730000
1)
15
1J
1K
0L
1B
1=
1&
0C
0<
0%
#740000
0)
1*
16
05
0J
1I
1A
0B
1>
0=
1'
0&
#750000
1)
15
1J
1B
1=
1&
#760000
0)
0*
1+
17
06
05
0J
0I
1H
1@
0A
0B
1?
0>
0=
1(
0'
0&
#770000
1)
15
1J
1B
1=
1&
#780000
0)
1*
16
05
0J
1I
1A
0B
1>
0=
1'
0&
#790000
1)
15
1J
1B
1=
1&
#800000
0)
0*
0+
07
06
05
0J
0I
0H
0K
1L
0@
0A
0B
0?
0>
0=
0(
0'
0&
1C
1<
1%
#810000
1)
15
1J
1K
0L
1B
1=
1&
0C
0<
0%
#820000
0)
1*
16
05
0J
1I
1A
0B
1>
0=
1'
0&
#830000
1)
15
1J
1B
1=
1&
#840000
0)
0*
1+
17
06
05
0J
0I
1H
1@
0A
0B
1?
0>
0=
1(
0'
0&
#850000
1)
15
1J
1B
1=
1&
#860000
0)
1*
16
05
0J
1I
1A
0B
1>
0=
1'
0&
#870000
1)
15
1J
1B
1=
1&
#880000
0)
0*
0+
07
06
05
0J
0I
0H
0K
1L
0@
0A
0B
0?
0>
0=
0(
0'
0&
1C
1<
1%
#890000
1)
15
1J
1K
0L
1B
1=
1&
0C
0<
0%
#900000
0)
1*
16
05
0J
1I
1A
0B
1>
0=
1'
0&
#910000
1)
15
1J
1B
1=
1&
#920000
0)
0*
1+
17
06
05
0J
0I
1H
1@
0A
0B
1?
0>
0=
1(
0'
0&
#930000
1)
15
1J
1B
1=
1&
#940000
0)
1*
16
05
0J
1I
1A
0B
1>
0=
1'
0&
#950000
1)
15
1J
1B
1=
1&
#960000
0)
0*
0+
07
06
05
0J
0I
0H
0K
1L
0@
0A
0B
0?
0>
0=
0(
0'
0&
1C
1<
1%
#970000
1)
15
1J
1K
0L
1B
1=
1&
0C
0<
0%
#980000
0)
1*
16
05
0J
1I
1A
0B
1>
0=
1'
0&
#990000
1)
15
1J
1B
1=
1&
