Aula6Exercicio3/Estrutural/simulation/qsim/circuito.msim.vcd
$comment
	File created using the following command:
		vcd file circuito.msim.vcd -direction
$end
$date
	Fri Aug 23 15:20:14 2019
$end
$version
	ModelSim Version 10.5b
$end
$timescale
	1ps
$end

$scope module circuito_vhd_vec_tst $end
$var wire 1 ! a $end
$var wire 1 " b $end
$var wire 1 # c $end
$var wire 1 $ d $end
$var wire 1 % x $end

$scope module i1 $end
$var wire 1 & gnd $end
$var wire 1 ' vcc $end
$var wire 1 ( unknown $end
$var wire 1 ) devoe $end
$var wire 1 * devclrn $end
$var wire 1 + devpor $end
$var wire 1 , ww_devoe $end
$var wire 1 - ww_devclrn $end
$var wire 1 . ww_devpor $end
$var wire 1 / ww_a $end
$var wire 1 0 ww_b $end
$var wire 1 1 ww_c $end
$var wire 1 2 ww_d $end
$var wire 1 3 ww_x $end
$var wire 1 4 \d~input_o\ $end
$var wire 1 5 \x~output_o\ $end
$var wire 1 6 \c~input_o\ $end
$var wire 1 7 \a~input_o\ $end
$var wire 1 8 \b~input_o\ $end
$var wire 1 9 \G10|x~0_combout\ $end
$upscope $end
$upscope $end
$enddefinitions $end
#0
$dumpvars
1!
0"
1#
1$
1%
0&
1'
x(
1)
1*
1+
1,
1-
1.
1/
00
11
12
13
14
15
16
17
08
19
$end
#5000
0!
0#
0$
0/
01
02
04
06
07
#10000
1!
1$
1/
12
14
17
#15000
0!
0/
07
#20000
1!
1"
1/
10
18
17
#25000
0!
0/
07
#30000
1!
0"
0$
1#
1/
00
02
11
16
04
08
17
#35000
0!
1"
0#
0/
10
01
06
18
07
#40000
1!
1#
1$
1/
11
12
14
16
17
#45000
0#
0$
0"
01
02
00
08
04
06
#50000
1$
1"
12
10
18
14
#60000
0$
0"
1#
02
00
11
16
08
04
#65000
1$
1"
12
10
18
14
#70000
0$
0"
0#
02
00
01
06
08
04
#75000
1$
1"
0!
12
10
0/
07
18
14
#80000
0$
0"
1!
1#
02
00
1/
11
16
17
08
04
#85000
1$
0!
0#
12
0/
01
06
07
14
#90000
0$
02
04
#95000
1#
11
16
#100000
1$
12
14
#105000
0$
1!
1"
02
1/
10
18
17
04
#110000
1$
0!
0#
12
0/
01
06
07
14
#115000
0$
02
04
#120000
1#
0"
11
00
08
16
#130000
0#
1"
01
10
18
06
#135000
0"
1!
00
1/
17
08
#140000
1"
0!
10
0/
07
18
#145000
1!
1#
1/
11
16
17
#155000
0!
0#
0"
1$
0/
01
00
12
14
08
06
07
#160000
1!
1"
1/
10
18
17
#165000
1#
11
16
#170000
0#
01
06
#175000
0"
00
08
#180000
1#
11
16
#185000
0#
0!
01
0/
07
06
#190000
1#
1"
11
10
18
16
09
05
03
0%
#195000
0"
00
08
19
15
13
1%
#200000
1"
0#
1!
10
01
1/
17
06
18
#205000
0!
0/
07
#210000
1!
0"
1#
1/
00
11
16
08
17
#215000
0!
1"
0$
0/
10
02
04
18
07
09
05
03
0%
#220000
0"
1$
0#
00
12
01
06
14
08
19
15
13
1%
#225000
0$
1!
02
1/
17
04
#230000
0!
1"
1#
0/
10
11
16
18
07
09
05
03
0%
#235000
1!
0#
1$
1/
01
12
14
06
17
19
15
13
1%
#240000
1#
11
16
#245000
0!
0"
0/
00
08
07
#250000
1!
1/
17
#255000
0!
1"
0$
0/
10
02
04
18
07
09
05
03
0%
#260000
0"
1$
00
12
14
08
19
15
13
1%
#265000
1"
0$
0#
10
02
01
06
04
18
#270000
1$
1!
12
1/
17
14
#275000
0$
0!
02
0/
07
04
#280000
1$
1!
1#
12
1/
11
16
17
14
#285000
0$
0!
0#
0"
02
0/
01
00
08
06
07
04
#295000
1$
1!
1"
12
1/
10
18
17
14
#300000
0$
0"
02
00
08
04
#305000
1$
1"
0!
12
10
0/
07
18
14
#310000
0$
0"
1!
02
00
1/
17
08
04
#315000
1$
1#
12
11
16
14
#320000
0#
1"
0!
01
10
0/
07
18
06
#330000
1#
0$
11
02
04
16
09
05
03
0%
#335000
1!
1/
17
19
15
13
1%
#340000
0!
0#
0/
01
06
07
#345000
1!
1$
1/
12
14
17
#350000
0$
0"
02
00
08
04
#355000
1$
1#
12
11
16
14
#360000
1"
10
18
#365000
0"
0!
00
0/
07
08
#375000
1"
0#
10
01
06
18
#380000
0"
1#
00
11
16
08
#385000
1!
1/
17
#390000
1"
0$
10
02
04
18
#395000
0"
1$
0!
0#
00
12
0/
01
06
07
14
08
#400000
1"
0$
1!
10
02
1/
17
04
18
#410000
0"
1$
1#
00
12
11
16
14
08
#415000
1"
0!
10
0/
07
18
09
05
03
0%
#420000
1!
1/
17
19
15
13
1%
#425000
0"
0#
00
01
06
08
#430000
1#
0!
0$
11
0/
02
04
07
16
#435000
0#
1"
01
10
18
06
#440000
1#
0"
1!
11
00
1/
17
08
16
#445000
0#
0!
1$
01
0/
12
14
07
06
#450000
0$
02
04
#455000
1!
1/
17
#460000
1#
1"
11
10
18
16
#465000
0#
0"
1$
01
00
12
14
08
06
#470000
1"
0$
10
02
04
18
#475000
0"
00
08
#480000
1$
1#
0!
12
11
0/
07
16
14
#485000
0#
01
06
#490000
0$
1!
1"
02
1/
10
18
17
04
#495000
0!
0"
0/
00
08
07
#500000
1$
1#
12
11
16
14
#505000
0$
0#
02
01
06
04
#510000
1$
1#
12
11
16
14
#515000
0$
0#
1!
1"
02
01
1/
10
18
17
06
04
#520000
1$
0!
12
0/
07
14
#525000
0$
1!
1#
02
1/
11
16
17
04
#530000
1$
0!
12
0/
07
14
09
05
03
0%
#535000
0#
01
06
19
15
13
1%
#540000
1#
0$
11
02
04
16
09
05
03
0%
#545000
0#
1$
1!
0"
01
12
1/
00
08
17
14
06
19
15
13
1%
#550000
1"
10
18
#555000
0"
0!
00
0/
07
08
#560000
1"
1!
1#
0$
10
1/
11
02
04
16
17
18
#565000
0#
1$
01
12
14
06
#570000
0!
0/
07
#575000
1#
0$
0"
11
02
00
08
04
16
#580000
1$
1!
12
1/
17
14
#585000
0!
0/
07
#590000
0$
1"
02
10
18
04
09
05
03
0%
#600000
0"
00
08
19
15
13
1%
#605000
1$
1!
12
1/
17
14
#610000
0$
1"
02
10
18
04
#615000
0!
0/
07
09
05
03
0%
#620000
1$
12
14
#625000
0$
1!
0"
02
1/
00
08
17
04
19
15
13
1%
#630000
0!
1"
0#
0/
10
01
06
18
07
#635000
0"
1#
00
11
16
08
#640000
0#
1!
01
1/
17
06
#645000
1#
1"
1$
11
10
12
14
18
16
#665000
0#
0"
0!
01
00
0/
07
08
06
#670000
1"
1!
0$
10
1/
02
04
17
18
#675000
0!
0/
07
#680000
1!
0"
1#
1/
00
11
16
08
17
#685000
0!
0#
1$
0/
01
12
14
06
07
#690000
1"
10
18
#695000
1#
0$
11
02
04
16
09
05
03
0%
#700000
1$
1!
12
1/
17
14
19
15
13
1%
#705000
0$
0!
0"
02
0/
00
08
07
04
#710000
1!
1"
0#
1/
10
01
06
18
17
#715000
0!
1#
1$
0/
11
12
14
16
07
09
05
03
0%
#720000
0$
0"
02
00
08
04
19
15
13
1%
#725000
1"
1!
10
1/
17
18
#730000
1$
0#
12
01
06
14
#735000
0$
1#
0!
02
11
0/
07
16
04
09
05
03
0%
#740000
0#
0"
01
00
08
06
19
15
13
1%
#745000
1"
10
18
#750000
0"
1$
1!
00
12
1/
17
14
08
#755000
1"
1#
10
11
16
18
#760000
0"
00
08
#765000
0$
02
04
#770000
1"
0!
10
0/
07
18
09
05
03
0%
#775000
1$
12
14
#780000
0"
1!
0#
00
1/
01
06
17
08
19
15
13
1%
#785000
1"
0$
10
02
04
18
#790000
0!
0/
07
#795000
1!
0"
1#
1/
00
11
16
08
17
#800000
0!
0#
0/
01
06
07
#805000
1!
1#
1$
1/
11
12
14
16
17
#810000
0$
1"
02
10
18
04
#815000
1$
0"
12
00
08
14
#820000
0$
0!
02
0/
07
04
#825000
1!
0#
1/
01
06
17
#830000
0!
1$
1"
0/
12
10
18
14
07
#835000
0"
00
08
#840000
1"
1#
10
11
16
18
09
05
03
0%
#845000
1!
1/
17
19
15
13
1%
#850000
0#
01
06
#855000
1#
0!
0"
0$
11
0/
00
02
04
08
07
16
#860000
1!
1"
1$
1/
10
12
14
18
17
#865000
0!
0"
0#
0/
00
01
06
08
07
#870000
1#
11
16
#875000
0$
02
04
#880000
1$
0#
12
01
06
14
#885000
0$
1#
1!
1"
02
11
1/
10
18
17
16
04
#890000
0!
0/
07
09
05
03
0%
#895000
1$
0#
12
01
06
14
19
15
13
1%
#900000
0$
1!
02
1/
17
04
#905000
1#
11
16
#910000
1$
0!
12
0/
07
14
09
05
03
0%
#915000
0#
0"
01
00
08
06
19
15
13
1%
#925000
1#
11
16
#930000
0#
0$
01
02
04
06
#935000
1#
1$
11
12
14
16
#940000
0#
1"
1!
01
10
1/
17
18
06
#945000
1#
0!
11
0/
07
16
09
05
03
0%
#950000
0$
02
04
#955000
0#
1!
01
1/
17
06
19
15
13
1%
#960000
1#
1$
0"
11
12
00
08
14
16
#965000
1"
0!
10
0/
07
18
09
05
03
0%
#970000
0"
00
08
19
15
13
1%
#975000
1"
0$
10
02
04
18
09
05
03
0%
#980000
0"
1$
00
12
14
08
19
15
13
1%
#985000
1"
0$
1!
10
02
1/
17
04
18
#990000
0"
1$
0#
00
12
01
06
14
08
#995000
1"
0$
1#
0!
10
02
11
0/
07
16
04
18
09
05
03
0%
