Aula06Exercicio1/Aula6Exercicio1B/simulation/qsim/Exercicio1b.msim.vcd
$comment
	File created using the following command:
		vcd file Exercicio1b.msim.vcd -direction
$end
$date
	Fri Aug 23 09:56:16 2019
$end
$version
	ModelSim Version 10.5b
$end
$timescale
	1ps
$end

$scope module exercicio1b_vhd_vec_tst $end
$var wire 1 ! a $end
$var wire 1 " b $end
$var wire 1 # s $end

$scope module i1 $end
$var wire 1 $ gnd $end
$var wire 1 % vcc $end
$var wire 1 & unknown $end
$var wire 1 ' devoe $end
$var wire 1 ( devclrn $end
$var wire 1 ) devpor $end
$var wire 1 * ww_devoe $end
$var wire 1 + ww_devclrn $end
$var wire 1 , ww_devpor $end
$var wire 1 - ww_a $end
$var wire 1 . ww_b $end
$var wire 1 / ww_s $end
$var wire 1 0 \s~output_o\ $end
$var wire 1 1 \b~input_o\ $end
$var wire 1 2 \a~input_o\ $end
$var wire 1 3 \s~0_combout\ $end
$var wire 1 4 \ALT_INV_s~0_combout\ $end
$upscope $end
$upscope $end
$enddefinitions $end
#0
$dumpvars
1!
0"
1#
0$
1%
x&
1'
1(
1)
1*
1+
1,
1-
0.
1/
10
01
12
03
14
$end
#10000
1"
1.
11
13
04
00
0/
0#
#20000
0!
0-
02
03
14
10
1/
1#
#30000
1!
1-
12
13
04
00
0/
0#
#35000
0!
0-
02
03
14
10
1/
1#
#40000
0"
0.
01
#45000
1!
1-
12
#55000
0!
0-
02
#60000
1"
1.
11
#70000
0"
1!
0.
1-
12
01
#75000
0!
0-
02
#80000
1"
1.
11
#85000
1!
1-
12
13
04
00
0/
0#
#110000
0"
0.
01
03
14
10
1/
1#
#125000
0!
0-
02
#130000
1!
1-
12
#150000
0!
1"
0-
1.
11
02
#160000
1!
1-
12
13
04
00
0/
0#
#170000
0"
0.
01
03
14
10
1/
1#
#180000
1"
1.
11
13
04
00
0/
0#
#185000
0!
0-
02
03
14
10
1/
1#
#200000
1!
1-
12
13
04
00
0/
0#
#205000
0!
0-
02
03
14
10
1/
1#
#210000
1!
0"
1-
0.
01
12
#215000
0!
0-
02
#220000
1!
1-
12
#225000
0!
0-
02
#230000
1!
1"
1-
1.
11
12
13
04
00
0/
0#
#235000
0!
0-
02
03
14
10
1/
1#
#240000
1!
1-
12
13
04
00
0/
0#
#245000
0!
0-
02
03
14
10
1/
1#
#250000
1!
1-
12
13
04
00
0/
0#
#260000
0!
0-
02
03
14
10
1/
1#
#270000
0"
0.
01
#280000
1!
1-
12
#285000
0!
0-
02
#290000
1!
1-
12
#295000
0!
0-
02
#300000
1!
1-
12
#305000
0!
0-
02
#310000
1!
1-
12
#320000
1"
1.
11
13
04
00
0/
0#
#330000
0!
0-
02
03
14
10
1/
1#
#335000
1!
1-
12
13
04
00
0/
0#
#345000
0!
0-
02
03
14
10
1/
1#
#350000
1!
1-
12
13
04
00
0/
0#
#360000
0"
0.
01
03
14
10
1/
1#
#365000
0!
0-
02
#370000
1!
1-
12
#375000
0!
0-
02
#380000
1"
1.
11
#385000
1!
1-
12
13
04
00
0/
0#
#400000
0!
0"
0-
0.
01
02
03
14
10
1/
1#
#405000
1!
1-
12
#425000
0!
0-
02
#430000
1!
1"
1-
1.
11
12
13
04
00
0/
0#
#440000
0!
0"
0-
0.
01
02
03
14
10
1/
1#
#445000
1!
1-
12
#460000
0!
1"
0-
1.
11
02
#465000
1!
1-
12
13
04
00
0/
0#
#475000
0!
0-
02
03
14
10
1/
1#
#480000
1!
1-
12
13
04
00
0/
0#
#485000
0!
0-
02
03
14
10
1/
1#
#505000
1!
1-
12
13
04
00
0/
0#
#510000
0!
0-
02
03
14
10
1/
1#
#515000
1!
1-
12
13
04
00
0/
0#
#520000
0!
0-
02
03
14
10
1/
1#
#530000
0"
0.
01
#540000
1!
1-
12
#545000
0!
0-
02
#555000
1!
1-
12
#580000
0!
0-
02
#600000
1"
1.
11
#610000
0"
0.
01
#620000
1!
1-
12
#630000
0!
1"
0-
1.
11
02
#650000
1!
1-
12
13
04
00
0/
0#
#665000
0!
0-
02
03
14
10
1/
1#
#670000
0"
0.
01
#675000
1!
1-
12
#680000
0!
1"
0-
1.
11
02
#685000
1!
1-
12
13
04
00
0/
0#
#700000
0!
0-
02
03
14
10
1/
1#
#705000
1!
1-
12
13
04
00
0/
0#
#725000
0!
0-
02
03
14
10
1/
1#
#730000
1!
1-
12
13
04
00
0/
0#
#735000
0!
0-
02
03
14
10
1/
1#
#750000
0"
0.
01
#760000
1!
1-
12
#765000
0!
0-
02
#790000
1!
1-
12
#800000
0!
0-
02
#805000
1!
1-
12
#810000
0!
0-
02
#840000
1"
1.
11
#845000
1!
1-
12
13
04
00
0/
0#
#850000
0"
0.
01
03
14
10
1/
1#
#855000
0!
0-
02
#860000
1!
1"
1-
1.
11
12
13
04
00
0/
0#
#865000
0!
0-
02
03
14
10
1/
1#
#870000
1!
1-
12
13
04
00
0/
0#
#875000
0!
0-
02
03
14
10
1/
1#
#900000
0"
0.
01
#910000
1!
1-
12
#915000
0!
0-
02
#920000
1!
1-
12
#930000
0!
1"
0-
1.
11
02
#940000
0"
0.
01
#950000
1"
1!
1.
1-
12
11
13
04
00
0/
0#
#955000
0!
0-
02
03
14
10
1/
1#
#960000
0"
0.
01
#965000
1!
1-
12
#970000
1"
1.
11
13
04
00
0/
0#
#980000
0!
0-
02
03
14
10
1/
1#
