Aula4Exercicio1/Byte/simulation/qsim/Aula4Exercicio1.msim.vcd
$comment
	File created using the following command:
		vcd file Aula4Exercicio1.msim.vcd -direction
$end
$date
	Thu Aug 22 13:42:11 2019
$end
$version
	ModelSim Version 10.5b
$end
$timescale
	1ps
$end

$scope module aula4exercicio1_vhd_vec_tst $end
$var wire 1 ! E1 [7] $end
$var wire 1 " E1 [6] $end
$var wire 1 # E1 [5] $end
$var wire 1 $ E1 [4] $end
$var wire 1 % E1 [3] $end
$var wire 1 & E1 [2] $end
$var wire 1 ' E1 [1] $end
$var wire 1 ( E1 [0] $end
$var wire 1 ) S1 [7] $end
$var wire 1 * S1 [6] $end
$var wire 1 + S1 [5] $end
$var wire 1 , S1 [4] $end
$var wire 1 - S1 [3] $end
$var wire 1 . S1 [2] $end
$var wire 1 / S1 [1] $end
$var wire 1 0 S1 [0] $end

$scope module i1 $end
$var wire 1 1 gnd $end
$var wire 1 2 vcc $end
$var wire 1 3 unknown $end
$var wire 1 4 devoe $end
$var wire 1 5 devclrn $end
$var wire 1 6 devpor $end
$var wire 1 7 ww_devoe $end
$var wire 1 8 ww_devclrn $end
$var wire 1 9 ww_devpor $end
$var wire 1 : ww_S1 [7] $end
$var wire 1 ; ww_S1 [6] $end
$var wire 1 < ww_S1 [5] $end
$var wire 1 = ww_S1 [4] $end
$var wire 1 > ww_S1 [3] $end
$var wire 1 ? ww_S1 [2] $end
$var wire 1 @ ww_S1 [1] $end
$var wire 1 A ww_S1 [0] $end
$var wire 1 B \E1[0]~input_o\ $end
$var wire 1 C \E1[1]~input_o\ $end
$var wire 1 D \E1[2]~input_o\ $end
$var wire 1 E \E1[3]~input_o\ $end
$var wire 1 F \E1[4]~input_o\ $end
$var wire 1 G \E1[5]~input_o\ $end
$var wire 1 H \E1[6]~input_o\ $end
$var wire 1 I \E1[7]~input_o\ $end
$var wire 1 J \E1[0]~output_o\ $end
$var wire 1 K \E1[1]~output_o\ $end
$var wire 1 L \E1[2]~output_o\ $end
$var wire 1 M \E1[3]~output_o\ $end
$var wire 1 N \E1[4]~output_o\ $end
$var wire 1 O \E1[5]~output_o\ $end
$var wire 1 P \E1[6]~output_o\ $end
$var wire 1 Q \E1[7]~output_o\ $end
$var wire 1 R \S1[0]~output_o\ $end
$var wire 1 S \S1[1]~output_o\ $end
$var wire 1 T \S1[2]~output_o\ $end
$var wire 1 U \S1[3]~output_o\ $end
$var wire 1 V \S1[4]~output_o\ $end
$var wire 1 W \S1[5]~output_o\ $end
$var wire 1 X \S1[6]~output_o\ $end
$var wire 1 Y \S1[7]~output_o\ $end
$upscope $end
$upscope $end
$enddefinitions $end
#0
$dumpvars
01
12
x3
14
15
16
17
18
19
xB
0C
0D
xE
xF
0G
0H
xI
1J
0K
0L
1M
1N
0O
0P
1Q
1R
0S
0T
1U
1V
0W
0X
1Y
x!
0"
0#
x$
x%
0&
0'
x(
1:
0;
0<
1=
1>
0?
0@
1A
1)
0*
0+
1,
1-
0.
0/
10
$end
#5000
1!
x"
x#
1$
1%
x&
x'
1(
1B
xC
xD
1E
1F
xG
xH
1I
#10000
x!
0"
0#
x$
x%
0&
0'
x(
xB
0C
0D
xE
xF
0G
0H
xI
#15000
1!
x"
x#
1$
1%
x&
x'
1(
1B
xC
xD
1E
1F
xG
xH
1I
#20000
x!
0"
0#
x$
x%
0&
0'
x(
xB
0C
0D
xE
xF
0G
0H
xI
#25000
1!
x"
x#
1$
1%
x&
x'
1(
1B
xC
xD
1E
1F
xG
xH
1I
#30000
x!
0"
0#
x$
x%
0&
0'
x(
xB
0C
0D
xE
xF
0G
0H
xI
#35000
1!
x"
x#
1$
1%
x&
x'
1(
1B
xC
xD
1E
1F
xG
xH
1I
#40000
x!
0"
0#
x$
x%
0&
0'
x(
xB
0C
0D
xE
xF
0G
0H
xI
#45000
1!
x"
x#
1$
1%
x&
x'
1(
1B
xC
xD
1E
1F
xG
xH
1I
#50000
x!
0"
0#
x$
x%
0&
0'
x(
xB
0C
0D
xE
xF
0G
0H
xI
#55000
1!
x"
x#
1$
1%
x&
x'
1(
1B
xC
xD
1E
1F
xG
xH
1I
#60000
x!
0"
0#
x$
x%
0&
0'
x(
xB
0C
0D
xE
xF
0G
0H
xI
#65000
1!
x"
x#
1$
1%
x&
x'
1(
1B
xC
xD
1E
1F
xG
xH
1I
#70000
x!
0"
0#
x$
x%
0&
0'
x(
xB
0C
0D
xE
xF
0G
0H
xI
#75000
1!
x"
x#
1$
1%
x&
x'
1(
1B
xC
xD
1E
1F
xG
xH
1I
#80000
x!
0"
0#
x$
x%
0&
0'
x(
xB
0C
0D
xE
xF
0G
0H
xI
#85000
1!
x"
x#
1$
1%
x&
x'
1(
1B
xC
xD
1E
1F
xG
xH
1I
#90000
x!
0"
0#
x$
x%
0&
0'
x(
xB
0C
0D
xE
xF
0G
0H
xI
#95000
1!
x"
x#
1$
1%
x&
x'
1(
1B
xC
xD
1E
1F
xG
xH
1I
#100000
x!
0"
0#
x$
x%
0&
0'
x(
xB
0C
0D
xE
xF
0G
0H
xI
#105000
1!
x"
x#
1$
1%
x&
x'
1(
1B
xC
xD
1E
1F
xG
xH
1I
#110000
x!
0"
0#
x$
x%
0&
0'
x(
xB
0C
0D
xE
xF
0G
0H
xI
#115000
1!
x"
x#
1$
1%
x&
x'
1(
1B
xC
xD
1E
1F
xG
xH
1I
#120000
x!
0"
0#
x$
x%
0&
0'
x(
xB
0C
0D
xE
xF
0G
0H
xI
#125000
1!
x"
x#
1$
1%
x&
x'
1(
1B
xC
xD
1E
1F
xG
xH
1I
#130000
x!
0"
0#
x$
x%
0&
0'
x(
xB
0C
0D
xE
xF
0G
0H
xI
#135000
1!
x"
x#
1$
1%
x&
x'
1(
1B
xC
xD
1E
1F
xG
xH
1I
#140000
x!
0"
0#
x$
x%
0&
0'
x(
xB
0C
0D
xE
xF
0G
0H
xI
#145000
1!
x"
x#
1$
1%
x&
x'
1(
1B
xC
xD
1E
1F
xG
xH
1I
#150000
x!
0"
0#
x$
x%
0&
0'
x(
xB
0C
0D
xE
xF
0G
0H
xI
#155000
1!
x"
x#
1$
1%
x&
x'
1(
1B
xC
xD
1E
1F
xG
xH
1I
#160000
x!
0"
0#
x$
x%
0&
0'
x(
xB
0C
0D
xE
xF
0G
0H
xI
#165000
1!
x"
x#
1$
1%
x&
x'
1(
1B
xC
xD
1E
1F
xG
xH
1I
#170000
x!
0"
0#
x$
x%
0&
0'
x(
xB
0C
0D
xE
xF
0G
0H
xI
#175000
1!
x"
x#
1$
1%
x&
x'
1(
1B
xC
xD
1E
1F
xG
xH
1I
#180000
x!
0"
0#
x$
x%
0&
0'
x(
xB
0C
0D
xE
xF
0G
0H
xI
#185000
1!
x"
x#
1$
1%
x&
x'
1(
1B
xC
xD
1E
1F
xG
xH
1I
#190000
x!
0"
0#
x$
x%
0&
0'
x(
xB
0C
0D
xE
xF
0G
0H
xI
#195000
1!
x"
x#
1$
1%
x&
x'
1(
1B
xC
xD
1E
1F
xG
xH
1I
#200000
x!
0"
0#
x$
x%
0&
0'
x(
xB
0C
0D
xE
xF
0G
0H
xI
#205000
1!
x"
x#
1$
1%
x&
x'
1(
1B
xC
xD
1E
1F
xG
xH
1I
#210000
x!
0"
0#
x$
x%
0&
0'
x(
xB
0C
0D
xE
xF
0G
0H
xI
#215000
1!
x"
x#
1$
1%
x&
x'
1(
1B
xC
xD
1E
1F
xG
xH
1I
#220000
x!
0"
0#
x$
x%
0&
0'
x(
xB
0C
0D
xE
xF
0G
0H
xI
#225000
1!
x"
x#
1$
1%
x&
x'
1(
1B
xC
xD
1E
1F
xG
xH
1I
#230000
x!
0"
0#
x$
x%
0&
0'
x(
xB
0C
0D
xE
xF
0G
0H
xI
#235000
1!
x"
x#
1$
1%
x&
x'
1(
1B
xC
xD
1E
1F
xG
xH
1I
#240000
x!
0"
0#
x$
x%
0&
0'
x(
xB
0C
0D
xE
xF
0G
0H
xI
#245000
1!
x"
x#
1$
1%
x&
x'
1(
1B
xC
xD
1E
1F
xG
xH
1I
#250000
x!
0"
0#
x$
x%
0&
0'
x(
xB
0C
0D
xE
xF
0G
0H
xI
#255000
1!
x"
x#
1$
1%
x&
x'
1(
1B
xC
xD
1E
1F
xG
xH
1I
#260000
x!
0"
0#
x$
x%
0&
0'
x(
xB
0C
0D
xE
xF
0G
0H
xI
#265000
1!
x"
x#
1$
1%
x&
x'
1(
1B
xC
xD
1E
1F
xG
xH
1I
#270000
x!
0"
0#
x$
x%
0&
0'
x(
xB
0C
0D
xE
xF
0G
0H
xI
#275000
1!
x"
x#
1$
1%
x&
x'
1(
1B
xC
xD
1E
1F
xG
xH
1I
#280000
x!
0"
0#
x$
x%
0&
0'
x(
xB
0C
0D
xE
xF
0G
0H
xI
#285000
1!
x"
x#
1$
1%
x&
x'
1(
1B
xC
xD
1E
1F
xG
xH
1I
#290000
x!
0"
0#
x$
x%
0&
0'
x(
xB
0C
0D
xE
xF
0G
0H
xI
#295000
1!
x"
x#
1$
1%
x&
x'
1(
1B
xC
xD
1E
1F
xG
xH
1I
#300000
x!
0"
0#
x$
x%
0&
0'
x(
xB
0C
0D
xE
xF
0G
0H
xI
#305000
1!
x"
x#
1$
1%
x&
x'
1(
1B
xC
xD
1E
1F
xG
xH
1I
#310000
x!
0"
0#
x$
x%
0&
0'
x(
xB
0C
0D
xE
xF
0G
0H
xI
#315000
1!
x"
x#
1$
1%
x&
x'
1(
1B
xC
xD
1E
1F
xG
xH
1I
#320000
x!
0"
0#
x$
x%
0&
0'
x(
xB
0C
0D
xE
xF
0G
0H
xI
#325000
1!
x"
x#
1$
1%
x&
x'
1(
1B
xC
xD
1E
1F
xG
xH
1I
#330000
x!
0"
0#
x$
x%
0&
0'
x(
xB
0C
0D
xE
xF
0G
0H
xI
#335000
1!
x"
x#
1$
1%
x&
x'
1(
1B
xC
xD
1E
1F
xG
xH
1I
#340000
x!
0"
0#
x$
x%
0&
0'
x(
xB
0C
0D
xE
xF
0G
0H
xI
#345000
1!
x"
x#
1$
1%
x&
x'
1(
1B
xC
xD
1E
1F
xG
xH
1I
#350000
x!
0"
0#
x$
x%
0&
0'
x(
xB
0C
0D
xE
xF
0G
0H
xI
#355000
1!
x"
x#
1$
1%
x&
x'
1(
1B
xC
xD
1E
1F
xG
xH
1I
#360000
x!
0"
0#
x$
x%
0&
0'
x(
xB
0C
0D
xE
xF
0G
0H
xI
#365000
1!
x"
x#
1$
1%
x&
x'
1(
1B
xC
xD
1E
1F
xG
xH
1I
#370000
x!
0"
0#
x$
x%
0&
0'
x(
xB
0C
0D
xE
xF
0G
0H
xI
#375000
1!
x"
x#
1$
1%
x&
x'
1(
1B
xC
xD
1E
1F
xG
xH
1I
#380000
x!
0"
0#
x$
x%
0&
0'
x(
xB
0C
0D
xE
xF
0G
0H
xI
#385000
1!
x"
x#
1$
1%
x&
x'
1(
1B
xC
xD
1E
1F
xG
xH
1I
#390000
x!
0"
0#
x$
x%
0&
0'
x(
xB
0C
0D
xE
xF
0G
0H
xI
#395000
1!
x"
x#
1$
1%
x&
x'
1(
1B
xC
xD
1E
1F
xG
xH
1I
#400000
x!
0"
0#
x$
x%
0&
0'
x(
xB
0C
0D
xE
xF
0G
0H
xI
#405000
1!
x"
x#
1$
1%
x&
x'
1(
1B
xC
xD
1E
1F
xG
xH
1I
#410000
x!
0"
0#
x$
x%
0&
0'
x(
xB
0C
0D
xE
xF
0G
0H
xI
#415000
1!
x"
x#
1$
1%
x&
x'
1(
1B
xC
xD
1E
1F
xG
xH
1I
#420000
x!
0"
0#
x$
x%
0&
0'
x(
xB
0C
0D
xE
xF
0G
0H
xI
#425000
1!
x"
x#
1$
1%
x&
x'
1(
1B
xC
xD
1E
1F
xG
xH
1I
#430000
x!
0"
0#
x$
x%
0&
0'
x(
xB
0C
0D
xE
xF
0G
0H
xI
#435000
1!
x"
x#
1$
1%
x&
x'
1(
1B
xC
xD
1E
1F
xG
xH
1I
#440000
x!
0"
0#
x$
x%
0&
0'
x(
xB
0C
0D
xE
xF
0G
0H
xI
#445000
1!
x"
x#
1$
1%
x&
x'
1(
1B
xC
xD
1E
1F
xG
xH
1I
#450000
x!
0"
0#
x$
x%
0&
0'
x(
xB
0C
0D
xE
xF
0G
0H
xI
#455000
1!
x"
x#
1$
1%
x&
x'
1(
1B
xC
xD
1E
1F
xG
xH
1I
#460000
x!
0"
0#
x$
x%
0&
0'
x(
xB
0C
0D
xE
xF
0G
0H
xI
#465000
1!
x"
x#
1$
1%
x&
x'
1(
1B
xC
xD
1E
1F
xG
xH
1I
#470000
x!
0"
0#
x$
x%
0&
0'
x(
xB
0C
0D
xE
xF
0G
0H
xI
#475000
1!
x"
x#
1$
1%
x&
x'
1(
1B
xC
xD
1E
1F
xG
xH
1I
#480000
x!
0"
0#
x$
x%
0&
0'
x(
xB
0C
0D
xE
xF
0G
0H
xI
#485000
1!
x"
x#
1$
1%
x&
x'
1(
1B
xC
xD
1E
1F
xG
xH
1I
#490000
x!
0"
0#
x$
x%
0&
0'
x(
xB
0C
0D
xE
xF
0G
0H
xI
#495000
1!
x"
x#
1$
1%
x&
x'
1(
1B
xC
xD
1E
1F
xG
xH
1I
#500000
x!
0"
0#
x$
x%
0&
0'
x(
xB
0C
0D
xE
xF
0G
0H
xI
#505000
1!
x"
x#
1$
1%
x&
x'
1(
1B
xC
xD
1E
1F
xG
xH
1I
#510000
x!
0"
0#
x$
x%
0&
0'
x(
xB
0C
0D
xE
xF
0G
0H
xI
#515000
1!
x"
x#
1$
1%
x&
x'
1(
1B
xC
xD
1E
1F
xG
xH
1I
#520000
x!
0"
0#
x$
x%
0&
0'
x(
xB
0C
0D
xE
xF
0G
0H
xI
#525000
1!
x"
x#
1$
1%
x&
x'
1(
1B
xC
xD
1E
1F
xG
xH
1I
#530000
x!
0"
0#
x$
x%
0&
0'
x(
xB
0C
0D
xE
xF
0G
0H
xI
#535000
1!
x"
x#
1$
1%
x&
x'
1(
1B
xC
xD
1E
1F
xG
xH
1I
#540000
x!
0"
0#
x$
x%
0&
0'
x(
xB
0C
0D
xE
xF
0G
0H
xI
#545000
1!
x"
x#
1$
1%
x&
x'
1(
1B
xC
xD
1E
1F
xG
xH
1I
#550000
x!
0"
0#
x$
x%
0&
0'
x(
xB
0C
0D
xE
xF
0G
0H
xI
#555000
1!
x"
x#
1$
1%
x&
x'
1(
1B
xC
xD
1E
1F
xG
xH
1I
#560000
x!
0"
0#
x$
x%
0&
0'
x(
xB
0C
0D
xE
xF
0G
0H
xI
#565000
1!
x"
x#
1$
1%
x&
x'
1(
1B
xC
xD
1E
1F
xG
xH
1I
#570000
x!
0"
0#
x$
x%
0&
0'
x(
xB
0C
0D
xE
xF
0G
0H
xI
#575000
1!
x"
x#
1$
1%
x&
x'
1(
1B
xC
xD
1E
1F
xG
xH
1I
#580000
x!
0"
0#
x$
x%
0&
0'
x(
xB
0C
0D
xE
xF
0G
0H
xI
#585000
1!
x"
x#
1$
1%
x&
x'
1(
1B
xC
xD
1E
1F
xG
xH
1I
#590000
x!
0"
0#
x$
x%
0&
0'
x(
xB
0C
0D
xE
xF
0G
0H
xI
#595000
1!
x"
x#
1$
1%
x&
x'
1(
1B
xC
xD
1E
1F
xG
xH
1I
#600000
x!
0"
0#
x$
x%
0&
0'
x(
xB
0C
0D
xE
xF
0G
0H
xI
#605000
1!
x"
x#
1$
1%
x&
x'
1(
1B
xC
xD
1E
1F
xG
xH
1I
#610000
x!
0"
0#
x$
x%
0&
0'
x(
xB
0C
0D
xE
xF
0G
0H
xI
#615000
1!
x"
x#
1$
1%
x&
x'
1(
1B
xC
xD
1E
1F
xG
xH
1I
#620000
x!
0"
0#
x$
x%
0&
0'
x(
xB
0C
0D
xE
xF
0G
0H
xI
#625000
1!
x"
x#
1$
1%
x&
x'
1(
1B
xC
xD
1E
1F
xG
xH
1I
#630000
x!
0"
0#
x$
x%
0&
0'
x(
xB
0C
0D
xE
xF
0G
0H
xI
#635000
1!
x"
x#
1$
1%
x&
x'
1(
1B
xC
xD
1E
1F
xG
xH
1I
#640000
x!
0"
0#
x$
x%
0&
0'
x(
xB
0C
0D
xE
xF
0G
0H
xI
#645000
1!
x"
x#
1$
1%
x&
x'
1(
1B
xC
xD
1E
1F
xG
xH
1I
#650000
x!
0"
0#
x$
x%
0&
0'
x(
xB
0C
0D
xE
xF
0G
0H
xI
#655000
1!
x"
x#
1$
1%
x&
x'
1(
1B
xC
xD
1E
1F
xG
xH
1I
#660000
x!
0"
0#
x$
x%
0&
0'
x(
xB
0C
0D
xE
xF
0G
0H
xI
#665000
1!
x"
x#
1$
1%
x&
x'
1(
1B
xC
xD
1E
1F
xG
xH
1I
#670000
x!
0"
0#
x$
x%
0&
0'
x(
xB
0C
0D
xE
xF
0G
0H
xI
#675000
1!
x"
x#
1$
1%
x&
x'
1(
1B
xC
xD
1E
1F
xG
xH
1I
#680000
x!
0"
0#
x$
x%
0&
0'
x(
xB
0C
0D
xE
xF
0G
0H
xI
#685000
1!
x"
x#
1$
1%
x&
x'
1(
1B
xC
xD
1E
1F
xG
xH
1I
#690000
x!
0"
0#
x$
x%
0&
0'
x(
xB
0C
0D
xE
xF
0G
0H
xI
#695000
1!
x"
x#
1$
1%
x&
x'
1(
1B
xC
xD
1E
1F
xG
xH
1I
#700000
x!
0"
0#
x$
x%
0&
0'
x(
xB
0C
0D
xE
xF
0G
0H
xI
#705000
1!
x"
x#
1$
1%
x&
x'
1(
1B
xC
xD
1E
1F
xG
xH
1I
#710000
x!
0"
0#
x$
x%
0&
0'
x(
xB
0C
0D
xE
xF
0G
0H
xI
#715000
1!
x"
x#
1$
1%
x&
x'
1(
1B
xC
xD
1E
1F
xG
xH
1I
#720000
x!
0"
0#
x$
x%
0&
0'
x(
xB
0C
0D
xE
xF
0G
0H
xI
#725000
1!
x"
x#
1$
1%
x&
x'
1(
1B
xC
xD
1E
1F
xG
xH
1I
#730000
x!
0"
0#
x$
x%
0&
0'
x(
xB
0C
0D
xE
xF
0G
0H
xI
#735000
1!
x"
x#
1$
1%
x&
x'
1(
1B
xC
xD
1E
1F
xG
xH
1I
#740000
x!
0"
0#
x$
x%
0&
0'
x(
xB
0C
0D
xE
xF
0G
0H
xI
#745000
1!
x"
x#
1$
1%
x&
x'
1(
1B
xC
xD
1E
1F
xG
xH
1I
#750000
x!
0"
0#
x$
x%
0&
0'
x(
xB
0C
0D
xE
xF
0G
0H
xI
#755000
1!
x"
x#
1$
1%
x&
x'
1(
1B
xC
xD
1E
1F
xG
xH
1I
#760000
x!
0"
0#
x$
x%
0&
0'
x(
xB
0C
0D
xE
xF
0G
0H
xI
#765000
1!
x"
x#
1$
1%
x&
x'
1(
1B
xC
xD
1E
1F
xG
xH
1I
#770000
x!
0"
0#
x$
x%
0&
0'
x(
xB
0C
0D
xE
xF
0G
0H
xI
#775000
1!
x"
x#
1$
1%
x&
x'
1(
1B
xC
xD
1E
1F
xG
xH
1I
#780000
x!
0"
0#
x$
x%
0&
0'
x(
xB
0C
0D
xE
xF
0G
0H
xI
#785000
1!
x"
x#
1$
1%
x&
x'
1(
1B
xC
xD
1E
1F
xG
xH
1I
#790000
x!
0"
0#
x$
x%
0&
0'
x(
xB
0C
0D
xE
xF
0G
0H
xI
#795000
1!
x"
x#
1$
1%
x&
x'
1(
1B
xC
xD
1E
1F
xG
xH
1I
#800000
x!
0"
0#
x$
x%
0&
0'
x(
xB
0C
0D
xE
xF
0G
0H
xI
#805000
1!
x"
x#
1$
1%
x&
x'
1(
1B
xC
xD
1E
1F
xG
xH
1I
#810000
x!
0"
0#
x$
x%
0&
0'
x(
xB
0C
0D
xE
xF
0G
0H
xI
#815000
1!
x"
x#
1$
1%
x&
x'
1(
1B
xC
xD
1E
1F
xG
xH
1I
#820000
x!
0"
0#
x$
x%
0&
0'
x(
xB
0C
0D
xE
xF
0G
0H
xI
#825000
1!
x"
x#
1$
1%
x&
x'
1(
1B
xC
xD
1E
1F
xG
xH
1I
#830000
x!
0"
0#
x$
x%
0&
0'
x(
xB
0C
0D
xE
xF
0G
0H
xI
#835000
1!
x"
x#
1$
1%
x&
x'
1(
1B
xC
xD
1E
1F
xG
xH
1I
#840000
x!
0"
0#
x$
x%
0&
0'
x(
xB
0C
0D
xE
xF
0G
0H
xI
#845000
1!
x"
x#
1$
1%
x&
x'
1(
1B
xC
xD
1E
1F
xG
xH
1I
#850000
x!
0"
0#
x$
x%
0&
0'
x(
xB
0C
0D
xE
xF
0G
0H
xI
#855000
1!
x"
x#
1$
1%
x&
x'
1(
1B
xC
xD
1E
1F
xG
xH
1I
#860000
x!
0"
0#
x$
x%
0&
0'
x(
xB
0C
0D
xE
xF
0G
0H
xI
#865000
1!
x"
x#
1$
1%
x&
x'
1(
1B
xC
xD
1E
1F
xG
xH
1I
#870000
x!
0"
0#
x$
x%
0&
0'
x(
xB
0C
0D
xE
xF
0G
0H
xI
#875000
1!
x"
x#
1$
1%
x&
x'
1(
1B
xC
xD
1E
1F
xG
xH
1I
#880000
x!
0"
0#
x$
x%
0&
0'
x(
xB
0C
0D
xE
xF
0G
0H
xI
#885000
1!
x"
x#
1$
1%
x&
x'
1(
1B
xC
xD
1E
1F
xG
xH
1I
#890000
x!
0"
0#
x$
x%
0&
0'
x(
xB
0C
0D
xE
xF
0G
0H
xI
#895000
1!
x"
x#
1$
1%
x&
x'
1(
1B
xC
xD
1E
1F
xG
xH
1I
#900000
x!
0"
0#
x$
x%
0&
0'
x(
xB
0C
0D
xE
xF
0G
0H
xI
#905000
1!
x"
x#
1$
1%
x&
x'
1(
1B
xC
xD
1E
1F
xG
xH
1I
#910000
x!
0"
0#
x$
x%
0&
0'
x(
xB
0C
0D
xE
xF
0G
0H
xI
#915000
1!
x"
x#
1$
1%
x&
x'
1(
1B
xC
xD
1E
1F
xG
xH
1I
#920000
x!
0"
0#
x$
x%
0&
0'
x(
xB
0C
0D
xE
xF
0G
0H
xI
#925000
1!
x"
x#
1$
1%
x&
x'
1(
1B
xC
xD
1E
1F
xG
xH
1I
#930000
x!
0"
0#
x$
x%
0&
0'
x(
xB
0C
0D
xE
xF
0G
0H
xI
#935000
1!
x"
x#
1$
1%
x&
x'
1(
1B
xC
xD
1E
1F
xG
xH
1I
#940000
x!
0"
0#
x$
x%
0&
0'
x(
xB
0C
0D
xE
xF
0G
0H
xI
#945000
1!
x"
x#
1$
1%
x&
x'
1(
1B
xC
xD
1E
1F
xG
xH
1I
#950000
x!
0"
0#
x$
x%
0&
0'
x(
xB
0C
0D
xE
xF
0G
0H
xI
#955000
1!
x"
x#
1$
1%
x&
x'
1(
1B
xC
xD
1E
1F
xG
xH
1I
#960000
x!
0"
0#
x$
x%
0&
0'
x(
xB
0C
0D
xE
xF
0G
0H
xI
#965000
1!
x"
x#
1$
1%
x&
x'
1(
1B
xC
xD
1E
1F
xG
xH
1I
#970000
x!
0"
0#
x$
x%
0&
0'
x(
xB
0C
0D
xE
xF
0G
0H
xI
#975000
1!
x"
x#
1$
1%
x&
x'
1(
1B
xC
xD
1E
1F
xG
xH
1I
#980000
x!
0"
0#
x$
x%
0&
0'
x(
xB
0C
0D
xE
xF
0G
0H
xI
#985000
1!
x"
x#
1$
1%
x&
x'
1(
1B
xC
xD
1E
1F
xG
xH
1I
#990000
x!
0"
0#
x$
x%
0&
0'
x(
xB
0C
0D
xE
xF
0G
0H
xI
#995000
1!
x"
x#
1$
1%
x&
x'
1(
1B
xC
xD
1E
1F
xG
xH
1I
