Aula26/Aula26Exercicio1/simulation/qsim/Aula26Exercicio1.msim.vcd
$comment
	File created using the following command:
		vcd file Aula26Exercicio1.msim.vcd -direction
$end
$date
	Mon Nov  4 16:14:47 2019
$end
$version
	ModelSim Version 10.5b
$end
$timescale
	1ps
$end

$scope module aula26exercicio1_vhd_vec_tst $end
$var wire 1 ! BT $end
$var wire 1 " CLK $end
$var wire 1 # LUZ1 $end
$var wire 1 $ LUZ2 $end
$var wire 1 % LUZ3 $end
$var wire 1 & X $end

$scope module i1 $end
$var wire 1 ' gnd $end
$var wire 1 ( vcc $end
$var wire 1 ) unknown $end
$var wire 1 * devoe $end
$var wire 1 + devclrn $end
$var wire 1 , devpor $end
$var wire 1 - ww_devoe $end
$var wire 1 . ww_devclrn $end
$var wire 1 / ww_devpor $end
$var wire 1 0 ww_BT $end
$var wire 1 1 ww_CLK $end
$var wire 1 2 ww_LUZ1 $end
$var wire 1 3 ww_LUZ2 $end
$var wire 1 4 ww_LUZ3 $end
$var wire 1 5 \CLK~inputclkctrl_INCLK_bus\ [3] $end
$var wire 1 6 \CLK~inputclkctrl_INCLK_bus\ [2] $end
$var wire 1 7 \CLK~inputclkctrl_INCLK_bus\ [1] $end
$var wire 1 8 \CLK~inputclkctrl_INCLK_bus\ [0] $end
$var wire 1 9 \X~input_o\ $end
$var wire 1 : \X~output_o\ $end
$var wire 1 ; \LUZ1~output_o\ $end
$var wire 1 < \LUZ2~output_o\ $end
$var wire 1 = \LUZ3~output_o\ $end
$var wire 1 > \CLK~input_o\ $end
$var wire 1 ? \CLK~inputclkctrl_outclk\ $end
$var wire 1 @ \BT~input_o\ $end
$var wire 1 A \ESTADO[1]~0_combout\ $end
$var wire 1 B \Mux0~0_combout\ $end
$var wire 1 C \Equal0~2_combout\ $end
$var wire 1 D \X~reg0_q\ $end
$var wire 1 E \Equal0~0_combout\ $end
$var wire 1 F \LUZ1~reg0_q\ $end
$var wire 1 G \Equal0~1_combout\ $end
$var wire 1 H \LUZ2~reg0_q\ $end
$var wire 1 I \LUZ3~reg0feeder_combout\ $end
$var wire 1 J \LUZ3~reg0_q\ $end
$var wire 1 K ESTADO [0] $end
$var wire 1 L ESTADO [1] $end
$upscope $end
$upscope $end
$enddefinitions $end
#0
$dumpvars
0!
0"
0#
0$
0%
0&
0'
1(
x)
1*
1+
1,
1-
1.
1/
00
01
02
03
04
09
0:
0;
0<
0=
0>
0?
0@
0A
0B
0C
0D
0E
0F
0G
0H
0I
0J
0K
0L
15
16
17
08
$end
#20000
1"
11
1>
18
1?
#40000
0"
01
0>
08
0?
#60000
1"
1!
11
10
1@
1>
18
1A
1?
1L
0A
1B
1E
#80000
0"
01
0>
08
0?
#100000
1"
11
1>
18
1?
0L
1K
1F
1A
0E
1G
1;
12
1#
#120000
0"
0!
01
00
0@
0>
08
0A
0?
#140000
1"
11
1>
18
1?
0F
1H
1<
0;
13
02
1$
0#
#160000
0"
01
0>
08
0?
#180000
1"
1!
11
10
1@
1>
18
1A
1?
1L
0A
0B
1C
0G
1I
#200000
0"
01
0>
08
0?
#220000
1"
11
1>
18
1?
0L
0K
1D
0H
1J
1A
0C
0I
1=
0<
1:
14
03
1&
1%
0$
19
#240000
0"
0!
01
00
0@
0>
08
0A
0?
#260000
1"
11
1>
18
1?
0D
0J
0=
0:
04
0&
0%
09
#280000
0"
01
0>
08
0?
#300000
1"
1!
11
10
1@
1>
18
1A
1?
1L
0A
1B
1E
#320000
0"
01
0>
08
0?
#340000
1"
11
1>
18
1?
0L
1K
1F
1A
0E
1G
1;
12
1#
#360000
0"
0!
01
00
0@
0>
08
0A
0?
#380000
1"
11
1>
18
1?
0F
1H
1<
0;
13
02
1$
0#
#400000
0"
01
0>
08
0?
#420000
1"
1!
11
10
1@
1>
18
1A
1?
1L
0A
0B
1C
0G
1I
#440000
0"
01
0>
08
0?
#460000
1"
11
1>
18
1?
0L
0K
1D
0H
1J
1A
0C
0I
1=
0<
1:
14
03
1&
1%
0$
19
#480000
0"
0!
01
00
0@
0>
08
0A
0?
#500000
1"
11
1>
18
1?
0D
0J
0=
0:
04
0&
0%
09
#520000
0"
01
0>
08
0?
#540000
1"
1!
11
10
1@
1>
18
1A
1?
1L
0A
1B
1E
#560000
0"
01
0>
08
0?
#580000
1"
11
1>
18
1?
0L
1K
1F
1A
0E
1G
1;
12
1#
#600000
0"
0!
01
00
0@
0>
08
0A
0?
#620000
1"
11
1>
18
1?
0F
1H
1<
0;
13
02
1$
0#
#640000
0"
01
0>
08
0?
#660000
1"
1!
11
10
1@
1>
18
1A
1?
1L
0A
0B
1C
0G
1I
#680000
0"
01
0>
08
0?
#700000
1"
11
1>
18
1?
0L
0K
1D
0H
1J
1A
0C
0I
1=
0<
1:
14
03
1&
1%
0$
19
#720000
0"
0!
01
00
0@
0>
08
0A
0?
#740000
1"
11
1>
18
1?
0D
0J
0=
0:
04
0&
0%
09
#760000
0"
01
0>
08
0?
#780000
1"
1!
11
10
1@
1>
18
1A
1?
1L
0A
1B
1E
#800000
0"
01
0>
08
0?
#820000
1"
11
1>
18
1?
0L
1K
1F
1A
0E
1G
1;
12
1#
#840000
0"
0!
01
00
0@
0>
08
0A
0?
#860000
1"
11
1>
18
1?
0F
1H
1<
0;
13
02
1$
0#
#880000
0"
01
0>
08
0?
#900000
1"
1!
11
10
1@
1>
18
1A
1?
1L
0A
0B
1C
0G
1I
#920000
0"
01
0>
08
0?
#940000
1"
11
1>
18
1?
0L
0K
1D
0H
1J
1A
0C
0I
1=
0<
1:
14
03
1&
1%
0$
19
#960000
0"
0!
01
00
0@
0>
08
0A
0?
#980000
1"
11
1>
18
1?
0D
0J
0=
0:
04
0&
0%
09
