Aula08Exercicio1/ifThenElse/simulation/qsim/Demux.msim.vcd
$comment
	File created using the following command:
		vcd file Demux.msim.vcd -direction
$end
$date
	Thu Aug 29 13:22:17 2019
$end
$version
	ModelSim Version 10.5b
$end
$timescale
	1ps
$end

$scope module demux_vhd_vec_tst $end
$var wire 1 ! A1 $end
$var wire 1 " O1 $end
$var wire 1 # O2 $end
$var wire 1 $ O3 $end
$var wire 1 % O4 $end
$var wire 1 & S0 $end
$var wire 1 ' S1 $end

$scope module i1 $end
$var wire 1 ( gnd $end
$var wire 1 ) vcc $end
$var wire 1 * unknown $end
$var wire 1 + devoe $end
$var wire 1 , devclrn $end
$var wire 1 - devpor $end
$var wire 1 . ww_devoe $end
$var wire 1 / ww_devclrn $end
$var wire 1 0 ww_devpor $end
$var wire 1 1 ww_A1 $end
$var wire 1 2 ww_S0 $end
$var wire 1 3 ww_S1 $end
$var wire 1 4 ww_O1 $end
$var wire 1 5 ww_O2 $end
$var wire 1 6 ww_O3 $end
$var wire 1 7 ww_O4 $end
$var wire 1 8 \O1~output_o\ $end
$var wire 1 9 \O2~output_o\ $end
$var wire 1 : \O3~output_o\ $end
$var wire 1 ; \O4~output_o\ $end
$var wire 1 < \A1~input_o\ $end
$var wire 1 = \S0~input_o\ $end
$var wire 1 > \S1~input_o\ $end
$var wire 1 ? \O1~0_combout\ $end
$var wire 1 @ \O2$latch~0_combout\ $end
$var wire 1 A \O3$latch~combout\ $end
$var wire 1 B \O4$latch~combout\ $end
$upscope $end
$upscope $end
$enddefinitions $end
#0
$dumpvars
1!
0"
0#
0$
0%
0&
0'
0(
1)
x*
1+
1,
1-
1.
1/
10
11
02
03
04
05
06
07
08
09
0:
0;
x<
x=
x>
x?
x@
xA
xB
$end
#709
1<
#785
0=
#805
0>
#3533
x9
x5
x#
#4142
x;
x7
x%
#4191
x8
x4
x"
#4329
x:
x6
x$
#4945
0B
#4946
0A
#5060
0@
#5080
1?
#8526
09
05
0#
#9033
0;
07
0%
#9197
0:
06
0$
#9271
18
14
1"
#15000
1&
12
#15679
1=
#19557
0?
#19564
1A
#23695
08
04
0"
#23893
1:
16
1$
#30000
0&
1'
02
13
#30699
1>
#30785
0=
#34677
0A
#34691
1B
#34945
0B
#34946
1@
#38479
19
15
1#
#38833
1;
17
1%
#38928
0:
06
0$
#39033
0;
07
0%
#45000
1&
12
#45679
1=
#49553
0@
#49560
1B
#53019
09
05
0#
#53702
1;
17
1%
#60000
0&
0'
02
03
#60785
0=
#60805
0>
#64945
0B
#64946
1@
#65060
0@
#65080
1?
#68479
19
15
1#
#68526
09
05
0#
#69033
0;
07
0%
#69271
18
14
1"
#75000
1&
12
#75679
1=
#79557
0?
#79564
1A
#83695
08
04
0"
#83893
1:
16
1$
#90000
0&
1'
02
13
#90699
1>
#90785
0=
#94677
0A
#94691
1B
#94945
0B
#94946
1@
#98479
19
15
1#
#98833
1;
17
1%
#98928
0:
06
0$
#99033
0;
07
0%
#105000
1&
12
#105679
1=
#109553
0@
#109560
1B
#113019
09
05
0#
#113702
1;
17
1%
#120000
0&
0'
02
03
#120785
0=
#120805
0>
#124945
0B
#124946
1@
#125060
0@
#125080
1?
#128479
19
15
1#
#128526
09
05
0#
#129033
0;
07
0%
#129271
18
14
1"
#135000
1&
12
#135679
1=
#139557
0?
#139564
1A
#143695
08
04
0"
#143893
1:
16
1$
#150000
0&
1'
02
13
#150699
1>
#150785
0=
#154677
0A
#154691
1B
#154945
0B
#154946
1@
#158479
19
15
1#
#158833
1;
17
1%
#158928
0:
06
0$
#159033
0;
07
0%
#165000
1&
12
#165679
1=
#169553
0@
#169560
1B
#173019
09
05
0#
#173702
1;
17
1%
#180000
0&
0'
02
03
#180785
0=
#180805
0>
#184945
0B
#184946
1@
#185060
0@
#185080
1?
#188479
19
15
1#
#188526
09
05
0#
#189033
0;
07
0%
#189271
18
14
1"
#195000
1&
12
#195679
1=
#199557
0?
#199564
1A
#203695
08
04
0"
#203893
1:
16
1$
#210000
0&
1'
02
13
#210699
1>
#210785
0=
#214677
0A
#214691
1B
#214945
0B
#214946
1@
#218479
19
15
1#
#218833
1;
17
1%
#218928
0:
06
0$
#219033
0;
07
0%
#225000
1&
12
#225679
1=
#229553
0@
#229560
1B
#233019
09
05
0#
#233702
1;
17
1%
#240000
0&
0'
02
03
#240785
0=
#240805
0>
#244945
0B
#244946
1@
#245060
0@
#245080
1?
#248479
19
15
1#
#248526
09
05
0#
#249033
0;
07
0%
#249271
18
14
1"
#255000
1&
12
#255679
1=
#259557
0?
#259564
1A
#263695
08
04
0"
#263893
1:
16
1$
#270000
0&
1'
02
13
#270699
1>
#270785
0=
#274677
0A
#274691
1B
#274945
0B
#274946
1@
#278479
19
15
1#
#278833
1;
17
1%
#278928
0:
06
0$
#279033
0;
07
0%
#285000
1&
12
#285679
1=
#289553
0@
#289560
1B
#293019
09
05
0#
#293702
1;
17
1%
#300000
0&
0'
02
03
#300785
0=
#300805
0>
#304945
0B
#304946
1@
#305060
0@
#305080
1?
#308479
19
15
1#
#308526
09
05
0#
#309033
0;
07
0%
#309271
18
14
1"
#315000
1&
12
#315679
1=
#319557
0?
#319564
1A
#323695
08
04
0"
#323893
1:
16
1$
#330000
0&
1'
02
13
#330699
1>
#330785
0=
#334677
0A
#334691
1B
#334945
0B
#334946
1@
#338479
19
15
1#
#338833
1;
17
1%
#338928
0:
06
0$
#339033
0;
07
0%
#345000
1&
12
#345679
1=
#349553
0@
#349560
1B
#353019
09
05
0#
#353702
1;
17
1%
#360000
0&
0'
02
03
#360785
0=
#360805
0>
#364945
0B
#364946
1@
#365060
0@
#365080
1?
#368479
19
15
1#
#368526
09
05
0#
#369033
0;
07
0%
#369271
18
14
1"
#375000
1&
12
#375679
1=
#379557
0?
#379564
1A
#383695
08
04
0"
#383893
1:
16
1$
#390000
0&
1'
02
13
#390699
1>
#390785
0=
#394677
0A
#394691
1B
#394945
0B
#394946
1@
#398479
19
15
1#
#398833
1;
17
1%
#398928
0:
06
0$
#399033
0;
07
0%
#405000
1&
12
#405679
1=
#409553
0@
#409560
1B
#413019
09
05
0#
#413702
1;
17
1%
#420000
0&
0'
02
03
#420785
0=
#420805
0>
#424945
0B
#424946
1@
#425060
0@
#425080
1?
#428479
19
15
1#
#428526
09
05
0#
#429033
0;
07
0%
#429271
18
14
1"
#435000
1&
12
#435679
1=
#439557
0?
#439564
1A
#443695
08
04
0"
#443893
1:
16
1$
#450000
0&
1'
02
13
#450699
1>
#450785
0=
#454677
0A
#454691
1B
#454945
0B
#454946
1@
#458479
19
15
1#
#458833
1;
17
1%
#458928
0:
06
0$
#459033
0;
07
0%
#465000
1&
12
#465679
1=
#469553
0@
#469560
1B
#473019
09
05
0#
#473702
1;
17
1%
#480000
0&
0'
02
03
#480785
0=
#480805
0>
#484945
0B
#484946
1@
#485060
0@
#485080
1?
#488479
19
15
1#
#488526
09
05
0#
#489033
0;
07
0%
#489271
18
14
1"
#495000
1&
12
#495679
1=
#499557
0?
#499564
1A
#503695
08
04
0"
#503893
1:
16
1$
#510000
0&
1'
02
13
#510699
1>
#510785
0=
#514677
0A
#514691
1B
#514945
0B
#514946
1@
#518479
19
15
1#
#518833
1;
17
1%
#518928
0:
06
0$
#519033
0;
07
0%
#525000
1&
12
#525679
1=
#529553
0@
#529560
1B
#533019
09
05
0#
#533702
1;
17
1%
#540000
0&
0'
02
03
#540785
0=
#540805
0>
#544945
0B
#544946
1@
#545060
0@
#545080
1?
#548479
19
15
1#
#548526
09
05
0#
#549033
0;
07
0%
#549271
18
14
1"
#555000
1&
12
#555679
1=
#559557
0?
#559564
1A
#563695
08
04
0"
#563893
1:
16
1$
#570000
0&
1'
02
13
#570699
1>
#570785
0=
#574677
0A
#574691
1B
#574945
0B
#574946
1@
#578479
19
15
1#
#578833
1;
17
1%
#578928
0:
06
0$
#579033
0;
07
0%
#585000
1&
12
#585679
1=
#589553
0@
#589560
1B
#593019
09
05
0#
#593702
1;
17
1%
#600000
0&
0'
02
03
#600785
0=
#600805
0>
#604945
0B
#604946
1@
#605060
0@
#605080
1?
#608479
19
15
1#
#608526
09
05
0#
#609033
0;
07
0%
#609271
18
14
1"
#615000
1&
12
#615679
1=
#619557
0?
#619564
1A
#623695
08
04
0"
#623893
1:
16
1$
#630000
0&
1'
02
13
#630699
1>
#630785
0=
#634677
0A
#634691
1B
#634945
0B
#634946
1@
#638479
19
15
1#
#638833
1;
17
1%
#638928
0:
06
0$
#639033
0;
07
0%
#645000
1&
12
#645679
1=
#649553
0@
#649560
1B
#653019
09
05
0#
#653702
1;
17
1%
#660000
0&
0'
02
03
#660785
0=
#660805
0>
#664945
0B
#664946
1@
#665060
0@
#665080
1?
#668479
19
15
1#
#668526
09
05
0#
#669033
0;
07
0%
#669271
18
14
1"
#675000
1&
12
#675679
1=
#679557
0?
#679564
1A
#683695
08
04
0"
#683893
1:
16
1$
#690000
0&
1'
02
13
#690699
1>
#690785
0=
#694677
0A
#694691
1B
#694945
0B
#694946
1@
#698479
19
15
1#
#698833
1;
17
1%
#698928
0:
06
0$
#699033
0;
07
0%
#705000
1&
12
#705679
1=
#709553
0@
#709560
1B
#713019
09
05
0#
#713702
1;
17
1%
#720000
0&
0'
02
03
#720785
0=
#720805
0>
#724945
0B
#724946
1@
#725060
0@
#725080
1?
#728479
19
15
1#
#728526
09
05
0#
#729033
0;
07
0%
#729271
18
14
1"
#735000
1&
12
#735679
1=
#739557
0?
#739564
1A
#743695
08
04
0"
#743893
1:
16
1$
#750000
0&
1'
02
13
#750699
1>
#750785
0=
#754677
0A
#754691
1B
#754945
0B
#754946
1@
#758479
19
15
1#
#758833
1;
17
1%
#758928
0:
06
0$
#759033
0;
07
0%
#765000
1&
12
#765679
1=
#769553
0@
#769560
1B
#773019
09
05
0#
#773702
1;
17
1%
#780000
0&
0'
02
03
#780785
0=
#780805
0>
#784945
0B
#784946
1@
#785060
0@
#785080
1?
#788479
19
15
1#
#788526
09
05
0#
#789033
0;
07
0%
#789271
18
14
1"
#795000
1&
12
#795679
1=
#799557
0?
#799564
1A
#803695
08
04
0"
#803893
1:
16
1$
#810000
0&
1'
02
13
#810699
1>
#810785
0=
#814677
0A
#814691
1B
#814945
0B
#814946
1@
#818479
19
15
1#
#818833
1;
17
1%
#818928
0:
06
0$
#819033
0;
07
0%
#825000
1&
12
#825679
1=
#829553
0@
#829560
1B
#833019
09
05
0#
#833702
1;
17
1%
#840000
0&
0'
02
03
#840785
0=
#840805
0>
#844945
0B
#844946
1@
#845060
0@
#845080
1?
#848479
19
15
1#
#848526
09
05
0#
#849033
0;
07
0%
#849271
18
14
1"
#855000
1&
12
#855679
1=
#859557
0?
#859564
1A
#863695
08
04
0"
#863893
1:
16
1$
#870000
0&
1'
02
13
#870699
1>
#870785
0=
#874677
0A
#874691
1B
#874945
0B
#874946
1@
#878479
19
15
1#
#878833
1;
17
1%
#878928
0:
06
0$
#879033
0;
07
0%
#885000
1&
12
#885679
1=
#889553
0@
#889560
1B
#893019
09
05
0#
#893702
1;
17
1%
#900000
0&
0'
02
03
#900785
0=
#900805
0>
#904945
0B
#904946
1@
#905060
0@
#905080
1?
#908479
19
15
1#
#908526
09
05
0#
#909033
0;
07
0%
#909271
18
14
1"
#915000
1&
12
#915679
1=
#919557
0?
#919564
1A
#923695
08
04
0"
#923893
1:
16
1$
#930000
0&
1'
02
13
#930699
1>
#930785
0=
#934677
0A
#934691
1B
#934945
0B
#934946
1@
#938479
19
15
1#
#938833
1;
17
1%
#938928
0:
06
0$
#939033
0;
07
0%
#945000
1&
12
#945679
1=
#949553
0@
#949560
1B
#953019
09
05
0#
#953702
1;
17
1%
#960000
0&
0'
02
03
#960785
0=
#960805
0>
#964945
0B
#964946
1@
#965060
0@
#965080
1?
#968479
19
15
1#
#968526
09
05
0#
#969033
0;
07
0%
#969271
18
14
1"
#975000
1&
12
#975679
1=
#979557
0?
#979564
1A
#983695
08
04
0"
#983893
1:
16
1$
#990000
0&
1'
02
13
#990699
1>
#990785
0=
#994677
0A
#994691
1B
#994945
0B
#994946
1@
#998479
19
15
1#
#998833
1;
17
1%
#998928
0:
06
0$
#999033
0;
07
0%
